%!PS-Adobe-3.0 EPSF-3.0
%%Creator: MATLAB, The Mathworks, Inc. Version 7.10.0.499 (R2010a). Operating System: Linux 2.6.32-32-generic-pae #62-Ubuntu SMP Wed Apr 20 22:10:33 UTC 2011 i686.
%%Title: /home/sooraj/Research/CompressedSensing/MatlabCodes/baOMP/baOMPBernoulli.eps
%%CreationDate: 08/10/2011  18:57:30
%%DocumentNeededFonts: Helvetica-Bold
%%DocumentProcessColors: Cyan Magenta Yellow Black
%%LanguageLevel: 2
%%Pages: 1
%%BoundingBox:  -342   112   938   729
%%EndComments

%%BeginProlog
% MathWorks dictionary
/MathWorks 160 dict begin
% definition operators
/bdef {bind def} bind def
/ldef {load def} bind def
/xdef {exch def} bdef
/xstore {exch store} bdef
% operator abbreviations
/c  /clip ldef
/cc /concat ldef
/cp /closepath ldef
/gr /grestore ldef
/gs /gsave ldef
/mt /moveto ldef
/np /newpath ldef
/cm /currentmatrix ldef
/sm /setmatrix ldef
/rm /rmoveto ldef
/rl /rlineto ldef
/s {show newpath} bdef
/sc {setcmykcolor} bdef
/sr /setrgbcolor ldef
/sg /setgray ldef
/w /setlinewidth ldef
/j /setlinejoin ldef
/cap /setlinecap ldef
/rc {rectclip} bdef
/rf {rectfill} bdef
% page state control
/pgsv () def
/bpage {/pgsv save def} bdef
/epage {pgsv restore} bdef
/bplot /gsave ldef
/eplot {stroke grestore} bdef
% orientation switch
/portraitMode 0 def /landscapeMode 1 def /rotateMode 2 def
% coordinate system mappings
/dpi2point 0 def
% font control
/FontSize 0 def
/FMS {/FontSize xstore findfont [FontSize 0 0 FontSize neg 0 0]
  makefont setfont} bdef
/reencode {exch dup where {pop load} {pop StandardEncoding} ifelse
  exch dup 3 1 roll findfont dup length dict begin
  { 1 index /FID ne {def}{pop pop} ifelse } forall
  /Encoding exch def currentdict end definefont pop} bdef
/isroman {findfont /CharStrings get /Agrave known} bdef
/FMSR {3 1 roll 1 index dup isroman {reencode} {pop pop} ifelse
  exch FMS} bdef
/csm {1 dpi2point div -1 dpi2point div scale neg translate
 dup landscapeMode eq {pop -90 rotate}
  {rotateMode eq {90 rotate} if} ifelse} bdef
% line types: solid, dotted, dashed, dotdash
/SO { [] 0 setdash } bdef
/DO { [.5 dpi2point mul 4 dpi2point mul] 0 setdash } bdef
/DA { [6 dpi2point mul] 0 setdash } bdef
/DD { [.5 dpi2point mul 4 dpi2point mul 6 dpi2point mul 4
  dpi2point mul] 0 setdash } bdef
% macros for lines and objects
/L {lineto stroke} bdef
/MP {3 1 roll moveto 1 sub {rlineto} repeat} bdef
/AP {{rlineto} repeat} bdef
/PDlw -1 def
/W {/PDlw currentlinewidth def setlinewidth} def
/PP {closepath eofill} bdef
/DP {closepath stroke} bdef
/MR {4 -2 roll moveto dup  0 exch rlineto exch 0 rlineto
  neg 0 exch rlineto closepath} bdef
/FR {MR stroke} bdef
/PR {MR fill} bdef
/L1i {{currentfile picstr readhexstring pop} image} bdef
/tMatrix matrix def
/MakeOval {newpath tMatrix currentmatrix pop translate scale
0 0 1 0 360 arc tMatrix setmatrix} bdef
/FO {MakeOval stroke} bdef
/PO {MakeOval fill} bdef
/PD {currentlinewidth 2 div 0 360 arc fill
   PDlw -1 eq not {PDlw w /PDlw -1 def} if} def
/FA {newpath tMatrix currentmatrix pop translate scale
  0 0 1 5 -2 roll arc tMatrix setmatrix stroke} bdef
/PA {newpath tMatrix currentmatrix pop	translate 0 0 moveto scale
  0 0 1 5 -2 roll arc closepath tMatrix setmatrix fill} bdef
/FAn {newpath tMatrix currentmatrix pop translate scale
  0 0 1 5 -2 roll arcn tMatrix setmatrix stroke} bdef
/PAn {newpath tMatrix currentmatrix pop translate 0 0 moveto scale
  0 0 1 5 -2 roll arcn closepath tMatrix setmatrix fill} bdef
/vradius 0 def /hradius 0 def /lry 0 def
/lrx 0 def /uly 0 def /ulx 0 def /rad 0 def
/MRR {/vradius xdef /hradius xdef /lry xdef /lrx xdef /uly xdef
  /ulx xdef newpath tMatrix currentmatrix pop ulx hradius add uly
  vradius add translate hradius vradius scale 0 0 1 180 270 arc 
  tMatrix setmatrix lrx hradius sub uly vradius add translate
  hradius vradius scale 0 0 1 270 360 arc tMatrix setmatrix
  lrx hradius sub lry vradius sub translate hradius vradius scale
  0 0 1 0 90 arc tMatrix setmatrix ulx hradius add lry vradius sub
  translate hradius vradius scale 0 0 1 90 180 arc tMatrix setmatrix
  closepath} bdef
/FRR {MRR stroke } bdef
/PRR {MRR fill } bdef
/MlrRR {/lry xdef /lrx xdef /uly xdef /ulx xdef /rad lry uly sub 2 div def
  newpath tMatrix currentmatrix pop ulx rad add uly rad add translate
  rad rad scale 0 0 1 90 270 arc tMatrix setmatrix lrx rad sub lry rad
  sub translate rad rad scale 0 0 1 270 90 arc tMatrix setmatrix
  closepath} bdef
/FlrRR {MlrRR stroke } bdef
/PlrRR {MlrRR fill } bdef
/MtbRR {/lry xdef /lrx xdef /uly xdef /ulx xdef /rad lrx ulx sub 2 div def
  newpath tMatrix currentmatrix pop ulx rad add uly rad add translate
  rad rad scale 0 0 1 180 360 arc tMatrix setmatrix lrx rad sub lry rad
  sub translate rad rad scale 0 0 1 0 180 arc tMatrix setmatrix
  closepath} bdef
/FtbRR {MtbRR stroke } bdef
/PtbRR {MtbRR fill } bdef
/stri 6 array def /dtri 6 array def
/smat 6 array def /dmat 6 array def
/tmat1 6 array def /tmat2 6 array def /dif 3 array def
/asub {/ind2 exch def /ind1 exch def dup dup
  ind1 get exch ind2 get sub exch } bdef
/tri_to_matrix {
  2 0 asub 3 1 asub 4 0 asub 5 1 asub
  dup 0 get exch 1 get 7 -1 roll astore } bdef
/compute_transform {
  dmat dtri tri_to_matrix tmat1 invertmatrix 
  smat stri tri_to_matrix tmat2 concatmatrix } bdef
/ds {stri astore pop} bdef
/dt {dtri astore pop} bdef
/db {2 copy /cols xdef /rows xdef mul dup 3 mul string
  currentfile 
  3 index 0 eq {/ASCIIHexDecode filter}
  {/ASCII85Decode filter 3 index 2 eq {/RunLengthDecode filter} if }
  ifelse exch readstring pop
  dup 0 3 index getinterval /rbmap xdef
  dup 2 index dup getinterval /gbmap xdef
  1 index dup 2 mul exch getinterval /bbmap xdef pop pop}bdef
/it {gs np dtri aload pop moveto lineto lineto cp c
  cols rows 8 compute_transform 
  rbmap gbmap bbmap true 3 colorimage gr}bdef
/il {newpath moveto lineto stroke}bdef
currentdict end def
%%EndProlog

%%BeginSetup
MathWorks begin

0 cap

end
%%EndSetup

%%Page: 1 1
%%BeginPageSetup
%%PageBoundingBox:  -342   112   938   729
MathWorks begin
bpage
%%EndPageSetup

%%BeginObject: obj1
bplot

/dpi2point 12 def
portraitMode -4104 8748 csm

    0     0 15361  7394 rc
86 dict begin %Colortable dictionary
/c0 { 0.000000 0.000000 0.000000 sr} bdef
/c1 { 1.000000 1.000000 1.000000 sr} bdef
/c2 { 0.900000 0.000000 0.000000 sr} bdef
/c3 { 0.000000 0.820000 0.000000 sr} bdef
/c4 { 0.000000 0.000000 0.800000 sr} bdef
/c5 { 0.910000 0.820000 0.320000 sr} bdef
/c6 { 1.000000 0.260000 0.820000 sr} bdef
/c7 { 0.000000 0.820000 0.820000 sr} bdef
c0
1 j
1 sg
   0    0 15362 7395 rf
6 w
0 6026 11905 0 0 -6026 1997 6581 4 MP
PP
-11905 0 0 6026 11905 0 0 -6026 1997 6581 5 MP stroke
4 w
DO
SO
6 w
0 sg
1997 6581 mt 13902 6581 L
1997 6581 mt 1997  555 L
1997 6581 mt 1997 6461 L
%%IncludeResource: font Helvetica-Bold
/Helvetica-Bold /ISOLatin1Encoding 168 FMSR

1951 6776 mt 
(0) s
3319 6581 mt 3319 6461 L
3226 6776 mt 
(10) s
4642 6581 mt 4642 6461 L
4549 6776 mt 
(20) s
5965 6581 mt 5965 6461 L
5872 6776 mt 
(30) s
7288 6581 mt 7288 6461 L
7195 6776 mt 
(40) s
8610 6581 mt 8610 6461 L
8517 6776 mt 
(50) s
9933 6581 mt 9933 6461 L
9840 6776 mt 
(60) s
11256 6581 mt 11256 6461 L
11163 6776 mt 
(70) s
12579 6581 mt 12579 6461 L
12486 6776 mt 
(80) s
13902 6581 mt 13902 6461 L
13809 6776 mt 
(90) s
1997 6581 mt 2116 6581 L
1869 6645 mt 
(0) s
1997 5978 mt 2116 5978 L
1729 6042 mt 
(0.1) s
1997 5375 mt 2116 5375 L
1729 5439 mt 
(0.2) s
1997 4773 mt 2116 4773 L
1729 4837 mt 
(0.3) s
1997 4170 mt 2116 4170 L
1729 4234 mt 
(0.4) s
1997 3568 mt 2116 3568 L
1729 3632 mt 
(0.5) s
1997 2965 mt 2116 2965 L
1729 3029 mt 
(0.6) s
1997 2362 mt 2116 2362 L
1729 2426 mt 
(0.7) s
1997 1760 mt 2116 1760 L
1729 1824 mt 
(0.8) s
1997 1157 mt 2116 1157 L
1729 1221 mt 
(0.9) s
1997  555 mt 2116  555 L
1869  619 mt 
(1) s
gs 1997 555 11906 6027 rc
24 w
/c8 { 1.000000 0.000000 0.000000 sr} bdef
c8
662 434 661 531 662 940 661 1012 661 711 662 1061 661 373 662 350 
661 12 661 96 662 48 661 0 662 0 661 0 661 0 662 0 
661 0 2658 555 18 MP stroke
gr

24 w
c8
2622  555 mt 2694  555 L
2658  519 mt 2658  591 L
3283  555 mt 3355  555 L
3319  519 mt 3319  591 L
3945  555 mt 4017  555 L
3981  519 mt 3981  591 L
4606  555 mt 4678  555 L
4642  519 mt 4642  591 L
5267  555 mt 5339  555 L
5303  519 mt 5303  591 L
5929  555 mt 6001  555 L
5965  519 mt 5965  591 L
6590  555 mt 6662  555 L
6626  519 mt 6626  591 L
7252  603 mt 7324  603 L
7288  567 mt 7288  639 L
7913  699 mt 7985  699 L
7949  663 mt 7949  735 L
8574  711 mt 8646  711 L
8610  675 mt 8610  747 L
9236 1061 mt 9308 1061 L
9272 1025 mt 9272 1097 L
9897 1434 mt 9969 1434 L
9933 1398 mt 9933 1470 L
10559 2495 mt 10631 2495 L
10595 2459 mt 10595 2531 L
11220 3206 mt 11292 3206 L
11256 3170 mt 11256 3242 L
11881 4218 mt 11953 4218 L
11917 4182 mt 11917 4254 L
12543 5158 mt 12615 5158 L
12579 5122 mt 12579 5194 L
13204 5689 mt 13276 5689 L
13240 5653 mt 13240 5725 L
13866 6123 mt 13938 6123 L
13902 6087 mt 13902 6159 L
2633  530 mt 2683  580 L
2683  530 mt 2633  580 L
3294  530 mt 3344  580 L
3344  530 mt 3294  580 L
3956  530 mt 4006  580 L
4006  530 mt 3956  580 L
4617  530 mt 4667  580 L
4667  530 mt 4617  580 L
5278  530 mt 5328  580 L
5328  530 mt 5278  580 L
5940  530 mt 5990  580 L
5990  530 mt 5940  580 L
6601  530 mt 6651  580 L
6651  530 mt 6601  580 L
7263  578 mt 7313  628 L
7313  578 mt 7263  628 L
7924  674 mt 7974  724 L
7974  674 mt 7924  724 L
8585  686 mt 8635  736 L
8635  686 mt 8585  736 L
9247 1036 mt 9297 1086 L
9297 1036 mt 9247 1086 L
9908 1409 mt 9958 1459 L
9958 1409 mt 9908 1459 L
10570 2470 mt 10620 2520 L
10620 2470 mt 10570 2520 L
11231 3181 mt 11281 3231 L
11281 3181 mt 11231 3231 L
11892 4193 mt 11942 4243 L
11942 4193 mt 11892 4243 L
12554 5133 mt 12604 5183 L
12604 5133 mt 12554 5183 L
13215 5664 mt 13265 5714 L
13265 5664 mt 13215 5714 L
13877 6098 mt 13927 6148 L
13927 6098 mt 13877 6148 L
gs 1997 555 11906 6027 rc
0 sg
662 627 661 470 662 326 661 120 661 48 662 24 661 12 662 0 
661 0 661 0 662 0 661 0 662 0 661 0 661 0 662 0 
661 0 2658 555 18 MP stroke
gr

0 sg
2622  555 mt 2694  555 L
2658  519 mt 2658  591 L
3283  555 mt 3355  555 L
3319  519 mt 3319  591 L
3945  555 mt 4017  555 L
3981  519 mt 3981  591 L
4606  555 mt 4678  555 L
4642  519 mt 4642  591 L
5267  555 mt 5339  555 L
5303  519 mt 5303  591 L
5929  555 mt 6001  555 L
5965  519 mt 5965  591 L
6590  555 mt 6662  555 L
6626  519 mt 6626  591 L
7252  555 mt 7324  555 L
7288  519 mt 7288  591 L
7913  555 mt 7985  555 L
7949  519 mt 7949  591 L
8574  555 mt 8646  555 L
8610  519 mt 8610  591 L
9236  555 mt 9308  555 L
9272  519 mt 9272  591 L
9897  567 mt 9969  567 L
9933  531 mt 9933  603 L
10559  591 mt 10631  591 L
10595  555 mt 10595  627 L
11220  639 mt 11292  639 L
11256  603 mt 11256  675 L
11881  759 mt 11953  759 L
11917  723 mt 11917  795 L
12543 1085 mt 12615 1085 L
12579 1049 mt 12579 1121 L
13204 1555 mt 13276 1555 L
13240 1519 mt 13240 1591 L
13866 2182 mt 13938 2182 L
13902 2146 mt 13902 2218 L
2633  530 mt 2683  580 L
2683  530 mt 2633  580 L
3294  530 mt 3344  580 L
3344  530 mt 3294  580 L
3956  530 mt 4006  580 L
4006  530 mt 3956  580 L
4617  530 mt 4667  580 L
4667  530 mt 4617  580 L
5278  530 mt 5328  580 L
5328  530 mt 5278  580 L
5940  530 mt 5990  580 L
5990  530 mt 5940  580 L
6601  530 mt 6651  580 L
6651  530 mt 6601  580 L
7263  530 mt 7313  580 L
7313  530 mt 7263  580 L
7924  530 mt 7974  580 L
7974  530 mt 7924  580 L
8585  530 mt 8635  580 L
8635  530 mt 8585  580 L
9247  530 mt 9297  580 L
9297  530 mt 9247  580 L
9908  542 mt 9958  592 L
9958  542 mt 9908  592 L
10570  566 mt 10620  616 L
10620  566 mt 10570  616 L
11231  614 mt 11281  664 L
11281  614 mt 11231  664 L
11892  734 mt 11942  784 L
11942  734 mt 11892  784 L
12554 1060 mt 12604 1110 L
12604 1060 mt 12554 1110 L
13215 1530 mt 13265 1580 L
13265 1530 mt 13215 1580 L
13877 2157 mt 13927 2207 L
13927 2157 mt 13877 2207 L
gs 1997 555 11906 6027 rc
/c9 { 0.000000 1.000000 0.000000 sr} bdef
c9
662 1108 661 904 662 675 661 398 661 253 662 96 661 12 662 0 
661 0 661 0 662 0 661 0 662 0 661 0 661 0 662 0 
661 0 2658 555 18 MP stroke
gr

c9
2622  555 mt 2694  555 L
2658  519 mt 2658  591 L
3283  555 mt 3355  555 L
3319  519 mt 3319  591 L
3945  555 mt 4017  555 L
3981  519 mt 3981  591 L
4606  555 mt 4678  555 L
4642  519 mt 4642  591 L
5267  555 mt 5339  555 L
5303  519 mt 5303  591 L
5929  555 mt 6001  555 L
5965  519 mt 5965  591 L
6590  555 mt 6662  555 L
6626  519 mt 6626  591 L
7252  555 mt 7324  555 L
7288  519 mt 7288  591 L
7913  555 mt 7985  555 L
7949  519 mt 7949  591 L
8574  555 mt 8646  555 L
8610  519 mt 8610  591 L
9236  555 mt 9308  555 L
9272  519 mt 9272  591 L
9897  567 mt 9969  567 L
9933  531 mt 9933  603 L
10559  663 mt 10631  663 L
10595  627 mt 10595  699 L
11220  916 mt 11292  916 L
11256  880 mt 11256  952 L
11881 1314 mt 11953 1314 L
11917 1278 mt 11917 1350 L
12543 1989 mt 12615 1989 L
12579 1953 mt 12579 2025 L
13204 2893 mt 13276 2893 L
13240 2857 mt 13240 2929 L
13866 4001 mt 13938 4001 L
13902 3965 mt 13902 4037 L
2633  530 mt 2683  580 L
2683  530 mt 2633  580 L
3294  530 mt 3344  580 L
3344  530 mt 3294  580 L
3956  530 mt 4006  580 L
4006  530 mt 3956  580 L
4617  530 mt 4667  580 L
4667  530 mt 4617  580 L
5278  530 mt 5328  580 L
5328  530 mt 5278  580 L
5940  530 mt 5990  580 L
5990  530 mt 5940  580 L
6601  530 mt 6651  580 L
6651  530 mt 6601  580 L
7263  530 mt 7313  580 L
7313  530 mt 7263  580 L
7924  530 mt 7974  580 L
7974  530 mt 7924  580 L
8585  530 mt 8635  580 L
8635  530 mt 8585  580 L
9247  530 mt 9297  580 L
9297  530 mt 9247  580 L
9908  542 mt 9958  592 L
9958  542 mt 9908  592 L
10570  638 mt 10620  688 L
10620  638 mt 10570  688 L
11231  891 mt 11281  941 L
11281  891 mt 11231  941 L
11892 1289 mt 11942 1339 L
11942 1289 mt 11892 1339 L
12554 1964 mt 12604 2014 L
12604 1964 mt 12554 2014 L
13215 2868 mt 13265 2918 L
13265 2868 mt 13215 2918 L
13877 3976 mt 13927 4026 L
13927 3976 mt 13877 4026 L
gs 1997 555 11906 6027 rc
gr

0 sg
7105 6954 mt 
(Signal Sparsity Level) s
1636 5600 mt  -90 rotate
(Prob. of Reconstruction $\\max |x_i-\\hat x_i|< \\delta) s
90 rotate
5100  179 mt 
(Performance  of Backtracking-based Adaptive OMP - Bernoulli\
 Source ) s
3471  343 mt 
( m =128, n=256, no. of simulations=500, ) s
%%IncludeResource: font Symbol
/Symbol /ISOLatin1Encoding 168 FMSR

6638  343 mt 
(m) s
%%IncludeResource: font Helvetica-Bold
/Helvetica-Bold /ISOLatin1Encoding 132 FMSR

6734  427 mt 
(1) s
%%IncludeResource: font Helvetica-Bold
/Helvetica-Bold /ISOLatin1Encoding 168 FMSR

6807  343 mt 
(=0.40 ) s
%%IncludeResource: font Symbol
/Symbol /ISOLatin1Encoding 168 FMSR

7278  343 mt 
(m) s
%%IncludeResource: font Helvetica-Bold
/Helvetica-Bold /ISOLatin1Encoding 132 FMSR

7374  427 mt 
(2) s
%%IncludeResource: font Helvetica-Bold
/Helvetica-Bold /ISOLatin1Encoding 168 FMSR

7447  343 mt 
(=0.60, baOMPThreshold=1e-06, comparisonthreshold\() s
%%IncludeResource: font Symbol
/Symbol /ISOLatin1Encoding 168 FMSR

11779  343 mt 
(d) s
%%IncludeResource: font Helvetica-Bold
/Helvetica-Bold /ISOLatin1Encoding 168 FMSR

11861  343 mt 
(\)=0.001) s
1974 6644 mt 
( ) s
13880  617 mt 
( ) s
6 w
1 sg
0 663 1084 0 0 -663 12759 1279 4 MP
PP
-1084 0 0 663 1084 0 0 -663 12759 1279 5 MP stroke
4 w
DO
SO
6 w
0 sg
12759 1279 mt 13843 1279 L
12759  616 mt 13843  616 L
12759 1279 mt 12759  616 L
13843 1279 mt 13843  616 L
12759 1279 mt 13843 1279 L
12759 1279 mt 12759  616 L
12759 1279 mt 13843 1279 L
12759  616 mt 13843  616 L
12759 1279 mt 12759  616 L
13843 1279 mt 13843  616 L
13198  801 mt 
(pOMP) s
gs 12759 616 1085 664 rc
24 w
c8
337 0 12826 738 2 MP stroke
gs 12897 640 197 197 rc
12959  738 mt 13031  738 L
12995  702 mt 12995  774 L
12970  713 mt 13020  763 L
13020  713 mt 12970  763 L
gr

gr

24 w
c8
0 sg
13198 1010 mt 
(BP) s
gs 12759 616 1085 664 rc
337 0 12826 947 2 MP stroke
gs 12897 849 197 197 rc
12959  947 mt 13031  947 L
12995  911 mt 12995  983 L
12970  922 mt 13020  972 L
13020  922 mt 12970  972 L
gr

gr

13198 1219 mt 
(baOMP) s
gs 12759 616 1085 664 rc
c9
337 0 12826 1156 2 MP stroke
gs 12897 1058 197 197 rc
12959 1156 mt 13031 1156 L
12995 1120 mt 12995 1192 L
12970 1131 mt 13020 1181 L
13020 1131 mt 12970 1181 L
gr

6 w
gr

6 w
c9

end %%Color Dict

eplot
%%EndObject

epage
end

showpage

%%Trailer
%%EOF
