%!PS-Adobe-3.0 EPSF-3.0
%%Creator: MATLAB, The MathWorks, Inc. Version 7.13.0.564 (R2011b). Operating System: Linux 3.0.0-24-generic #40-Ubuntu SMP Tue Jul 24 15:36:59 UTC 2012 i686.
%%Title: /home/ranga/Research/CompressedSensing/MatlabCodes/codes by me/bagiomp/figures/COMP.eps
%%CreationDate: 10/31/2012  12:13:36
%%DocumentNeededFonts: Helvetica
%%DocumentProcessColors: Cyan Magenta Yellow Black
%%LanguageLevel: 2
%%Pages: 1
%%BoundingBox:  -239   120   853   672
%%EndComments

%%BeginProlog
% MathWorks dictionary
/MathWorks 160 dict begin
% definition operators
/bdef {bind def} bind def
/ldef {load def} bind def
/xdef {exch def} bdef
/xstore {exch store} bdef
% operator abbreviations
/c  /clip ldef
/cc /concat ldef
/cp /closepath ldef
/gr /grestore ldef
/gs /gsave ldef
/mt /moveto ldef
/np /newpath ldef
/cm /currentmatrix ldef
/sm /setmatrix ldef
/rm /rmoveto ldef
/rl /rlineto ldef
/s {show newpath} bdef
/sc {setcmykcolor} bdef
/sr /setrgbcolor ldef
/sg /setgray ldef
/w /setlinewidth ldef
/j /setlinejoin ldef
/cap /setlinecap ldef
/rc {rectclip} bdef
/rf {rectfill} bdef
% page state control
/pgsv () def
/bpage {/pgsv save def} bdef
/epage {pgsv restore} bdef
/bplot /gsave ldef
/eplot {stroke grestore} bdef
% orientation switch
/portraitMode 0 def /landscapeMode 1 def /rotateMode 2 def
% coordinate system mappings
/dpi2point 0 def
% font control
/FontSize 0 def
/FMS {/FontSize xstore findfont [FontSize 0 0 FontSize neg 0 0]
  makefont setfont} bdef
/reencode {exch dup where {pop load} {pop StandardEncoding} ifelse
  exch dup 3 1 roll findfont dup length dict begin
  { 1 index /FID ne {def}{pop pop} ifelse } forall
  /Encoding exch def currentdict end definefont pop} bdef
/isroman {findfont /CharStrings get /Agrave known} bdef
/FMSR {3 1 roll 1 index dup isroman {reencode} {pop pop} ifelse
  exch FMS} bdef
/csm {1 dpi2point div -1 dpi2point div scale neg translate
 dup landscapeMode eq {pop -90 rotate}
  {rotateMode eq {90 rotate} if} ifelse} bdef
% line types: solid, dotted, dashed, dotdash
/SO { [] 0 setdash } bdef
/DO { [.5 dpi2point mul 4 dpi2point mul] 0 setdash } bdef
/DA { [6 dpi2point mul] 0 setdash } bdef
/DD { [.5 dpi2point mul 4 dpi2point mul 6 dpi2point mul 4
  dpi2point mul] 0 setdash } bdef
% macros for lines and objects
/L {lineto stroke} bdef
/MP {3 1 roll moveto 1 sub {rlineto} repeat} bdef
/AP {{rlineto} repeat} bdef
/PDlw -1 def
/W {/PDlw currentlinewidth def setlinewidth} def
/PP {closepath eofill} bdef
/DP {closepath stroke} bdef
/MR {4 -2 roll moveto dup  0 exch rlineto exch 0 rlineto
  neg 0 exch rlineto closepath} bdef
/FR {MR stroke} bdef
/PR {MR fill} bdef
/L1i {{currentfile picstr readhexstring pop} image} bdef
/tMatrix matrix def
/MakeOval {newpath tMatrix currentmatrix pop translate scale
0 0 1 0 360 arc tMatrix setmatrix} bdef
/FO {MakeOval stroke} bdef
/PO {MakeOval fill} bdef
/PD {currentlinewidth 2 div 0 360 arc fill
   PDlw -1 eq not {PDlw w /PDlw -1 def} if} def
/FA {newpath tMatrix currentmatrix pop translate scale
  0 0 1 5 -2 roll arc tMatrix setmatrix stroke} bdef
/PA {newpath tMatrix currentmatrix pop	translate 0 0 moveto scale
  0 0 1 5 -2 roll arc closepath tMatrix setmatrix fill} bdef
/FAn {newpath tMatrix currentmatrix pop translate scale
  0 0 1 5 -2 roll arcn tMatrix setmatrix stroke} bdef
/PAn {newpath tMatrix currentmatrix pop translate 0 0 moveto scale
  0 0 1 5 -2 roll arcn closepath tMatrix setmatrix fill} bdef
/vradius 0 def /hradius 0 def /lry 0 def
/lrx 0 def /uly 0 def /ulx 0 def /rad 0 def
/MRR {/vradius xdef /hradius xdef /lry xdef /lrx xdef /uly xdef
  /ulx xdef newpath tMatrix currentmatrix pop ulx hradius add uly
  vradius add translate hradius vradius scale 0 0 1 180 270 arc 
  tMatrix setmatrix lrx hradius sub uly vradius add translate
  hradius vradius scale 0 0 1 270 360 arc tMatrix setmatrix
  lrx hradius sub lry vradius sub translate hradius vradius scale
  0 0 1 0 90 arc tMatrix setmatrix ulx hradius add lry vradius sub
  translate hradius vradius scale 0 0 1 90 180 arc tMatrix setmatrix
  closepath} bdef
/FRR {MRR stroke } bdef
/PRR {MRR fill } bdef
/MlrRR {/lry xdef /lrx xdef /uly xdef /ulx xdef /rad lry uly sub 2 div def
  newpath tMatrix currentmatrix pop ulx rad add uly rad add translate
  rad rad scale 0 0 1 90 270 arc tMatrix setmatrix lrx rad sub lry rad
  sub translate rad rad scale 0 0 1 270 90 arc tMatrix setmatrix
  closepath} bdef
/FlrRR {MlrRR stroke } bdef
/PlrRR {MlrRR fill } bdef
/MtbRR {/lry xdef /lrx xdef /uly xdef /ulx xdef /rad lrx ulx sub 2 div def
  newpath tMatrix currentmatrix pop ulx rad add uly rad add translate
  rad rad scale 0 0 1 180 360 arc tMatrix setmatrix lrx rad sub lry rad
  sub translate rad rad scale 0 0 1 0 180 arc tMatrix setmatrix
  closepath} bdef
/FtbRR {MtbRR stroke } bdef
/PtbRR {MtbRR fill } bdef
/stri 6 array def /dtri 6 array def
/smat 6 array def /dmat 6 array def
/tmat1 6 array def /tmat2 6 array def /dif 3 array def
/asub {/ind2 exch def /ind1 exch def dup dup
  ind1 get exch ind2 get sub exch } bdef
/tri_to_matrix {
  2 0 asub 3 1 asub 4 0 asub 5 1 asub
  dup 0 get exch 1 get 7 -1 roll astore } bdef
/compute_transform {
  dmat dtri tri_to_matrix tmat1 invertmatrix 
  smat stri tri_to_matrix tmat2 concatmatrix } bdef
/ds {stri astore pop} bdef
/dt {dtri astore pop} bdef
/db {2 copy /cols xdef /rows xdef mul dup 3 mul string
  currentfile 
  3 index 0 eq {/ASCIIHexDecode filter}
  {/ASCII85Decode filter 3 index 2 eq {/RunLengthDecode filter} if }
  ifelse exch readstring pop
  dup 0 3 index getinterval /rbmap xdef
  dup 2 index dup getinterval /gbmap xdef
  1 index dup 2 mul exch getinterval /bbmap xdef pop pop}bdef
/it {gs np dtri aload pop moveto lineto lineto cp c
  cols rows 8 compute_transform 
  rbmap gbmap bbmap true 3 colorimage gr}bdef
/il {newpath moveto lineto stroke}bdef
currentdict end def
%%EndProlog

%%BeginSetup
MathWorks begin

0 cap

end
%%EndSetup

%%Page: 1 1
%%BeginPageSetup
%%PageBoundingBox:  -239   120   853   672
MathWorks begin
bpage
%%EndPageSetup

%%BeginObject: obj1
bplot

/dpi2point 12 def
portraitMode -2868 8064 csm

    0     0 13112  6615 rc
89 dict begin %Colortable dictionary
/c0 { 0.000000 0.000000 0.000000 sr} bdef
/c1 { 1.000000 1.000000 1.000000 sr} bdef
/c2 { 0.900000 0.000000 0.000000 sr} bdef
/c3 { 0.000000 0.820000 0.000000 sr} bdef
/c4 { 0.000000 0.000000 0.800000 sr} bdef
/c5 { 0.910000 0.820000 0.320000 sr} bdef
/c6 { 1.000000 0.260000 0.820000 sr} bdef
/c7 { 0.000000 0.820000 0.820000 sr} bdef
c0
1 j
1 sg
   0    0 13113 6616 rf
6 w
0 5391 10161 0 0 -5391 1705 5887 4 MP
PP
-10161 0 0 5391 10161 0 0 -5391 1705 5887 5 MP stroke
4 w
DO
0 sg
1705 5887 mt 1705  496 L
1705  496 mt 1705  496 L
3156 5887 mt 3156  496 L
3156  496 mt 3156  496 L
4608 5887 mt 4608  496 L
4608  496 mt 4608  496 L
6059 5887 mt 6059  496 L
6059  496 mt 6059  496 L
7511 5887 mt 7511  496 L
7511  496 mt 7511  496 L
8962 5887 mt 8962  496 L
8962  496 mt 8962  496 L
10414 5887 mt 10414  496 L
10414  496 mt 10414  496 L
11866 5887 mt 11866  496 L
11866  496 mt 11866  496 L
1705 5887 mt 11866 5887 L
11866 5887 mt 11866 5887 L
1705 5347 mt 11866 5347 L
11866 5347 mt 11866 5347 L
1705 4808 mt 11866 4808 L
11866 4808 mt 11866 4808 L
1705 4269 mt 11866 4269 L
11866 4269 mt 11866 4269 L
1705 3730 mt 11866 3730 L
11866 3730 mt 11866 3730 L
1705 3191 mt 11866 3191 L
11866 3191 mt 11866 3191 L
1705 2652 mt 11866 2652 L
11866 2652 mt 11866 2652 L
1705 2113 mt 11866 2113 L
11866 2113 mt 11866 2113 L
1705 1574 mt 11866 1574 L
11866 1574 mt 11866 1574 L
1705 1035 mt 11866 1035 L
11866 1035 mt 11866 1035 L
1705  496 mt 11866  496 L
11866  496 mt 11866  496 L
SO
6 w
1705 5887 mt 11866 5887 L
1705  496 mt 11866  496 L
1705 5887 mt 1705  496 L
11866 5887 mt 11866  496 L
1705 5887 mt 11866 5887 L
1705 5887 mt 1705  496 L
1705 5887 mt 1705 5785 L
1705  496 mt 1705  597 L
%%IncludeResource: font Helvetica
/Helvetica /ISOLatin1Encoding 240 FMSR

1572 6144 mt 
(50) s
3156 5887 mt 3156 5785 L
3156  496 mt 3156  597 L
3023 6144 mt 
(55) s
4608 5887 mt 4608 5785 L
4608  496 mt 4608  597 L
4475 6144 mt 
(60) s
6059 5887 mt 6059 5785 L
6059  496 mt 6059  597 L
5926 6144 mt 
(65) s
7511 5887 mt 7511 5785 L
7511  496 mt 7511  597 L
7378 6144 mt 
(70) s
8962 5887 mt 8962 5785 L
8962  496 mt 8962  597 L
8829 6144 mt 
(75) s
10414 5887 mt 10414 5785 L
10414  496 mt 10414  597 L
10281 6144 mt 
(80) s
11866 5887 mt 11866 5785 L
11866  496 mt 11866  597 L
11733 6144 mt 
(85) s
1705 5887 mt 1806 5887 L
11866 5887 mt 11764 5887 L
1537 5976 mt 
(0) s
1705 5347 mt 1806 5347 L
11866 5347 mt 11764 5347 L
1337 5436 mt 
(0.1) s
1705 4808 mt 1806 4808 L
11866 4808 mt 11764 4808 L
1337 4897 mt 
(0.2) s
1705 4269 mt 1806 4269 L
11866 4269 mt 11764 4269 L
1337 4358 mt 
(0.3) s
1705 3730 mt 1806 3730 L
11866 3730 mt 11764 3730 L
1337 3819 mt 
(0.4) s
1705 3191 mt 1806 3191 L
11866 3191 mt 11764 3191 L
1337 3280 mt 
(0.5) s
1705 2652 mt 1806 2652 L
11866 2652 mt 11764 2652 L
1337 2741 mt 
(0.6) s
1705 2113 mt 1806 2113 L
11866 2113 mt 11764 2113 L
1337 2202 mt 
(0.7) s
1705 1574 mt 1806 1574 L
11866 1574 mt 11764 1574 L
1337 1663 mt 
(0.8) s
1705 1035 mt 1806 1035 L
11866 1035 mt 11764 1035 L
1337 1124 mt 
(0.9) s
1705  496 mt 1806  496 L
11866  496 mt 11764  496 L
1537  585 mt 
(1) s
1705 5887 mt 11866 5887 L
1705  496 mt 11866  496 L
1705 5887 mt 1705  496 L
11866 5887 mt 11866  496 L
gs 1705 496 10162 5392 rc
24 w
/c8 { 1.000000 0.000000 0.000000 sr} bdef
c8
1452 65 1452 399 1451 1240 1452 2199 1451 1035 1452 389 1451 53 1705 496 8 MP stroke
gr

24 w
c8
gs 1559 350 10454 5673 rc
1645  496 mt 1765  496 L
1705  436 mt 1705  556 L
3096  549 mt 3216  549 L
3156  489 mt 3156  609 L
4548  938 mt 4668  938 L
4608  878 mt 4608  998 L
5999 1973 mt 6119 1973 L
6059 1913 mt 6059 2033 L
7451 4172 mt 7571 4172 L
7511 4112 mt 7511 4232 L
8902 5412 mt 9022 5412 L
8962 5352 mt 8962 5472 L
10354 5811 mt 10474 5811 L
10414 5751 mt 10414 5871 L
11806 5876 mt 11926 5876 L
11866 5816 mt 11866 5936 L
1663  454 mt 1747  538 L
1747  454 mt 1663  538 L
3114  507 mt 3198  591 L
3198  507 mt 3114  591 L
4566  896 mt 4650  980 L
4650  896 mt 4566  980 L
6017 1931 mt 6101 2015 L
6101 1931 mt 6017 2015 L
7469 4130 mt 7553 4214 L
7553 4130 mt 7469 4214 L
8920 5370 mt 9004 5454 L
9004 5370 mt 8920 5454 L
10372 5769 mt 10456 5853 L
10456 5769 mt 10372 5853 L
11824 5834 mt 11908 5918 L
11908 5834 mt 11824 5918 L
gs 1705 496 10162 5392 rc
/c9 { 0.000000 0.000000 1.000000 sr} bdef
c9
1452 0 1452 87 1451 528 1452 1585 1451 1941 1452 787 1451 366 1705 593 8 MP stroke
gr

c9
  60   60 1705  593 FO
  60   60 3156  959 FO
  60   60 4608 1746 FO
  60   60 6059 3687 FO
  60   60 7511 5272 FO
  60   60 8962 5800 FO
  60   60 10414 5887 FO
  60   60 11866 5887 FO
gs 1705 496 10162 5392 rc
/c10 { 0.000000 1.000000 0.000000 sr} bdef
c10
1452 0 1452 44 1451 204 1452 874 1451 1736 1452 1552 1451 744 1705 733 8 MP stroke
gr

c10
gs 1559 587 10454 5447 rc
0 j
0 138 -119 -69 119 -69 1665 802 4 MP
DP
0 138 -119 -69 119 -69 3116 1546 4 MP
DP
0 138 -119 -69 119 -69 4568 3098 4 MP
DP
0 138 -119 -69 119 -69 6019 4834 4 MP
DP
0 138 -119 -69 119 -69 7471 5708 4 MP
DP
0 138 -119 -69 119 -69 8922 5912 4 MP
DP
0 138 -119 -69 119 -69 10374 5956 4 MP
DP
0 138 -119 -69 119 -69 11826 5956 4 MP
DP
gr

gs 1705 496 10162 5392 rc
/c11 { 1.000000 0.000000 1.000000 sr} bdef
c11
1452 11 1452 65 1451 183 1452 1359 1451 1391 1452 1531 1451 647 1705 700 8 MP stroke
gr

c11
gs 1559 554 10454 5480 rc
0 j
-119 69 0 -138 119 69 1626 700 4 MP
DP
-119 69 0 -138 119 69 3077 1347 4 MP
DP
-119 69 0 -138 119 69 4529 2878 4 MP
DP
-119 69 0 -138 119 69 5980 4269 4 MP
DP
-119 69 0 -138 119 69 7432 5628 4 MP
DP
-119 69 0 -138 119 69 8883 5811 4 MP
DP
-119 69 0 -138 119 69 10335 5876 4 MP
DP
-119 69 0 -138 119 69 11787 5887 4 MP
DP
gr

gs 1705 496 10162 5392 rc
/c12 { 0.000000 1.000000 1.000000 sr} bdef
c12
1452 205 1452 690 1451 1035 1452 1801 1451 1024 1452 442 1451 162 1705 517 8 MP stroke
gr

c12
1663  475 mt 1747  559 L
1747  475 mt 1663  559 L
3114  637 mt 3198  721 L
3198  637 mt 3114  721 L
4566 1079 mt 4650 1163 L
4650 1079 mt 4566 1163 L
6017 2103 mt 6101 2187 L
6101 2103 mt 6017 2187 L
7469 3904 mt 7553 3988 L
7553 3904 mt 7469 3988 L
8920 4939 mt 9004 5023 L
9004 4939 mt 8920 5023 L
10372 5629 mt 10456 5713 L
10456 5629 mt 10372 5713 L
11824 5834 mt 11908 5918 L
11908 5834 mt 11824 5918 L
gs 1705 496 10162 5392 rc
0 sg
1452 22 1452 140 1451 626 1452 1293 1451 1510 1452 1164 1451 464 1705 668 8 MP stroke
gr

0 sg
0 j
-69 119 -69 -119 138 0 1636 708 4 MP
DP
-69 119 -69 -119 138 0 3087 1172 4 MP
DP
-69 119 -69 -119 138 0 4539 2336 4 MP
DP
-69 119 -69 -119 138 0 5990 3846 4 MP
DP
-69 119 -69 -119 138 0 7442 5139 4 MP
DP
-69 119 -69 -119 138 0 8893 5765 4 MP
DP
-69 119 -69 -119 138 0 10345 5905 4 MP
DP
-69 119 -69 -119 138 0 11797 5927 4 MP
DP
gr

0 sg
gs 1705 496 10162 5392 rc
gr

5930 6375 mt 
(K, Sparsity level) s
1228 4721 mt  -90 rotate
(Probability of Reconstruction) s
90 rotate
2082  305 mt 
(Exact Reconstruction rate of gaussian saprse signal \(500 re\
alizations\): N = 256, M = 128) s
%%IncludeResource: font Helvetica
/Helvetica /ISOLatin1Encoding 120 FMSR

1688 5930 mt 
( ) s
11850  538 mt 
( ) s
gs 1705 496 10162 5392 rc
/c13 { 0.847059 0.160784 0.000000 sr} bdef
c13
1452 1348 1451 1520 1452 1445 1451 442 1452 226 1451 32 1705 496 7 MP stroke
gr

c13
gs 1559 350 9002 5306 rc
0 j
60 79 -60 79 -60 -79 60 -79 1705 575 5 MP
DP
60 79 -60 79 -60 -79 60 -79 3156 607 5 MP
DP
60 79 -60 79 -60 -79 60 -79 4608 833 5 MP
DP
60 79 -60 79 -60 -79 60 -79 6059 1275 5 MP
DP
60 79 -60 79 -60 -79 60 -79 7511 2720 5 MP
DP
60 79 -60 79 -60 -79 60 -79 8962 4240 5 MP
DP
60 79 -60 79 -60 -79 60 -79 10414 5588 5 MP
DP
gr

gs 1705 496 10162 5392 rc
6 w
gr

6 w
1 sg
0 2639 3935 0 0 -2639 7951 3159 4 MP
PP
-3935 0 0 2639 3935 0 0 -2639 7951 3159 5 MP stroke
4 w
DO
SO
6 w
0 sg
7951 3159 mt 11886 3159 L
7951  520 mt 11886  520 L
7951 3159 mt 7951  520 L
11886 3159 mt 11886  520 L
7951 3159 mt 11886 3159 L
7951 3159 mt 7951  520 L
7951 3159 mt 11886 3159 L
7951  520 mt 11886  520 L
7951 3159 mt 7951  520 L
11886 3159 mt 11886  520 L
%%IncludeResource: font Helvetica
/Helvetica /ISOLatin1Encoding 240 FMSR

8430  812 mt 
(BAGI-OMP) s
gs 7951 520 3936 2640 rc
24 w
c8
369 0 8024 726 2 MP stroke
gs 8062 580 293 293 rc
8148  726 mt 8268  726 L
8208  666 mt 8208  786 L
8166  684 mt 8250  768 L
8250  684 mt 8166  768 L
gr

gr

24 w
c8
0 sg
8430 1183 mt 
(BAOMP with mu1=0.4, mu2=0.4) s
gs 7951 520 3936 2640 rc
c9
369 0 8024 1097 2 MP stroke
gs 8062 951 293 293 rc
  60   60 8208 1097 FO
gr

gr

c9
0 sg
8430 1554 mt 
(BAOMP with mu1=0.8, mu2=0.4) s
gs 7951 520 3936 2640 rc
c10
369 0 8024 1468 2 MP stroke
gs 8062 1322 293 293 rc
0 j
0 138 -119 -69 119 -69 8168 1537 4 MP
DP
gr

gr

c10
0 sg
8430 1925 mt 
(BAOMP with mu1=0.6, mu2=0.4) s
gs 7951 520 3936 2640 rc
c11
369 0 8024 1839 2 MP stroke
gs 8062 1693 293 293 rc
0 j
-119 69 0 -138 119 69 8129 1839 4 MP
DP
gr

gr

c11
0 sg
8430 2296 mt 
(BAOMP with mu1=0.5, mu2=0.7) s
gs 7951 520 3936 2640 rc
c12
369 0 8024 2210 2 MP stroke
gs 8062 2064 293 293 rc
8166 2168 mt 8250 2252 L
8250 2168 mt 8166 2252 L
gr

gr

c12
0 sg
8430 2667 mt 
(BAOMP with mu1=0.8, mu2=0.8) s
gs 7951 520 3936 2640 rc
369 0 8024 2581 2 MP stroke
gs 8062 2435 293 293 rc
0 j
-69 119 -69 -119 138 0 8139 2621 4 MP
DP
gr

gr

8430 3038 mt 
(BAOMP with mu1=0.4, mu2=0.6) s
gs 7951 520 3936 2640 rc
c13
369 0 8024 2952 2 MP stroke
gs 8062 2806 293 293 rc
0 j
60 79 -60 79 -60 -79 60 -79 8208 3031 5 MP
DP
gr

6 w
gr

6 w
c13

end %%Color Dict

eplot
%%EndObject

epage
end

showpage

%%Trailer
%%EOF
