%!PS-Adobe-3.0 EPSF-3.0
%%Creator: MATLAB, The MathWorks, Inc. Version 7.13.0.564 (R2011b). Operating System: Linux 3.0.0-24-generic #40-Ubuntu SMP Tue Jul 24 15:36:59 UTC 2012 i686.
%%Title: /home/ranga/Research/CompressedSensing/MatlabCodes/codes by me/bagiomp/figures/K_Gaussian.eps
%%CreationDate: 11/19/2012  10:38:49
%%DocumentNeededFonts: Helvetica
%%DocumentProcessColors: Cyan Magenta Yellow Black
%%LanguageLevel: 2
%%Pages: 1
%%BoundingBox:  -239   120   853   672
%%EndComments

%%BeginProlog
% MathWorks dictionary
/MathWorks 160 dict begin
% definition operators
/bdef {bind def} bind def
/ldef {load def} bind def
/xdef {exch def} bdef
/xstore {exch store} bdef
% operator abbreviations
/c  /clip ldef
/cc /concat ldef
/cp /closepath ldef
/gr /grestore ldef
/gs /gsave ldef
/mt /moveto ldef
/np /newpath ldef
/cm /currentmatrix ldef
/sm /setmatrix ldef
/rm /rmoveto ldef
/rl /rlineto ldef
/s {show newpath} bdef
/sc {setcmykcolor} bdef
/sr /setrgbcolor ldef
/sg /setgray ldef
/w /setlinewidth ldef
/j /setlinejoin ldef
/cap /setlinecap ldef
/rc {rectclip} bdef
/rf {rectfill} bdef
% page state control
/pgsv () def
/bpage {/pgsv save def} bdef
/epage {pgsv restore} bdef
/bplot /gsave ldef
/eplot {stroke grestore} bdef
% orientation switch
/portraitMode 0 def /landscapeMode 1 def /rotateMode 2 def
% coordinate system mappings
/dpi2point 0 def
% font control
/FontSize 0 def
/FMS {/FontSize xstore findfont [FontSize 0 0 FontSize neg 0 0]
  makefont setfont} bdef
/reencode {exch dup where {pop load} {pop StandardEncoding} ifelse
  exch dup 3 1 roll findfont dup length dict begin
  { 1 index /FID ne {def}{pop pop} ifelse } forall
  /Encoding exch def currentdict end definefont pop} bdef
/isroman {findfont /CharStrings get /Agrave known} bdef
/FMSR {3 1 roll 1 index dup isroman {reencode} {pop pop} ifelse
  exch FMS} bdef
/csm {1 dpi2point div -1 dpi2point div scale neg translate
 dup landscapeMode eq {pop -90 rotate}
  {rotateMode eq {90 rotate} if} ifelse} bdef
% line types: solid, dotted, dashed, dotdash
/SO { [] 0 setdash } bdef
/DO { [.5 dpi2point mul 4 dpi2point mul] 0 setdash } bdef
/DA { [6 dpi2point mul] 0 setdash } bdef
/DD { [.5 dpi2point mul 4 dpi2point mul 6 dpi2point mul 4
  dpi2point mul] 0 setdash } bdef
% macros for lines and objects
/L {lineto stroke} bdef
/MP {3 1 roll moveto 1 sub {rlineto} repeat} bdef
/AP {{rlineto} repeat} bdef
/PDlw -1 def
/W {/PDlw currentlinewidth def setlinewidth} def
/PP {closepath eofill} bdef
/DP {closepath stroke} bdef
/MR {4 -2 roll moveto dup  0 exch rlineto exch 0 rlineto
  neg 0 exch rlineto closepath} bdef
/FR {MR stroke} bdef
/PR {MR fill} bdef
/L1i {{currentfile picstr readhexstring pop} image} bdef
/tMatrix matrix def
/MakeOval {newpath tMatrix currentmatrix pop translate scale
0 0 1 0 360 arc tMatrix setmatrix} bdef
/FO {MakeOval stroke} bdef
/PO {MakeOval fill} bdef
/PD {currentlinewidth 2 div 0 360 arc fill
   PDlw -1 eq not {PDlw w /PDlw -1 def} if} def
/FA {newpath tMatrix currentmatrix pop translate scale
  0 0 1 5 -2 roll arc tMatrix setmatrix stroke} bdef
/PA {newpath tMatrix currentmatrix pop	translate 0 0 moveto scale
  0 0 1 5 -2 roll arc closepath tMatrix setmatrix fill} bdef
/FAn {newpath tMatrix currentmatrix pop translate scale
  0 0 1 5 -2 roll arcn tMatrix setmatrix stroke} bdef
/PAn {newpath tMatrix currentmatrix pop translate 0 0 moveto scale
  0 0 1 5 -2 roll arcn closepath tMatrix setmatrix fill} bdef
/vradius 0 def /hradius 0 def /lry 0 def
/lrx 0 def /uly 0 def /ulx 0 def /rad 0 def
/MRR {/vradius xdef /hradius xdef /lry xdef /lrx xdef /uly xdef
  /ulx xdef newpath tMatrix currentmatrix pop ulx hradius add uly
  vradius add translate hradius vradius scale 0 0 1 180 270 arc 
  tMatrix setmatrix lrx hradius sub uly vradius add translate
  hradius vradius scale 0 0 1 270 360 arc tMatrix setmatrix
  lrx hradius sub lry vradius sub translate hradius vradius scale
  0 0 1 0 90 arc tMatrix setmatrix ulx hradius add lry vradius sub
  translate hradius vradius scale 0 0 1 90 180 arc tMatrix setmatrix
  closepath} bdef
/FRR {MRR stroke } bdef
/PRR {MRR fill } bdef
/MlrRR {/lry xdef /lrx xdef /uly xdef /ulx xdef /rad lry uly sub 2 div def
  newpath tMatrix currentmatrix pop ulx rad add uly rad add translate
  rad rad scale 0 0 1 90 270 arc tMatrix setmatrix lrx rad sub lry rad
  sub translate rad rad scale 0 0 1 270 90 arc tMatrix setmatrix
  closepath} bdef
/FlrRR {MlrRR stroke } bdef
/PlrRR {MlrRR fill } bdef
/MtbRR {/lry xdef /lrx xdef /uly xdef /ulx xdef /rad lrx ulx sub 2 div def
  newpath tMatrix currentmatrix pop ulx rad add uly rad add translate
  rad rad scale 0 0 1 180 360 arc tMatrix setmatrix lrx rad sub lry rad
  sub translate rad rad scale 0 0 1 0 180 arc tMatrix setmatrix
  closepath} bdef
/FtbRR {MtbRR stroke } bdef
/PtbRR {MtbRR fill } bdef
/stri 6 array def /dtri 6 array def
/smat 6 array def /dmat 6 array def
/tmat1 6 array def /tmat2 6 array def /dif 3 array def
/asub {/ind2 exch def /ind1 exch def dup dup
  ind1 get exch ind2 get sub exch } bdef
/tri_to_matrix {
  2 0 asub 3 1 asub 4 0 asub 5 1 asub
  dup 0 get exch 1 get 7 -1 roll astore } bdef
/compute_transform {
  dmat dtri tri_to_matrix tmat1 invertmatrix 
  smat stri tri_to_matrix tmat2 concatmatrix } bdef
/ds {stri astore pop} bdef
/dt {dtri astore pop} bdef
/db {2 copy /cols xdef /rows xdef mul dup 3 mul string
  currentfile 
  3 index 0 eq {/ASCIIHexDecode filter}
  {/ASCII85Decode filter 3 index 2 eq {/RunLengthDecode filter} if }
  ifelse exch readstring pop
  dup 0 3 index getinterval /rbmap xdef
  dup 2 index dup getinterval /gbmap xdef
  1 index dup 2 mul exch getinterval /bbmap xdef pop pop}bdef
/it {gs np dtri aload pop moveto lineto lineto cp c
  cols rows 8 compute_transform 
  rbmap gbmap bbmap true 3 colorimage gr}bdef
/il {newpath moveto lineto stroke}bdef
currentdict end def
%%EndProlog

%%BeginSetup
MathWorks begin

0 cap

end
%%EndSetup

%%Page: 1 1
%%BeginPageSetup
%%PageBoundingBox:  -239   120   853   672
MathWorks begin
bpage
%%EndPageSetup

%%BeginObject: obj1
bplot

/dpi2point 12 def
portraitMode -2868 8064 csm

    0     0 13112  6615 rc
89 dict begin %Colortable dictionary
/c0 { 0.000000 0.000000 0.000000 sr} bdef
/c1 { 1.000000 1.000000 1.000000 sr} bdef
/c2 { 0.900000 0.000000 0.000000 sr} bdef
/c3 { 0.000000 0.820000 0.000000 sr} bdef
/c4 { 0.000000 0.000000 0.800000 sr} bdef
/c5 { 0.910000 0.820000 0.320000 sr} bdef
/c6 { 1.000000 0.260000 0.820000 sr} bdef
/c7 { 0.000000 0.820000 0.820000 sr} bdef
c0
1 j
1 sg
   0    0 13113 6616 rf
6 w
0 5391 10161 0 0 -5391 1705 5887 4 MP
PP
-10161 0 0 5391 10161 0 0 -5391 1705 5887 5 MP stroke
4 w
DO
0 sg
1705 5887 mt 1705  496 L
1705  496 mt 1705  496 L
2834 5887 mt 2834  496 L
2834  496 mt 2834  496 L
3963 5887 mt 3963  496 L
3963  496 mt 3963  496 L
5092 5887 mt 5092  496 L
5092  496 mt 5092  496 L
6221 5887 mt 6221  496 L
6221  496 mt 6221  496 L
7350 5887 mt 7350  496 L
7350  496 mt 7350  496 L
8479 5887 mt 8479  496 L
8479  496 mt 8479  496 L
9608 5887 mt 9608  496 L
9608  496 mt 9608  496 L
10737 5887 mt 10737  496 L
10737  496 mt 10737  496 L
11866 5887 mt 11866  496 L
11866  496 mt 11866  496 L
1705 5887 mt 11866 5887 L
11866 5887 mt 11866 5887 L
1705 5347 mt 11866 5347 L
11866 5347 mt 11866 5347 L
1705 4808 mt 11866 4808 L
11866 4808 mt 11866 4808 L
1705 4269 mt 11866 4269 L
11866 4269 mt 11866 4269 L
1705 3730 mt 11866 3730 L
11866 3730 mt 11866 3730 L
1705 3191 mt 11866 3191 L
11866 3191 mt 11866 3191 L
1705 2652 mt 11866 2652 L
11866 2652 mt 11866 2652 L
1705 2113 mt 11866 2113 L
11866 2113 mt 11866 2113 L
1705 1574 mt 11866 1574 L
11866 1574 mt 11866 1574 L
1705 1035 mt 11866 1035 L
11866 1035 mt 11866 1035 L
1705  496 mt 11866  496 L
11866  496 mt 11866  496 L
SO
6 w
1705 5887 mt 11866 5887 L
1705  496 mt 11866  496 L
1705 5887 mt 1705  496 L
11866 5887 mt 11866  496 L
1705 5887 mt 11866 5887 L
1705 5887 mt 1705  496 L
1705 5887 mt 1705 5785 L
1705  496 mt 1705  597 L
%%IncludeResource: font Helvetica
/Helvetica /ISOLatin1Encoding 240 FMSR

1639 6144 mt 
(0) s
2834 5887 mt 2834 5785 L
2834  496 mt 2834  597 L
2701 6144 mt 
(10) s
3963 5887 mt 3963 5785 L
3963  496 mt 3963  597 L
3830 6144 mt 
(20) s
5092 5887 mt 5092 5785 L
5092  496 mt 5092  597 L
4959 6144 mt 
(30) s
6221 5887 mt 6221 5785 L
6221  496 mt 6221  597 L
6088 6144 mt 
(40) s
7350 5887 mt 7350 5785 L
7350  496 mt 7350  597 L
7217 6144 mt 
(50) s
8479 5887 mt 8479 5785 L
8479  496 mt 8479  597 L
8346 6144 mt 
(60) s
9608 5887 mt 9608 5785 L
9608  496 mt 9608  597 L
9475 6144 mt 
(70) s
10737 5887 mt 10737 5785 L
10737  496 mt 10737  597 L
10604 6144 mt 
(80) s
11866 5887 mt 11866 5785 L
11866  496 mt 11866  597 L
11733 6144 mt 
(90) s
1705 5887 mt 1806 5887 L
11866 5887 mt 11764 5887 L
1537 5976 mt 
(0) s
1705 5347 mt 1806 5347 L
11866 5347 mt 11764 5347 L
1337 5436 mt 
(0.1) s
1705 4808 mt 1806 4808 L
11866 4808 mt 11764 4808 L
1337 4897 mt 
(0.2) s
1705 4269 mt 1806 4269 L
11866 4269 mt 11764 4269 L
1337 4358 mt 
(0.3) s
1705 3730 mt 1806 3730 L
11866 3730 mt 11764 3730 L
1337 3819 mt 
(0.4) s
1705 3191 mt 1806 3191 L
11866 3191 mt 11764 3191 L
1337 3280 mt 
(0.5) s
1705 2652 mt 1806 2652 L
11866 2652 mt 11764 2652 L
1337 2741 mt 
(0.6) s
1705 2113 mt 1806 2113 L
11866 2113 mt 11764 2113 L
1337 2202 mt 
(0.7) s
1705 1574 mt 1806 1574 L
11866 1574 mt 11764 1574 L
1337 1663 mt 
(0.8) s
1705 1035 mt 1806 1035 L
11866 1035 mt 11764 1035 L
1337 1124 mt 
(0.9) s
1705  496 mt 1806  496 L
11866  496 mt 11764  496 L
1537  585 mt 
(1) s
1705 5887 mt 11866 5887 L
1705  496 mt 11866  496 L
1705 5887 mt 1705  496 L
11866 5887 mt 11866  496 L
gs 1705 496 10162 5392 rc
24 w
/c8 { 1.000000 0.000000 0.000000 sr} bdef
c8
565 0 564 44 565 399 564 1196 565 2394 564 992 565 334 564 32 
565 0 564 0 565 0 564 0 565 0 564 0 565 0 564 0 
565 0 2269 496 18 MP stroke
gr

24 w
c8
2209  496 mt 2329  496 L
2269  436 mt 2269  556 L
2774  496 mt 2894  496 L
2834  436 mt 2834  556 L
3338  496 mt 3458  496 L
3398  436 mt 3398  556 L
3903  496 mt 4023  496 L
3963  436 mt 3963  556 L
4467  496 mt 4587  496 L
4527  436 mt 4527  556 L
5032  496 mt 5152  496 L
5092  436 mt 5092  556 L
5596  496 mt 5716  496 L
5656  436 mt 5656  556 L
6161  496 mt 6281  496 L
6221  436 mt 6221  556 L
6725  496 mt 6845  496 L
6785  436 mt 6785  556 L
7290  496 mt 7410  496 L
7350  436 mt 7350  556 L
7854  528 mt 7974  528 L
7914  468 mt 7914  588 L
8419  862 mt 8539  862 L
8479  802 mt 8479  922 L
8983 1854 mt 9103 1854 L
9043 1794 mt 9043 1914 L
9548 4248 mt 9668 4248 L
9608 4188 mt 9608 4308 L
10112 5444 mt 10232 5444 L
10172 5384 mt 10172 5504 L
10677 5843 mt 10797 5843 L
10737 5783 mt 10737 5903 L
11241 5887 mt 11361 5887 L
11301 5827 mt 11301 5947 L
11806 5887 mt 11926 5887 L
11866 5827 mt 11866 5947 L
2227  454 mt 2311  538 L
2311  454 mt 2227  538 L
2792  454 mt 2876  538 L
2876  454 mt 2792  538 L
3356  454 mt 3440  538 L
3440  454 mt 3356  538 L
3921  454 mt 4005  538 L
4005  454 mt 3921  538 L
4485  454 mt 4569  538 L
4569  454 mt 4485  538 L
5050  454 mt 5134  538 L
5134  454 mt 5050  538 L
5614  454 mt 5698  538 L
5698  454 mt 5614  538 L
6179  454 mt 6263  538 L
6263  454 mt 6179  538 L
6743  454 mt 6827  538 L
6827  454 mt 6743  538 L
7308  454 mt 7392  538 L
7392  454 mt 7308  538 L
7872  486 mt 7956  570 L
7956  486 mt 7872  570 L
8437  820 mt 8521  904 L
8521  820 mt 8437  904 L
9001 1812 mt 9085 1896 L
9085 1812 mt 9001 1896 L
9566 4206 mt 9650 4290 L
9650 4206 mt 9566 4290 L
10130 5402 mt 10214 5486 L
10214 5402 mt 10130 5486 L
10695 5801 mt 10779 5885 L
10779 5801 mt 10695 5885 L
11259 5845 mt 11343 5929 L
11343 5845 mt 11259 5929 L
11824 5845 mt 11908 5929 L
11908 5845 mt 11824 5929 L
gs 1705 496 10162 5392 rc
/c9 { 0.000000 0.000000 1.000000 sr} bdef
c9
565 33 564 334 565 1348 564 1520 565 1445 564 442 565 226 564 32 
565 0 564 0 565 0 564 0 565 0 564 0 565 0 564 0 
565 0 2269 496 18 MP stroke
gr

c9
  60   60 2269  496 FO
  60   60 2834  496 FO
  60   60 3398  496 FO
  60   60 3963  496 FO
  60   60 4527  496 FO
  60   60 5092  496 FO
  60   60 5656  496 FO
  60   60 6221  496 FO
  60   60 6785  496 FO
  60   60 7350  496 FO
  60   60 7914  528 FO
  60   60 8479  754 FO
  60   60 9043 1196 FO
  60   60 9608 2641 FO
  60   60 10172 4161 FO
  60   60 10737 5509 FO
  60   60 11301 5843 FO
  60   60 11866 5876 FO
gs 1705 496 10162 5392 rc
/c10 { 0.000000 1.000000 0.000000 sr} bdef
c10
565 0 564 0 565 0 564 0 565 0 564 76 565 237 564 561 
565 1078 564 1294 565 1024 564 755 565 237 564 119 565 10 564 0 
565 0 2269 496 18 MP stroke
gr

c10
0 j
0 138 -119 -69 119 -69 2229 565 4 MP
DP
0 138 -119 -69 119 -69 2794 565 4 MP
DP
0 138 -119 -69 119 -69 3358 565 4 MP
DP
0 138 -119 -69 119 -69 3923 575 4 MP
DP
0 138 -119 -69 119 -69 4487 694 4 MP
DP
0 138 -119 -69 119 -69 5052 931 4 MP
DP
0 138 -119 -69 119 -69 5616 1686 4 MP
DP
0 138 -119 -69 119 -69 6181 2710 4 MP
DP
0 138 -119 -69 119 -69 6745 4004 4 MP
DP
0 138 -119 -69 119 -69 7310 5082 4 MP
DP
0 138 -119 -69 119 -69 7874 5643 4 MP
DP
0 138 -119 -69 119 -69 8439 5880 4 MP
DP
0 138 -119 -69 119 -69 9003 5956 4 MP
DP
0 138 -119 -69 119 -69 9568 5956 4 MP
DP
0 138 -119 -69 119 -69 10132 5956 4 MP
DP
0 138 -119 -69 119 -69 10697 5956 4 MP
DP
0 138 -119 -69 119 -69 11261 5956 4 MP
DP
0 138 -119 -69 119 -69 11826 5956 4 MP
DP
gs 1705 496 10162 5392 rc
/c11 { 1.000000 0.000000 1.000000 sr} bdef
c11
565 0 564 0 565 0 564 0 565 11 564 130 565 560 564 2221 
565 1564 564 798 565 107 564 0 565 0 564 0 565 0 564 0 
565 0 2269 496 18 MP stroke
gr

c11
-119 69 0 -138 119 69 2190 496 4 MP
DP
-119 69 0 -138 119 69 2755 496 4 MP
DP
-119 69 0 -138 119 69 3319 496 4 MP
DP
-119 69 0 -138 119 69 3884 496 4 MP
DP
-119 69 0 -138 119 69 4448 496 4 MP
DP
-119 69 0 -138 119 69 5013 496 4 MP
DP
-119 69 0 -138 119 69 5577 496 4 MP
DP
-119 69 0 -138 119 69 6142 603 4 MP
DP
-119 69 0 -138 119 69 6706 1401 4 MP
DP
-119 69 0 -138 119 69 7271 2965 4 MP
DP
-119 69 0 -138 119 69 7835 5186 4 MP
DP
-119 69 0 -138 119 69 8400 5746 4 MP
DP
-119 69 0 -138 119 69 8964 5876 4 MP
DP
-119 69 0 -138 119 69 9529 5887 4 MP
DP
-119 69 0 -138 119 69 10093 5887 4 MP
DP
-119 69 0 -138 119 69 10658 5887 4 MP
DP
-119 69 0 -138 119 69 11222 5887 4 MP
DP
-119 69 0 -138 119 69 11787 5887 4 MP
DP
gs 1705 496 10162 5392 rc
/c12 { 0.847059 0.160784 0.000000 sr} bdef
c12
565 0 564 0 565 0 564 0 565 0 564 518 565 2286 564 1747 
565 679 564 129 565 32 564 0 565 0 564 0 565 0 564 0 
565 0 2269 496 18 MP stroke
gr

c12
2227  454 mt 2311  538 L
2311  454 mt 2227  538 L
2792  454 mt 2876  538 L
2876  454 mt 2792  538 L
3356  454 mt 3440  538 L
3440  454 mt 3356  538 L
3921  454 mt 4005  538 L
4005  454 mt 3921  538 L
4485  454 mt 4569  538 L
4569  454 mt 4485  538 L
5050  454 mt 5134  538 L
5134  454 mt 5050  538 L
5614  454 mt 5698  538 L
5698  454 mt 5614  538 L
6179  486 mt 6263  570 L
6263  486 mt 6179  570 L
6743  615 mt 6827  699 L
6827  615 mt 6743  699 L
7308 1294 mt 7392 1378 L
7392 1294 mt 7308 1378 L
7872 3041 mt 7956 3125 L
7956 3041 mt 7872 3125 L
8437 5327 mt 8521 5411 L
8521 5327 mt 8437 5411 L
9001 5845 mt 9085 5929 L
9085 5845 mt 9001 5929 L
9566 5845 mt 9650 5929 L
9650 5845 mt 9566 5929 L
10130 5845 mt 10214 5929 L
10214 5845 mt 10130 5929 L
10695 5845 mt 10779 5929 L
10779 5845 mt 10695 5929 L
11259 5845 mt 11343 5929 L
11343 5845 mt 11259 5929 L
11824 5845 mt 11908 5929 L
11908 5845 mt 11824 5929 L
gs 1705 496 10162 5392 rc
gr

0 sg
5897 6375 mt 
( K, Sparsity level) s
 951 4252 mt  -90 rotate
(Probability of Exact ) s
90 rotate
1228 4228 mt  -90 rotate
(Reconstruction       ) s
90 rotate
2082  305 mt 
(Exact Reconstruction rate of gaussian saprse signal \(500 re\
alizations\): N = 256, M = 128) s
%%IncludeResource: font Helvetica
/Helvetica /ISOLatin1Encoding 120 FMSR

1653 5944 mt 
( ) s
11815  552 mt 
( ) s
gs 1705 496 10162 5392 rc
/c13 { 0.000000 0.498039 0.000000 sr} bdef
c13
565 11 564 43 565 281 564 1024 565 1779 564 1175 565 895 564 130 
565 43 564 10 565 0 564 0 565 0 564 0 565 0 564 0 
565 0 2269 496 18 MP stroke
gr

c13
60 79 -60 79 -60 -79 60 -79 2269 575 5 MP
DP
60 79 -60 79 -60 -79 60 -79 2834 575 5 MP
DP
60 79 -60 79 -60 -79 60 -79 3398 575 5 MP
DP
60 79 -60 79 -60 -79 60 -79 3963 575 5 MP
DP
60 79 -60 79 -60 -79 60 -79 4527 575 5 MP
DP
60 79 -60 79 -60 -79 60 -79 5092 575 5 MP
DP
60 79 -60 79 -60 -79 60 -79 5656 575 5 MP
DP
60 79 -60 79 -60 -79 60 -79 6221 575 5 MP
DP
60 79 -60 79 -60 -79 60 -79 6785 585 5 MP
DP
60 79 -60 79 -60 -79 60 -79 7350 628 5 MP
DP
60 79 -60 79 -60 -79 60 -79 7914 758 5 MP
DP
60 79 -60 79 -60 -79 60 -79 8479 1653 5 MP
DP
60 79 -60 79 -60 -79 60 -79 9043 2828 5 MP
DP
60 79 -60 79 -60 -79 60 -79 9608 4607 5 MP
DP
60 79 -60 79 -60 -79 60 -79 10172 5631 5 MP
DP
60 79 -60 79 -60 -79 60 -79 10737 5912 5 MP
DP
60 79 -60 79 -60 -79 60 -79 11301 5955 5 MP
DP
60 79 -60 79 -60 -79 60 -79 11866 5966 5 MP
DP
gs 1705 496 10162 5392 rc
0 sg
565 0 564 0 565 22 564 205 565 906 564 1595 565 1661 564 798 
565 172 564 32 565 0 564 0 565 0 564 0 565 0 564 0 
565 0 2269 496 18 MP stroke
gr

0 sg
0 -94 -94 0 0 94 94 0 2222 449 5 MP
DP
0 -94 -94 0 0 94 94 0 2787 449 5 MP
DP
0 -94 -94 0 0 94 94 0 3351 449 5 MP
DP
0 -94 -94 0 0 94 94 0 3916 449 5 MP
DP
0 -94 -94 0 0 94 94 0 4480 449 5 MP
DP
0 -94 -94 0 0 94 94 0 5045 449 5 MP
DP
0 -94 -94 0 0 94 94 0 5609 449 5 MP
DP
0 -94 -94 0 0 94 94 0 6174 449 5 MP
DP
0 -94 -94 0 0 94 94 0 6738 481 5 MP
DP
0 -94 -94 0 0 94 94 0 7303 653 5 MP
DP
0 -94 -94 0 0 94 94 0 7867 1451 5 MP
DP
0 -94 -94 0 0 94 94 0 8432 3112 5 MP
DP
0 -94 -94 0 0 94 94 0 8996 4707 5 MP
DP
0 -94 -94 0 0 94 94 0 9561 5613 5 MP
DP
0 -94 -94 0 0 94 94 0 10125 5818 5 MP
DP
0 -94 -94 0 0 94 94 0 10690 5840 5 MP
DP
0 -94 -94 0 0 94 94 0 11254 5840 5 MP
DP
0 -94 -94 0 0 94 94 0 11819 5840 5 MP
DP
gs 1705 496 10162 5392 rc
6 w
gr

6 w
1 sg
0 2638 2330 0 0 -2638 2540 5396 4 MP
PP
-2330 0 0 2638 2330 0 0 -2638 2540 5396 5 MP stroke
4 w
DO
SO
6 w
0 sg
2540 5396 mt 4870 5396 L
2540 2758 mt 4870 2758 L
2540 5396 mt 2540 2758 L
4870 5396 mt 4870 2758 L
2540 5396 mt 4870 5396 L
2540 5396 mt 2540 2758 L
2540 5396 mt 4870 5396 L
2540 2758 mt 4870 2758 L
2540 5396 mt 2540 2758 L
4870 5396 mt 4870 2758 L
%%IncludeResource: font Helvetica
/Helvetica /ISOLatin1Encoding 240 FMSR

3023 3050 mt 
(BAGI-OMP) s
gs 2540 2758 2331 2639 rc
24 w
c8
371 0 2614 2964 2 MP stroke
gs 2653 2818 293 293 rc
2739 2964 mt 2859 2964 L
2799 2904 mt 2799 3024 L
2757 2922 mt 2841 3006 L
2841 2922 mt 2757 3006 L
gr

gr

24 w
c8
0 sg
3023 3421 mt 
(BAOMP) s
gs 2540 2758 2331 2639 rc
c9
371 0 2614 3335 2 MP stroke
gs 2653 3189 293 293 rc
  60   60 2799 3335 FO
gr

gr

c9
0 sg
3023 3792 mt 
(OMP) s
gs 2540 2758 2331 2639 rc
c10
371 0 2614 3706 2 MP stroke
gs 2653 3560 293 293 rc
0 138 -119 -69 119 -69 2759 3775 4 MP
DP
gr

gr

c10
0 sg
3023 4163 mt 
(BP) s
gs 2540 2758 2331 2639 rc
c11
371 0 2614 4077 2 MP stroke
gs 2653 3931 293 293 rc
-119 69 0 -138 119 69 2720 4077 4 MP
DP
gr

gr

c11
0 sg
3023 4533 mt 
(SP) s
gs 2540 2758 2331 2639 rc
c12
371 0 2614 4447 2 MP stroke
gs 2653 4301 293 293 rc
2757 4405 mt 2841 4489 L
2841 4405 mt 2757 4489 L
gr

gr

c12
0 sg
3023 4905 mt 
(FBP, ) s
%%IncludeResource: font Symbol
/Symbol /ISOLatin1Encoding 240 FMSR

3580 4905 mt 
(a) s
%%IncludeResource: font Helvetica
/Helvetica /ISOLatin1Encoding 240 FMSR

3731 4905 mt 
(=30, ) s
%%IncludeResource: font Symbol
/Symbol /ISOLatin1Encoding 240 FMSR

4271 4905 mt 
(b) s
%%IncludeResource: font Helvetica
/Helvetica /ISOLatin1Encoding 240 FMSR

4402 4905 mt 
(=29) s
gs 2540 2758 2331 2639 rc
c13
371 0 2614 4818 2 MP stroke
gs 2653 4672 293 293 rc
60 79 -60 79 -60 -79 60 -79 2799 4897 5 MP
DP
gr

gr

c13
0 sg
3023 5276 mt 
(FBP,) s
%%IncludeResource: font Symbol
/Symbol /ISOLatin1Encoding 240 FMSR

3513 5276 mt 
(a) s
%%IncludeResource: font Helvetica
/Helvetica /ISOLatin1Encoding 240 FMSR

3664 5276 mt 
(=20, ) s
%%IncludeResource: font Symbol
/Symbol /ISOLatin1Encoding 240 FMSR

4204 5276 mt 
(b) s
%%IncludeResource: font Helvetica
/Helvetica /ISOLatin1Encoding 240 FMSR

4335 5276 mt 
(=13) s
gs 2540 2758 2331 2639 rc
371 0 2614 5189 2 MP stroke
gs 2653 5043 293 293 rc
0 -94 -94 0 0 94 94 0 2752 5142 5 MP
DP
gr

6 w
gr

6 w

end %%Color Dict

eplot
%%EndObject

epage
end

showpage

%%Trailer
%%EOF
