%!PS-Adobe-3.0 EPSF-3.0
%%Creator: MATLAB, The MathWorks, Inc. Version 7.13.0.564 (R2011b). Operating System: Linux 3.0.0-24-generic #40-Ubuntu SMP Tue Jul 24 15:36:59 UTC 2012 i686.
%%Title: /home/ranga/Research/CompressedSensing/MatlabCodes/codes by me/bagiomp/figures/M_binary.eps
%%CreationDate: 11/19/2012  10:51:05
%%DocumentNeededFonts: Helvetica
%%DocumentProcessColors: Cyan Magenta Yellow Black
%%LanguageLevel: 2
%%Pages: 1
%%BoundingBox:  -239   120   853   672
%%EndComments

%%BeginProlog
% MathWorks dictionary
/MathWorks 160 dict begin
% definition operators
/bdef {bind def} bind def
/ldef {load def} bind def
/xdef {exch def} bdef
/xstore {exch store} bdef
% operator abbreviations
/c  /clip ldef
/cc /concat ldef
/cp /closepath ldef
/gr /grestore ldef
/gs /gsave ldef
/mt /moveto ldef
/np /newpath ldef
/cm /currentmatrix ldef
/sm /setmatrix ldef
/rm /rmoveto ldef
/rl /rlineto ldef
/s {show newpath} bdef
/sc {setcmykcolor} bdef
/sr /setrgbcolor ldef
/sg /setgray ldef
/w /setlinewidth ldef
/j /setlinejoin ldef
/cap /setlinecap ldef
/rc {rectclip} bdef
/rf {rectfill} bdef
% page state control
/pgsv () def
/bpage {/pgsv save def} bdef
/epage {pgsv restore} bdef
/bplot /gsave ldef
/eplot {stroke grestore} bdef
% orientation switch
/portraitMode 0 def /landscapeMode 1 def /rotateMode 2 def
% coordinate system mappings
/dpi2point 0 def
% font control
/FontSize 0 def
/FMS {/FontSize xstore findfont [FontSize 0 0 FontSize neg 0 0]
  makefont setfont} bdef
/reencode {exch dup where {pop load} {pop StandardEncoding} ifelse
  exch dup 3 1 roll findfont dup length dict begin
  { 1 index /FID ne {def}{pop pop} ifelse } forall
  /Encoding exch def currentdict end definefont pop} bdef
/isroman {findfont /CharStrings get /Agrave known} bdef
/FMSR {3 1 roll 1 index dup isroman {reencode} {pop pop} ifelse
  exch FMS} bdef
/csm {1 dpi2point div -1 dpi2point div scale neg translate
 dup landscapeMode eq {pop -90 rotate}
  {rotateMode eq {90 rotate} if} ifelse} bdef
% line types: solid, dotted, dashed, dotdash
/SO { [] 0 setdash } bdef
/DO { [.5 dpi2point mul 4 dpi2point mul] 0 setdash } bdef
/DA { [6 dpi2point mul] 0 setdash } bdef
/DD { [.5 dpi2point mul 4 dpi2point mul 6 dpi2point mul 4
  dpi2point mul] 0 setdash } bdef
% macros for lines and objects
/L {lineto stroke} bdef
/MP {3 1 roll moveto 1 sub {rlineto} repeat} bdef
/AP {{rlineto} repeat} bdef
/PDlw -1 def
/W {/PDlw currentlinewidth def setlinewidth} def
/PP {closepath eofill} bdef
/DP {closepath stroke} bdef
/MR {4 -2 roll moveto dup  0 exch rlineto exch 0 rlineto
  neg 0 exch rlineto closepath} bdef
/FR {MR stroke} bdef
/PR {MR fill} bdef
/L1i {{currentfile picstr readhexstring pop} image} bdef
/tMatrix matrix def
/MakeOval {newpath tMatrix currentmatrix pop translate scale
0 0 1 0 360 arc tMatrix setmatrix} bdef
/FO {MakeOval stroke} bdef
/PO {MakeOval fill} bdef
/PD {currentlinewidth 2 div 0 360 arc fill
   PDlw -1 eq not {PDlw w /PDlw -1 def} if} def
/FA {newpath tMatrix currentmatrix pop translate scale
  0 0 1 5 -2 roll arc tMatrix setmatrix stroke} bdef
/PA {newpath tMatrix currentmatrix pop	translate 0 0 moveto scale
  0 0 1 5 -2 roll arc closepath tMatrix setmatrix fill} bdef
/FAn {newpath tMatrix currentmatrix pop translate scale
  0 0 1 5 -2 roll arcn tMatrix setmatrix stroke} bdef
/PAn {newpath tMatrix currentmatrix pop translate 0 0 moveto scale
  0 0 1 5 -2 roll arcn closepath tMatrix setmatrix fill} bdef
/vradius 0 def /hradius 0 def /lry 0 def
/lrx 0 def /uly 0 def /ulx 0 def /rad 0 def
/MRR {/vradius xdef /hradius xdef /lry xdef /lrx xdef /uly xdef
  /ulx xdef newpath tMatrix currentmatrix pop ulx hradius add uly
  vradius add translate hradius vradius scale 0 0 1 180 270 arc 
  tMatrix setmatrix lrx hradius sub uly vradius add translate
  hradius vradius scale 0 0 1 270 360 arc tMatrix setmatrix
  lrx hradius sub lry vradius sub translate hradius vradius scale
  0 0 1 0 90 arc tMatrix setmatrix ulx hradius add lry vradius sub
  translate hradius vradius scale 0 0 1 90 180 arc tMatrix setmatrix
  closepath} bdef
/FRR {MRR stroke } bdef
/PRR {MRR fill } bdef
/MlrRR {/lry xdef /lrx xdef /uly xdef /ulx xdef /rad lry uly sub 2 div def
  newpath tMatrix currentmatrix pop ulx rad add uly rad add translate
  rad rad scale 0 0 1 90 270 arc tMatrix setmatrix lrx rad sub lry rad
  sub translate rad rad scale 0 0 1 270 90 arc tMatrix setmatrix
  closepath} bdef
/FlrRR {MlrRR stroke } bdef
/PlrRR {MlrRR fill } bdef
/MtbRR {/lry xdef /lrx xdef /uly xdef /ulx xdef /rad lrx ulx sub 2 div def
  newpath tMatrix currentmatrix pop ulx rad add uly rad add translate
  rad rad scale 0 0 1 180 360 arc tMatrix setmatrix lrx rad sub lry rad
  sub translate rad rad scale 0 0 1 0 180 arc tMatrix setmatrix
  closepath} bdef
/FtbRR {MtbRR stroke } bdef
/PtbRR {MtbRR fill } bdef
/stri 6 array def /dtri 6 array def
/smat 6 array def /dmat 6 array def
/tmat1 6 array def /tmat2 6 array def /dif 3 array def
/asub {/ind2 exch def /ind1 exch def dup dup
  ind1 get exch ind2 get sub exch } bdef
/tri_to_matrix {
  2 0 asub 3 1 asub 4 0 asub 5 1 asub
  dup 0 get exch 1 get 7 -1 roll astore } bdef
/compute_transform {
  dmat dtri tri_to_matrix tmat1 invertmatrix 
  smat stri tri_to_matrix tmat2 concatmatrix } bdef
/ds {stri astore pop} bdef
/dt {dtri astore pop} bdef
/db {2 copy /cols xdef /rows xdef mul dup 3 mul string
  currentfile 
  3 index 0 eq {/ASCIIHexDecode filter}
  {/ASCII85Decode filter 3 index 2 eq {/RunLengthDecode filter} if }
  ifelse exch readstring pop
  dup 0 3 index getinterval /rbmap xdef
  dup 2 index dup getinterval /gbmap xdef
  1 index dup 2 mul exch getinterval /bbmap xdef pop pop}bdef
/it {gs np dtri aload pop moveto lineto lineto cp c
  cols rows 8 compute_transform 
  rbmap gbmap bbmap true 3 colorimage gr}bdef
/il {newpath moveto lineto stroke}bdef
currentdict end def
%%EndProlog

%%BeginSetup
MathWorks begin

0 cap

end
%%EndSetup

%%Page: 1 1
%%BeginPageSetup
%%PageBoundingBox:  -239   120   853   672
MathWorks begin
bpage
%%EndPageSetup

%%BeginObject: obj1
bplot

/dpi2point 12 def
portraitMode -2868 8064 csm

    0     0 13112  6615 rc
89 dict begin %Colortable dictionary
/c0 { 0.000000 0.000000 0.000000 sr} bdef
/c1 { 1.000000 1.000000 1.000000 sr} bdef
/c2 { 0.900000 0.000000 0.000000 sr} bdef
/c3 { 0.000000 0.820000 0.000000 sr} bdef
/c4 { 0.000000 0.000000 0.800000 sr} bdef
/c5 { 0.910000 0.820000 0.320000 sr} bdef
/c6 { 1.000000 0.260000 0.820000 sr} bdef
/c7 { 0.000000 0.820000 0.820000 sr} bdef
c0
1 j
1 sg
   0    0 13113 6616 rf
6 w
0 5391 10161 0 0 -5391 1705 5887 4 MP
PP
-10161 0 0 5391 10161 0 0 -5391 1705 5887 5 MP stroke
4 w
DO
0 sg
1705 5887 mt 1705  496 L
1705  496 mt 1705  496 L
2721 5887 mt 2721  496 L
2721  496 mt 2721  496 L
3737 5887 mt 3737  496 L
3737  496 mt 3737  496 L
4753 5887 mt 4753  496 L
4753  496 mt 4753  496 L
5769 5887 mt 5769  496 L
5769  496 mt 5769  496 L
6785 5887 mt 6785  496 L
6785  496 mt 6785  496 L
7801 5887 mt 7801  496 L
7801  496 mt 7801  496 L
8817 5887 mt 8817  496 L
8817  496 mt 8817  496 L
9833 5887 mt 9833  496 L
9833  496 mt 9833  496 L
10849 5887 mt 10849  496 L
10849  496 mt 10849  496 L
11866 5887 mt 11866  496 L
11866  496 mt 11866  496 L
1705 5887 mt 11866 5887 L
11866 5887 mt 11866 5887 L
1705 5347 mt 11866 5347 L
11866 5347 mt 11866 5347 L
1705 4808 mt 11866 4808 L
11866 4808 mt 11866 4808 L
1705 4269 mt 11866 4269 L
11866 4269 mt 11866 4269 L
1705 3730 mt 11866 3730 L
11866 3730 mt 11866 3730 L
1705 3191 mt 11866 3191 L
11866 3191 mt 11866 3191 L
1705 2652 mt 11866 2652 L
11866 2652 mt 11866 2652 L
1705 2113 mt 11866 2113 L
11866 2113 mt 11866 2113 L
1705 1574 mt 11866 1574 L
11866 1574 mt 11866 1574 L
1705 1035 mt 11866 1035 L
11866 1035 mt 11866 1035 L
1705  496 mt 11866  496 L
11866  496 mt 11866  496 L
SO
6 w
1705 5887 mt 11866 5887 L
1705  496 mt 11866  496 L
1705 5887 mt 1705  496 L
11866 5887 mt 11866  496 L
1705 5887 mt 11866 5887 L
1705 5887 mt 1705  496 L
1705 5887 mt 1705 5785 L
1705  496 mt 1705  597 L
%%IncludeResource: font Helvetica
/Helvetica /ISOLatin1Encoding 240 FMSR

1572 6144 mt 
(60) s
2721 5887 mt 2721 5785 L
2721  496 mt 2721  597 L
2588 6144 mt 
(70) s
3737 5887 mt 3737 5785 L
3737  496 mt 3737  597 L
3604 6144 mt 
(80) s
4753 5887 mt 4753 5785 L
4753  496 mt 4753  597 L
4620 6144 mt 
(90) s
5769 5887 mt 5769 5785 L
5769  496 mt 5769  597 L
5569 6144 mt 
(100) s
6785 5887 mt 6785 5785 L
6785  496 mt 6785  597 L
6585 6144 mt 
(110) s
7801 5887 mt 7801 5785 L
7801  496 mt 7801  597 L
7601 6144 mt 
(120) s
8817 5887 mt 8817 5785 L
8817  496 mt 8817  597 L
8617 6144 mt 
(130) s
9833 5887 mt 9833 5785 L
9833  496 mt 9833  597 L
9633 6144 mt 
(140) s
10849 5887 mt 10849 5785 L
10849  496 mt 10849  597 L
10649 6144 mt 
(150) s
11866 5887 mt 11866 5785 L
11866  496 mt 11866  597 L
11666 6144 mt 
(160) s
1705 5887 mt 1806 5887 L
11866 5887 mt 11764 5887 L
1537 5976 mt 
(0) s
1705 5347 mt 1806 5347 L
11866 5347 mt 11764 5347 L
1337 5436 mt 
(0.1) s
1705 4808 mt 1806 4808 L
11866 4808 mt 11764 4808 L
1337 4897 mt 
(0.2) s
1705 4269 mt 1806 4269 L
11866 4269 mt 11764 4269 L
1337 4358 mt 
(0.3) s
1705 3730 mt 1806 3730 L
11866 3730 mt 11764 3730 L
1337 3819 mt 
(0.4) s
1705 3191 mt 1806 3191 L
11866 3191 mt 11764 3191 L
1337 3280 mt 
(0.5) s
1705 2652 mt 1806 2652 L
11866 2652 mt 11764 2652 L
1337 2741 mt 
(0.6) s
1705 2113 mt 1806 2113 L
11866 2113 mt 11764 2113 L
1337 2202 mt 
(0.7) s
1705 1574 mt 1806 1574 L
11866 1574 mt 11764 1574 L
1337 1663 mt 
(0.8) s
1705 1035 mt 1806 1035 L
11866 1035 mt 11764 1035 L
1337 1124 mt 
(0.9) s
1705  496 mt 1806  496 L
11866  496 mt 11764  496 L
1537  585 mt 
(1) s
1705 5887 mt 11866 5887 L
1705  496 mt 11866  496 L
1705 5887 mt 1705  496 L
11866 5887 mt 11866  496 L
gs 1705 496 10162 5392 rc
24 w
/c8 { 1.000000 0.000000 0.000000 sr} bdef
c8
509 0 508 0 508 0 508 0 508 0 508 0 508 0 508 -21 
508 -86 508 -194 508 -1154 508 -1315 508 -1197 508 -1089 508 -281 508 -54 
508 11 508 -11 508 0 508 0 1705 5887 21 MP stroke
gr

24 w
c8
gs 1559 350 10454 5684 rc
1645 5887 mt 1765 5887 L
1705 5827 mt 1705 5947 L
2153 5887 mt 2273 5887 L
2213 5827 mt 2213 5947 L
2661 5887 mt 2781 5887 L
2721 5827 mt 2721 5947 L
3169 5876 mt 3289 5876 L
3229 5816 mt 3229 5936 L
3677 5887 mt 3797 5887 L
3737 5827 mt 3737 5947 L
4185 5833 mt 4305 5833 L
4245 5773 mt 4245 5893 L
4693 5552 mt 4813 5552 L
4753 5492 mt 4753 5612 L
5201 4463 mt 5321 4463 L
5261 4403 mt 5261 4523 L
5709 3266 mt 5829 3266 L
5769 3206 mt 5769 3326 L
6217 1951 mt 6337 1951 L
6277 1891 mt 6277 2011 L
6725  797 mt 6845  797 L
6785  737 mt 6785  857 L
7233  603 mt 7353  603 L
7293  543 mt 7293  663 L
7741  517 mt 7861  517 L
7801  457 mt 7801  577 L
8249  496 mt 8369  496 L
8309  436 mt 8309  556 L
8757  496 mt 8877  496 L
8817  436 mt 8817  556 L
9265  496 mt 9385  496 L
9325  436 mt 9325  556 L
9773  496 mt 9893  496 L
9833  436 mt 9833  556 L
10281  496 mt 10401  496 L
10341  436 mt 10341  556 L
10789  496 mt 10909  496 L
10849  436 mt 10849  556 L
11297  496 mt 11417  496 L
11357  436 mt 11357  556 L
11806  496 mt 11926  496 L
11866  436 mt 11866  556 L
1663 5845 mt 1747 5929 L
1747 5845 mt 1663 5929 L
2171 5845 mt 2255 5929 L
2255 5845 mt 2171 5929 L
2679 5845 mt 2763 5929 L
2763 5845 mt 2679 5929 L
3187 5834 mt 3271 5918 L
3271 5834 mt 3187 5918 L
3695 5845 mt 3779 5929 L
3779 5845 mt 3695 5929 L
4203 5791 mt 4287 5875 L
4287 5791 mt 4203 5875 L
4711 5510 mt 4795 5594 L
4795 5510 mt 4711 5594 L
5219 4421 mt 5303 4505 L
5303 4421 mt 5219 4505 L
5727 3224 mt 5811 3308 L
5811 3224 mt 5727 3308 L
6235 1909 mt 6319 1993 L
6319 1909 mt 6235 1993 L
6743  755 mt 6827  839 L
6827  755 mt 6743  839 L
7251  561 mt 7335  645 L
7335  561 mt 7251  645 L
7759  475 mt 7843  559 L
7843  475 mt 7759  559 L
8267  454 mt 8351  538 L
8351  454 mt 8267  538 L
8775  454 mt 8859  538 L
8859  454 mt 8775  538 L
9283  454 mt 9367  538 L
9367  454 mt 9283  538 L
9791  454 mt 9875  538 L
9875  454 mt 9791  538 L
10299  454 mt 10383  538 L
10383  454 mt 10299  538 L
10807  454 mt 10891  538 L
10891  454 mt 10807  538 L
11315  454 mt 11399  538 L
11399  454 mt 11315  538 L
11824  454 mt 11908  538 L
11908  454 mt 11824  538 L
gs 1705 496 10162 5392 rc
/c9 { 0.000000 0.000000 1.000000 sr} bdef
c9
509 0 508 0 508 0 508 0 508 0 508 0 508 0 508 -10 
508 -43 508 -227 508 -420 508 -680 508 -1142 508 -1607 508 -701 508 -420 
508 -119 508 -11 508 -11 508 0 1705 5887 21 MP stroke
gr

c9
  60   60 1705 5887 FO
  60   60 2213 5887 FO
  60   60 2721 5876 FO
  60   60 3229 5865 FO
  60   60 3737 5746 FO
  60   60 4245 5326 FO
  60   60 4753 4625 FO
  60   60 5261 3018 FO
  60   60 5769 1876 FO
  60   60 6277 1196 FO
  60   60 6785  776 FO
  60   60 7293  549 FO
  60   60 7801  506 FO
  60   60 8309  496 FO
  60   60 8817  496 FO
  60   60 9325  496 FO
  60   60 9833  496 FO
  60   60 10341  496 FO
  60   60 10849  496 FO
  60   60 11357  496 FO
  60   60 11866  496 FO
gs 1705 496 10162 5392 rc
/c10 { 1.000000 0.000000 1.000000 sr} bdef
c10
509 0 508 0 508 0 508 0 508 0 508 0 508 0 508 0 
508 -10 508 -54 508 -291 508 -464 508 -787 508 -1660 508 -885 508 -927 
508 -248 508 -65 508 0 508 0 1705 5887 21 MP stroke
gr

c10
0 j
0 138 -119 -69 119 -69 1665 5956 4 MP
DP
0 138 -119 -69 119 -69 2173 5956 4 MP
DP
0 138 -119 -69 119 -69 2681 5956 4 MP
DP
0 138 -119 -69 119 -69 3189 5891 4 MP
DP
0 138 -119 -69 119 -69 3697 5643 4 MP
DP
0 138 -119 -69 119 -69 4205 4716 4 MP
DP
0 138 -119 -69 119 -69 4713 3831 4 MP
DP
0 138 -119 -69 119 -69 5221 2171 4 MP
DP
0 138 -119 -69 119 -69 5729 1384 4 MP
DP
0 138 -119 -69 119 -69 6237 920 4 MP
DP
0 138 -119 -69 119 -69 6745 629 4 MP
DP
0 138 -119 -69 119 -69 7253 575 4 MP
DP
0 138 -119 -69 119 -69 7761 565 4 MP
DP
0 138 -119 -69 119 -69 8269 565 4 MP
DP
0 138 -119 -69 119 -69 8777 565 4 MP
DP
0 138 -119 -69 119 -69 9285 565 4 MP
DP
0 138 -119 -69 119 -69 9793 565 4 MP
DP
0 138 -119 -69 119 -69 10301 565 4 MP
DP
0 138 -119 -69 119 -69 10809 565 4 MP
DP
0 138 -119 -69 119 -69 11317 565 4 MP
DP
0 138 -119 -69 119 -69 11826 565 4 MP
DP
gs 1705 496 10162 5392 rc
/c11 { 0.000000 1.000000 0.000000 sr} bdef
c11
509 -173 508 -356 508 -269 508 -173 508 -474 508 11 508 -119 508 -108 
508 -43 508 -108 508 0 508 0 508 -11 508 0 508 0 508 0 
508 0 508 0 508 0 508 0 1705 5887 21 MP stroke
gr

c11
gs 1559 3918 10454 2116 rc
-119 69 0 -138 119 69 1626 5887 4 MP
DP
-119 69 0 -138 119 69 2134 5887 4 MP
DP
-119 69 0 -138 119 69 2642 5887 4 MP
DP
-119 69 0 -138 119 69 3150 5887 4 MP
DP
-119 69 0 -138 119 69 3658 5887 4 MP
DP
-119 69 0 -138 119 69 4166 5887 4 MP
DP
-119 69 0 -138 119 69 4674 5887 4 MP
DP
-119 69 0 -138 119 69 5182 5887 4 MP
DP
-119 69 0 -138 119 69 5690 5876 4 MP
DP
-119 69 0 -138 119 69 6198 5876 4 MP
DP
-119 69 0 -138 119 69 6706 5876 4 MP
DP
-119 69 0 -138 119 69 7214 5768 4 MP
DP
-119 69 0 -138 119 69 7722 5725 4 MP
DP
-119 69 0 -138 119 69 8230 5617 4 MP
DP
-119 69 0 -138 119 69 8738 5498 4 MP
DP
-119 69 0 -138 119 69 9246 5509 4 MP
DP
-119 69 0 -138 119 69 9754 5035 4 MP
DP
-119 69 0 -138 119 69 10262 4862 4 MP
DP
-119 69 0 -138 119 69 10770 4593 4 MP
DP
-119 69 0 -138 119 69 11278 4237 4 MP
DP
-119 69 0 -138 119 69 11787 4064 4 MP
DP
gr

gs 1705 496 10162 5392 rc
/c12 { 0.847059 0.160784 0.000000 sr} bdef
c12
509 0 508 0 508 0 508 -10 508 -11 508 11 508 -76 508 -226 
508 -291 508 -680 508 -1218 508 -679 508 -1057 508 -636 508 -302 508 -172 
508 -44 508 0 508 0 508 0 1705 5887 21 MP stroke
gr

c12
1663 5845 mt 1747 5929 L
1747 5845 mt 1663 5929 L
2171 5845 mt 2255 5929 L
2255 5845 mt 2171 5929 L
2679 5845 mt 2763 5929 L
2763 5845 mt 2679 5929 L
3187 5845 mt 3271 5929 L
3271 5845 mt 3187 5929 L
3695 5801 mt 3779 5885 L
3779 5801 mt 3695 5885 L
4203 5629 mt 4287 5713 L
4287 5629 mt 4203 5713 L
4711 5327 mt 4795 5411 L
4795 5327 mt 4711 5411 L
5219 4691 mt 5303 4775 L
5303 4691 mt 5219 4775 L
5727 3634 mt 5811 3718 L
5811 3634 mt 5727 3718 L
6235 2955 mt 6319 3039 L
6319 2955 mt 6235 3039 L
6743 1737 mt 6827 1821 L
6827 1737 mt 6743 1821 L
7251 1057 mt 7335 1141 L
7335 1057 mt 7251 1141 L
7759  766 mt 7843  850 L
7843  766 mt 7759  850 L
8267  540 mt 8351  624 L
8351  540 mt 8267  624 L
8775  464 mt 8859  548 L
8859  464 mt 8775  548 L
9283  475 mt 9367  559 L
9367  475 mt 9283  559 L
9791  464 mt 9875  548 L
9875  464 mt 9791  548 L
10299  454 mt 10383  538 L
10383  454 mt 10299  538 L
10807  454 mt 10891  538 L
10891  454 mt 10807  538 L
11315  454 mt 11399  538 L
11399  454 mt 11315  538 L
11824  454 mt 11908  538 L
11908  454 mt 11824  538 L
gs 1705 496 10162 5392 rc
gr
gr

c12
0 sg
5482 6375 mt 
(M, No. of measurements) s
1228 4991 mt  -90 rotate
(Probability of exact reconstruction) s
90 rotate
2405  305 mt 
(Exact reconstruction rate of Binary Sparse Signal\(500 reali\
zation\): N = 256, K = 30) s
%%IncludeResource: font Helvetica
/Helvetica /ISOLatin1Encoding 120 FMSR

1688 5930 mt 
( ) s
11850  538 mt 
( ) s
gs 1705 496 10162 5392 rc
/c13 { 0.000000 0.498039 0.000000 sr} bdef
c13
509 0 508 0 508 0 508 0 508 -10 508 -33 508 -21 508 -291 
508 -399 508 -1078 508 -1316 508 -808 508 -874 508 -463 508 -65 508 -33 
508 0 508 0 508 0 508 0 1705 5887 21 MP stroke
gr

c13
gs 1559 350 10454 5684 rc
0 j
60 79 -60 79 -60 -79 60 -79 1705 5966 5 MP
DP
60 79 -60 79 -60 -79 60 -79 2213 5966 5 MP
DP
60 79 -60 79 -60 -79 60 -79 2721 5966 5 MP
DP
60 79 -60 79 -60 -79 60 -79 3229 5966 5 MP
DP
60 79 -60 79 -60 -79 60 -79 3737 5966 5 MP
DP
60 79 -60 79 -60 -79 60 -79 4245 5933 5 MP
DP
60 79 -60 79 -60 -79 60 -79 4753 5868 5 MP
DP
60 79 -60 79 -60 -79 60 -79 5261 5405 5 MP
DP
60 79 -60 79 -60 -79 60 -79 5769 4531 5 MP
DP
60 79 -60 79 -60 -79 60 -79 6277 3723 5 MP
DP
60 79 -60 79 -60 -79 60 -79 6785 2407 5 MP
DP
60 79 -60 79 -60 -79 60 -79 7293 1329 5 MP
DP
60 79 -60 79 -60 -79 60 -79 7801 930 5 MP
DP
60 79 -60 79 -60 -79 60 -79 8309 639 5 MP
DP
60 79 -60 79 -60 -79 60 -79 8817 618 5 MP
DP
60 79 -60 79 -60 -79 60 -79 9325 585 5 MP
DP
60 79 -60 79 -60 -79 60 -79 9833 575 5 MP
DP
60 79 -60 79 -60 -79 60 -79 10341 575 5 MP
DP
60 79 -60 79 -60 -79 60 -79 10849 575 5 MP
DP
60 79 -60 79 -60 -79 60 -79 11357 575 5 MP
DP
60 79 -60 79 -60 -79 60 -79 11866 575 5 MP
DP
gs 1705 496 10162 5392 rc
0 sg
509 0 508 0 508 0 508 0 508 -43 508 -64 508 -76 508 -259 
508 -646 508 -874 508 -1628 508 -701 508 -636 508 -377 508 -76 508 -11 
508 0 508 0 508 0 508 0 1705 5887 21 MP stroke
gr

0 sg
0 -94 -94 0 0 94 94 0 1658 5840 5 MP
DP
0 -94 -94 0 0 94 94 0 2166 5840 5 MP
DP
0 -94 -94 0 0 94 94 0 2674 5840 5 MP
DP
0 -94 -94 0 0 94 94 0 3182 5840 5 MP
DP
0 -94 -94 0 0 94 94 0 3690 5840 5 MP
DP
0 -94 -94 0 0 94 94 0 4198 5829 5 MP
DP
0 -94 -94 0 0 94 94 0 4706 5753 5 MP
DP
0 -94 -94 0 0 94 94 0 5214 5376 5 MP
DP
0 -94 -94 0 0 94 94 0 5722 4740 5 MP
DP
0 -94 -94 0 0 94 94 0 6230 4039 5 MP
DP
0 -94 -94 0 0 94 94 0 6738 2411 5 MP
DP
0 -94 -94 0 0 94 94 0 7246 1537 5 MP
DP
0 -94 -94 0 0 94 94 0 7754 891 5 MP
DP
0 -94 -94 0 0 94 94 0 8262 632 5 MP
DP
0 -94 -94 0 0 94 94 0 8770 556 5 MP
DP
0 -94 -94 0 0 94 94 0 9278 492 5 MP
DP
0 -94 -94 0 0 94 94 0 9786 449 5 MP
DP
0 -94 -94 0 0 94 94 0 10294 449 5 MP
DP
0 -94 -94 0 0 94 94 0 10802 449 5 MP
DP
0 -94 -94 0 0 94 94 0 11310 449 5 MP
DP
0 -94 -94 0 0 94 94 0 11819 449 5 MP
DP
gs 1705 496 10162 5392 rc
6 w
gr
gr

6 w
0 sg
1 sg
0 2637 2264 0 0 -2637 9283 3715 4 MP
PP
-2264 0 0 2637 2264 0 0 -2637 9283 3715 5 MP stroke
4 w
DO
SO
6 w
0 sg
9283 3715 mt 11547 3715 L
9283 1078 mt 11547 1078 L
9283 3715 mt 9283 1078 L
11547 3715 mt 11547 1078 L
9283 3715 mt 11547 3715 L
9283 3715 mt 9283 1078 L
9283 3715 mt 11547 3715 L
9283 1078 mt 11547 1078 L
9283 3715 mt 9283 1078 L
11547 3715 mt 11547 1078 L
%%IncludeResource: font Helvetica
/Helvetica /ISOLatin1Encoding 240 FMSR

9764 1369 mt 
(BAGI-OMP) s
gs 9283 1078 2265 2638 rc
24 w
c8
370 0 9356 1284 2 MP stroke
gs 9395 1138 293 293 rc
9481 1284 mt 9601 1284 L
9541 1224 mt 9541 1344 L
9499 1242 mt 9583 1326 L
9583 1242 mt 9499 1326 L
gr

gr

24 w
c8
0 sg
9764 1740 mt 
(BAOMP) s
gs 9283 1078 2265 2638 rc
c9
370 0 9356 1655 2 MP stroke
gs 9395 1509 293 293 rc
  60   60 9541 1655 FO
gr

gr

c9
0 sg
9764 2111 mt 
(BP) s
gs 9283 1078 2265 2638 rc
c10
370 0 9356 2025 2 MP stroke
gs 9395 1879 293 293 rc
0 j
0 138 -119 -69 119 -69 9501 2094 4 MP
DP
gr

gr

c10
0 sg
9764 2482 mt 
(OMP) s
gs 9283 1078 2265 2638 rc
c11
370 0 9356 2396 2 MP stroke
gs 9395 2250 293 293 rc
0 j
-119 69 0 -138 119 69 9462 2396 4 MP
DP
gr

gr

c11
0 sg
9764 2853 mt 
(SP) s
gs 9283 1078 2265 2638 rc
c12
370 0 9356 2767 2 MP stroke
gs 9395 2621 293 293 rc
9499 2725 mt 9583 2809 L
9583 2725 mt 9499 2809 L
gr

gr

c12
0 sg
9764 3225 mt 
(FBP,) s
%%IncludeResource: font Symbol
/Symbol /ISOLatin1Encoding 240 FMSR

10254 3225 mt 
(a) s
%%IncludeResource: font Helvetica
/Helvetica /ISOLatin1Encoding 240 FMSR

10405 3225 mt 
(=30, ) s
%%IncludeResource: font Symbol
/Symbol /ISOLatin1Encoding 240 FMSR

10945 3225 mt 
(b) s
%%IncludeResource: font Helvetica
/Helvetica /ISOLatin1Encoding 240 FMSR

11076 3225 mt 
(=29) s
gs 9283 1078 2265 2638 rc
c13
370 0 9356 3137 2 MP stroke
gs 9395 2991 293 293 rc
0 j
60 79 -60 79 -60 -79 60 -79 9541 3216 5 MP
DP
gr

gr

c13
0 sg
9764 3596 mt 
(FBP,) s
%%IncludeResource: font Symbol
/Symbol /ISOLatin1Encoding 240 FMSR

10254 3596 mt 
(a) s
%%IncludeResource: font Helvetica
/Helvetica /ISOLatin1Encoding 240 FMSR

10405 3596 mt 
(=20, ) s
%%IncludeResource: font Symbol
/Symbol /ISOLatin1Encoding 240 FMSR

10945 3596 mt 
(b) s
%%IncludeResource: font Helvetica
/Helvetica /ISOLatin1Encoding 240 FMSR

11076 3596 mt 
(=13) s
gs 9283 1078 2265 2638 rc
370 0 9356 3508 2 MP stroke
gs 9395 3362 293 293 rc
0 j
0 -94 -94 0 0 94 94 0 9494 3461 5 MP
DP
gr

6 w
gr

6 w

end %%Color Dict

eplot
%%EndObject

epage
end

showpage

%%Trailer
%%EOF
