%!PS-Adobe-3.0 EPSF-3.0
%%Creator: MATLAB, The MathWorks, Inc. Version 7.13.0.564 (R2011b). Operating System: Linux 3.0.0-24-generic #40-Ubuntu SMP Tue Jul 24 15:36:59 UTC 2012 i686.
%%Title: /home/ranga/Research/CompressedSensing/MatlabCodes/codes by me/bagiomp/figures/M_Gaussian.eps
%%CreationDate: 11/19/2012  10:40:34
%%DocumentNeededFonts: Helvetica
%%DocumentProcessColors: Cyan Magenta Yellow Black
%%LanguageLevel: 2
%%Pages: 1
%%BoundingBox:  -239   120   853   672
%%EndComments

%%BeginProlog
% MathWorks dictionary
/MathWorks 160 dict begin
% definition operators
/bdef {bind def} bind def
/ldef {load def} bind def
/xdef {exch def} bdef
/xstore {exch store} bdef
% operator abbreviations
/c  /clip ldef
/cc /concat ldef
/cp /closepath ldef
/gr /grestore ldef
/gs /gsave ldef
/mt /moveto ldef
/np /newpath ldef
/cm /currentmatrix ldef
/sm /setmatrix ldef
/rm /rmoveto ldef
/rl /rlineto ldef
/s {show newpath} bdef
/sc {setcmykcolor} bdef
/sr /setrgbcolor ldef
/sg /setgray ldef
/w /setlinewidth ldef
/j /setlinejoin ldef
/cap /setlinecap ldef
/rc {rectclip} bdef
/rf {rectfill} bdef
% page state control
/pgsv () def
/bpage {/pgsv save def} bdef
/epage {pgsv restore} bdef
/bplot /gsave ldef
/eplot {stroke grestore} bdef
% orientation switch
/portraitMode 0 def /landscapeMode 1 def /rotateMode 2 def
% coordinate system mappings
/dpi2point 0 def
% font control
/FontSize 0 def
/FMS {/FontSize xstore findfont [FontSize 0 0 FontSize neg 0 0]
  makefont setfont} bdef
/reencode {exch dup where {pop load} {pop StandardEncoding} ifelse
  exch dup 3 1 roll findfont dup length dict begin
  { 1 index /FID ne {def}{pop pop} ifelse } forall
  /Encoding exch def currentdict end definefont pop} bdef
/isroman {findfont /CharStrings get /Agrave known} bdef
/FMSR {3 1 roll 1 index dup isroman {reencode} {pop pop} ifelse
  exch FMS} bdef
/csm {1 dpi2point div -1 dpi2point div scale neg translate
 dup landscapeMode eq {pop -90 rotate}
  {rotateMode eq {90 rotate} if} ifelse} bdef
% line types: solid, dotted, dashed, dotdash
/SO { [] 0 setdash } bdef
/DO { [.5 dpi2point mul 4 dpi2point mul] 0 setdash } bdef
/DA { [6 dpi2point mul] 0 setdash } bdef
/DD { [.5 dpi2point mul 4 dpi2point mul 6 dpi2point mul 4
  dpi2point mul] 0 setdash } bdef
% macros for lines and objects
/L {lineto stroke} bdef
/MP {3 1 roll moveto 1 sub {rlineto} repeat} bdef
/AP {{rlineto} repeat} bdef
/PDlw -1 def
/W {/PDlw currentlinewidth def setlinewidth} def
/PP {closepath eofill} bdef
/DP {closepath stroke} bdef
/MR {4 -2 roll moveto dup  0 exch rlineto exch 0 rlineto
  neg 0 exch rlineto closepath} bdef
/FR {MR stroke} bdef
/PR {MR fill} bdef
/L1i {{currentfile picstr readhexstring pop} image} bdef
/tMatrix matrix def
/MakeOval {newpath tMatrix currentmatrix pop translate scale
0 0 1 0 360 arc tMatrix setmatrix} bdef
/FO {MakeOval stroke} bdef
/PO {MakeOval fill} bdef
/PD {currentlinewidth 2 div 0 360 arc fill
   PDlw -1 eq not {PDlw w /PDlw -1 def} if} def
/FA {newpath tMatrix currentmatrix pop translate scale
  0 0 1 5 -2 roll arc tMatrix setmatrix stroke} bdef
/PA {newpath tMatrix currentmatrix pop	translate 0 0 moveto scale
  0 0 1 5 -2 roll arc closepath tMatrix setmatrix fill} bdef
/FAn {newpath tMatrix currentmatrix pop translate scale
  0 0 1 5 -2 roll arcn tMatrix setmatrix stroke} bdef
/PAn {newpath tMatrix currentmatrix pop translate 0 0 moveto scale
  0 0 1 5 -2 roll arcn closepath tMatrix setmatrix fill} bdef
/vradius 0 def /hradius 0 def /lry 0 def
/lrx 0 def /uly 0 def /ulx 0 def /rad 0 def
/MRR {/vradius xdef /hradius xdef /lry xdef /lrx xdef /uly xdef
  /ulx xdef newpath tMatrix currentmatrix pop ulx hradius add uly
  vradius add translate hradius vradius scale 0 0 1 180 270 arc 
  tMatrix setmatrix lrx hradius sub uly vradius add translate
  hradius vradius scale 0 0 1 270 360 arc tMatrix setmatrix
  lrx hradius sub lry vradius sub translate hradius vradius scale
  0 0 1 0 90 arc tMatrix setmatrix ulx hradius add lry vradius sub
  translate hradius vradius scale 0 0 1 90 180 arc tMatrix setmatrix
  closepath} bdef
/FRR {MRR stroke } bdef
/PRR {MRR fill } bdef
/MlrRR {/lry xdef /lrx xdef /uly xdef /ulx xdef /rad lry uly sub 2 div def
  newpath tMatrix currentmatrix pop ulx rad add uly rad add translate
  rad rad scale 0 0 1 90 270 arc tMatrix setmatrix lrx rad sub lry rad
  sub translate rad rad scale 0 0 1 270 90 arc tMatrix setmatrix
  closepath} bdef
/FlrRR {MlrRR stroke } bdef
/PlrRR {MlrRR fill } bdef
/MtbRR {/lry xdef /lrx xdef /uly xdef /ulx xdef /rad lrx ulx sub 2 div def
  newpath tMatrix currentmatrix pop ulx rad add uly rad add translate
  rad rad scale 0 0 1 180 360 arc tMatrix setmatrix lrx rad sub lry rad
  sub translate rad rad scale 0 0 1 0 180 arc tMatrix setmatrix
  closepath} bdef
/FtbRR {MtbRR stroke } bdef
/PtbRR {MtbRR fill } bdef
/stri 6 array def /dtri 6 array def
/smat 6 array def /dmat 6 array def
/tmat1 6 array def /tmat2 6 array def /dif 3 array def
/asub {/ind2 exch def /ind1 exch def dup dup
  ind1 get exch ind2 get sub exch } bdef
/tri_to_matrix {
  2 0 asub 3 1 asub 4 0 asub 5 1 asub
  dup 0 get exch 1 get 7 -1 roll astore } bdef
/compute_transform {
  dmat dtri tri_to_matrix tmat1 invertmatrix 
  smat stri tri_to_matrix tmat2 concatmatrix } bdef
/ds {stri astore pop} bdef
/dt {dtri astore pop} bdef
/db {2 copy /cols xdef /rows xdef mul dup 3 mul string
  currentfile 
  3 index 0 eq {/ASCIIHexDecode filter}
  {/ASCII85Decode filter 3 index 2 eq {/RunLengthDecode filter} if }
  ifelse exch readstring pop
  dup 0 3 index getinterval /rbmap xdef
  dup 2 index dup getinterval /gbmap xdef
  1 index dup 2 mul exch getinterval /bbmap xdef pop pop}bdef
/it {gs np dtri aload pop moveto lineto lineto cp c
  cols rows 8 compute_transform 
  rbmap gbmap bbmap true 3 colorimage gr}bdef
/il {newpath moveto lineto stroke}bdef
currentdict end def
%%EndProlog

%%BeginSetup
MathWorks begin

0 cap

end
%%EndSetup

%%Page: 1 1
%%BeginPageSetup
%%PageBoundingBox:  -239   120   853   672
MathWorks begin
bpage
%%EndPageSetup

%%BeginObject: obj1
bplot

/dpi2point 12 def
portraitMode -2868 8064 csm

    0     0 13112  6615 rc
89 dict begin %Colortable dictionary
/c0 { 0.000000 0.000000 0.000000 sr} bdef
/c1 { 1.000000 1.000000 1.000000 sr} bdef
/c2 { 0.900000 0.000000 0.000000 sr} bdef
/c3 { 0.000000 0.820000 0.000000 sr} bdef
/c4 { 0.000000 0.000000 0.800000 sr} bdef
/c5 { 0.910000 0.820000 0.320000 sr} bdef
/c6 { 1.000000 0.260000 0.820000 sr} bdef
/c7 { 0.000000 0.820000 0.820000 sr} bdef
c0
1 j
1 sg
   0    0 13113 6616 rf
6 w
0 5391 10161 0 0 -5391 1705 5887 4 MP
PP
-10161 0 0 5391 10161 0 0 -5391 1705 5887 5 MP stroke
4 w
DO
0 sg
1705 5887 mt 1705  496 L
1705  496 mt 1705  496 L
2721 5887 mt 2721  496 L
2721  496 mt 2721  496 L
3737 5887 mt 3737  496 L
3737  496 mt 3737  496 L
4753 5887 mt 4753  496 L
4753  496 mt 4753  496 L
5769 5887 mt 5769  496 L
5769  496 mt 5769  496 L
6785 5887 mt 6785  496 L
6785  496 mt 6785  496 L
7801 5887 mt 7801  496 L
7801  496 mt 7801  496 L
8817 5887 mt 8817  496 L
8817  496 mt 8817  496 L
9833 5887 mt 9833  496 L
9833  496 mt 9833  496 L
10849 5887 mt 10849  496 L
10849  496 mt 10849  496 L
11866 5887 mt 11866  496 L
11866  496 mt 11866  496 L
1705 5887 mt 11866 5887 L
11866 5887 mt 11866 5887 L
1705 5347 mt 11866 5347 L
11866 5347 mt 11866 5347 L
1705 4808 mt 11866 4808 L
11866 4808 mt 11866 4808 L
1705 4269 mt 11866 4269 L
11866 4269 mt 11866 4269 L
1705 3730 mt 11866 3730 L
11866 3730 mt 11866 3730 L
1705 3191 mt 11866 3191 L
11866 3191 mt 11866 3191 L
1705 2652 mt 11866 2652 L
11866 2652 mt 11866 2652 L
1705 2113 mt 11866 2113 L
11866 2113 mt 11866 2113 L
1705 1574 mt 11866 1574 L
11866 1574 mt 11866 1574 L
1705 1035 mt 11866 1035 L
11866 1035 mt 11866 1035 L
1705  496 mt 11866  496 L
11866  496 mt 11866  496 L
SO
6 w
1705 5887 mt 11866 5887 L
1705  496 mt 11866  496 L
1705 5887 mt 1705  496 L
11866 5887 mt 11866  496 L
1705 5887 mt 11866 5887 L
1705 5887 mt 1705  496 L
1705 5887 mt 1705 5785 L
1705  496 mt 1705  597 L
%%IncludeResource: font Helvetica
/Helvetica /ISOLatin1Encoding 240 FMSR

1572 6144 mt 
(60) s
2721 5887 mt 2721 5785 L
2721  496 mt 2721  597 L
2588 6144 mt 
(70) s
3737 5887 mt 3737 5785 L
3737  496 mt 3737  597 L
3604 6144 mt 
(80) s
4753 5887 mt 4753 5785 L
4753  496 mt 4753  597 L
4620 6144 mt 
(90) s
5769 5887 mt 5769 5785 L
5769  496 mt 5769  597 L
5569 6144 mt 
(100) s
6785 5887 mt 6785 5785 L
6785  496 mt 6785  597 L
6585 6144 mt 
(110) s
7801 5887 mt 7801 5785 L
7801  496 mt 7801  597 L
7601 6144 mt 
(120) s
8817 5887 mt 8817 5785 L
8817  496 mt 8817  597 L
8617 6144 mt 
(130) s
9833 5887 mt 9833 5785 L
9833  496 mt 9833  597 L
9633 6144 mt 
(140) s
10849 5887 mt 10849 5785 L
10849  496 mt 10849  597 L
10649 6144 mt 
(150) s
11866 5887 mt 11866 5785 L
11866  496 mt 11866  597 L
11666 6144 mt 
(160) s
1705 5887 mt 1806 5887 L
11866 5887 mt 11764 5887 L
1537 5976 mt 
(0) s
1705 5347 mt 1806 5347 L
11866 5347 mt 11764 5347 L
1337 5436 mt 
(0.1) s
1705 4808 mt 1806 4808 L
11866 4808 mt 11764 4808 L
1337 4897 mt 
(0.2) s
1705 4269 mt 1806 4269 L
11866 4269 mt 11764 4269 L
1337 4358 mt 
(0.3) s
1705 3730 mt 1806 3730 L
11866 3730 mt 11764 3730 L
1337 3819 mt 
(0.4) s
1705 3191 mt 1806 3191 L
11866 3191 mt 11764 3191 L
1337 3280 mt 
(0.5) s
1705 2652 mt 1806 2652 L
11866 2652 mt 11764 2652 L
1337 2741 mt 
(0.6) s
1705 2113 mt 1806 2113 L
11866 2113 mt 11764 2113 L
1337 2202 mt 
(0.7) s
1705 1574 mt 1806 1574 L
11866 1574 mt 11764 1574 L
1337 1663 mt 
(0.8) s
1705 1035 mt 1806 1035 L
11866 1035 mt 11764 1035 L
1337 1124 mt 
(0.9) s
1705  496 mt 1806  496 L
11866  496 mt 11764  496 L
1537  585 mt 
(1) s
1705 5887 mt 11866 5887 L
1705  496 mt 11866  496 L
1705 5887 mt 1705  496 L
11866 5887 mt 11866  496 L
gs 1705 496 10162 5392 rc
24 w
/c8 { 1.000000 0.000000 0.000000 sr} bdef
c8
509 0 508 0 508 0 508 0 508 0 508 0 508 0 508 0 
508 0 508 0 508 0 508 0 508 0 508 -10 508 -130 508 -409 
508 -1575 508 -1832 508 -1154 508 -270 1705 5876 21 MP stroke
gr

24 w
c8
1645 5876 mt 1765 5876 L
1705 5816 mt 1705 5936 L
2153 5606 mt 2273 5606 L
2213 5546 mt 2213 5666 L
2661 4452 mt 2781 4452 L
2721 4392 mt 2721 4512 L
3169 2620 mt 3289 2620 L
3229 2560 mt 3229 2680 L
3677 1045 mt 3797 1045 L
3737  985 mt 3737 1105 L
4185  636 mt 4305  636 L
4245  576 mt 4245  696 L
4693  506 mt 4813  506 L
4753  446 mt 4753  566 L
5201  496 mt 5321  496 L
5261  436 mt 5261  556 L
5709  496 mt 5829  496 L
5769  436 mt 5769  556 L
6217  496 mt 6337  496 L
6277  436 mt 6277  556 L
6725  496 mt 6845  496 L
6785  436 mt 6785  556 L
7233  496 mt 7353  496 L
7293  436 mt 7293  556 L
7741  496 mt 7861  496 L
7801  436 mt 7801  556 L
8249  496 mt 8369  496 L
8309  436 mt 8309  556 L
8757  496 mt 8877  496 L
8817  436 mt 8817  556 L
9265  496 mt 9385  496 L
9325  436 mt 9325  556 L
9773  496 mt 9893  496 L
9833  436 mt 9833  556 L
10281  496 mt 10401  496 L
10341  436 mt 10341  556 L
10789  496 mt 10909  496 L
10849  436 mt 10849  556 L
11297  496 mt 11417  496 L
11357  436 mt 11357  556 L
11806  496 mt 11926  496 L
11866  436 mt 11866  556 L
1663 5834 mt 1747 5918 L
1747 5834 mt 1663 5918 L
2171 5564 mt 2255 5648 L
2255 5564 mt 2171 5648 L
2679 4410 mt 2763 4494 L
2763 4410 mt 2679 4494 L
3187 2578 mt 3271 2662 L
3271 2578 mt 3187 2662 L
3695 1003 mt 3779 1087 L
3779 1003 mt 3695 1087 L
4203  594 mt 4287  678 L
4287  594 mt 4203  678 L
4711  464 mt 4795  548 L
4795  464 mt 4711  548 L
5219  454 mt 5303  538 L
5303  454 mt 5219  538 L
5727  454 mt 5811  538 L
5811  454 mt 5727  538 L
6235  454 mt 6319  538 L
6319  454 mt 6235  538 L
6743  454 mt 6827  538 L
6827  454 mt 6743  538 L
7251  454 mt 7335  538 L
7335  454 mt 7251  538 L
7759  454 mt 7843  538 L
7843  454 mt 7759  538 L
8267  454 mt 8351  538 L
8351  454 mt 8267  538 L
8775  454 mt 8859  538 L
8859  454 mt 8775  538 L
9283  454 mt 9367  538 L
9367  454 mt 9283  538 L
9791  454 mt 9875  538 L
9875  454 mt 9791  538 L
10299  454 mt 10383  538 L
10383  454 mt 10299  538 L
10807  454 mt 10891  538 L
10891  454 mt 10807  538 L
11315  454 mt 11399  538 L
11399  454 mt 11315  538 L
11824  454 mt 11908  538 L
11908  454 mt 11824  538 L
gs 1705 496 10162 5392 rc
/c9 { 0.000000 0.000000 1.000000 sr} bdef
c9
509 0 508 0 508 0 508 0 508 0 508 0 508 0 508 0 
508 0 508 0 508 0 508 0 508 0 508 -21 508 -32 508 -162 
508 -755 508 -1596 508 -2048 508 -712 1705 5822 21 MP stroke
gr

c9
  60   60 1705 5822 FO
  60   60 2213 5110 FO
  60   60 2721 3062 FO
  60   60 3229 1466 FO
  60   60 3737  711 FO
  60   60 4245  549 FO
  60   60 4753  517 FO
  60   60 5261  496 FO
  60   60 5769  496 FO
  60   60 6277  496 FO
  60   60 6785  496 FO
  60   60 7293  496 FO
  60   60 7801  496 FO
  60   60 8309  496 FO
  60   60 8817  496 FO
  60   60 9325  496 FO
  60   60 9833  496 FO
  60   60 10341  496 FO
  60   60 10849  496 FO
  60   60 11357  496 FO
  60   60 11866  496 FO
gs 1705 496 10162 5392 rc
/c10 { 0.000000 1.000000 0.000000 sr} bdef
c10
509 -44 508 -43 508 -43 508 0 508 -140 508 54 508 -291 508 -356 
508 86 508 -420 508 -291 508 -787 508 -399 508 -507 508 -496 508 -755 
508 -291 508 -388 508 -119 508 -86 1705 5865 21 MP stroke
gr

c10
0 j
0 138 -119 -69 119 -69 1665 5934 4 MP
DP
0 138 -119 -69 119 -69 2173 5848 4 MP
DP
0 138 -119 -69 119 -69 2681 5729 4 MP
DP
0 138 -119 -69 119 -69 3189 5341 4 MP
DP
0 138 -119 -69 119 -69 3697 5050 4 MP
DP
0 138 -119 -69 119 -69 4205 4295 4 MP
DP
0 138 -119 -69 119 -69 4713 3799 4 MP
DP
0 138 -119 -69 119 -69 5221 3292 4 MP
DP
0 138 -119 -69 119 -69 5729 2893 4 MP
DP
0 138 -119 -69 119 -69 6237 2106 4 MP
DP
0 138 -119 -69 119 -69 6745 1815 4 MP
DP
0 138 -119 -69 119 -69 7253 1395 4 MP
DP
0 138 -119 -69 119 -69 7761 1481 4 MP
DP
0 138 -119 -69 119 -69 8269 1125 4 MP
DP
0 138 -119 -69 119 -69 8777 834 4 MP
DP
0 138 -119 -69 119 -69 9285 888 4 MP
DP
0 138 -119 -69 119 -69 9793 748 4 MP
DP
0 138 -119 -69 119 -69 10301 748 4 MP
DP
0 138 -119 -69 119 -69 10809 705 4 MP
DP
0 138 -119 -69 119 -69 11317 662 4 MP
DP
0 138 -119 -69 119 -69 11826 618 4 MP
DP
gs 1705 496 10162 5392 rc
/c11 { 1.000000 0.000000 1.000000 sr} bdef
c11
509 0 508 0 508 0 508 0 508 0 508 0 508 0 508 0 
508 -21 508 -76 508 -248 508 -549 508 -1003 508 -1596 508 -1013 508 -604 
508 -216 508 -54 508 -11 508 0 1705 5887 21 MP stroke
gr

c11
-119 69 0 -138 119 69 1626 5887 4 MP
DP
-119 69 0 -138 119 69 2134 5887 4 MP
DP
-119 69 0 -138 119 69 2642 5876 4 MP
DP
-119 69 0 -138 119 69 3150 5822 4 MP
DP
-119 69 0 -138 119 69 3658 5606 4 MP
DP
-119 69 0 -138 119 69 4166 5002 4 MP
DP
-119 69 0 -138 119 69 4674 3989 4 MP
DP
-119 69 0 -138 119 69 5182 2393 4 MP
DP
-119 69 0 -138 119 69 5690 1390 4 MP
DP
-119 69 0 -138 119 69 6198 841 4 MP
DP
-119 69 0 -138 119 69 6706 593 4 MP
DP
-119 69 0 -138 119 69 7214 517 4 MP
DP
-119 69 0 -138 119 69 7722 496 4 MP
DP
-119 69 0 -138 119 69 8230 496 4 MP
DP
-119 69 0 -138 119 69 8738 496 4 MP
DP
-119 69 0 -138 119 69 9246 496 4 MP
DP
-119 69 0 -138 119 69 9754 496 4 MP
DP
-119 69 0 -138 119 69 10262 496 4 MP
DP
-119 69 0 -138 119 69 10770 496 4 MP
DP
-119 69 0 -138 119 69 11278 496 4 MP
DP
-119 69 0 -138 119 69 11787 496 4 MP
DP
gs 1705 496 10162 5392 rc
/c12 { 0.847059 0.160784 0.000000 sr} bdef
c12
509 0 508 0 508 0 508 0 508 0 508 0 508 0 508 0 
508 0 508 -21 508 -86 508 -130 508 -151 508 -808 508 -1186 508 -1305 
508 -1057 508 -485 508 -151 508 -11 1705 5887 21 MP stroke
gr

c12
1663 5845 mt 1747 5929 L
1747 5845 mt 1663 5929 L
2171 5834 mt 2255 5918 L
2255 5834 mt 2171 5918 L
2679 5683 mt 2763 5767 L
2763 5683 mt 2679 5767 L
3187 5198 mt 3271 5282 L
3271 5198 mt 3187 5282 L
3695 4141 mt 3779 4225 L
3779 4141 mt 3695 4225 L
4203 2836 mt 4287 2920 L
4287 2836 mt 4203 2920 L
4711 1650 mt 4795 1734 L
4795 1650 mt 4711 1734 L
5219  842 mt 5303  926 L
5303  842 mt 5219  926 L
5727  691 mt 5811  775 L
5811  691 mt 5727  775 L
6235  561 mt 6319  645 L
6319  561 mt 6235  645 L
6743  475 mt 6827  559 L
6827  475 mt 6743  559 L
7251  454 mt 7335  538 L
7335  454 mt 7251  538 L
7759  454 mt 7843  538 L
7843  454 mt 7759  538 L
8267  454 mt 8351  538 L
8351  454 mt 8267  538 L
8775  454 mt 8859  538 L
8859  454 mt 8775  538 L
9283  454 mt 9367  538 L
9367  454 mt 9283  538 L
9791  454 mt 9875  538 L
9875  454 mt 9791  538 L
10299  454 mt 10383  538 L
10383  454 mt 10299  538 L
10807  454 mt 10891  538 L
10891  454 mt 10807  538 L
11315  454 mt 11399  538 L
11399  454 mt 11315  538 L
11824  454 mt 11908  538 L
11908  454 mt 11824  538 L
gs 1705 496 10162 5392 rc
gr

0 sg
5482 6375 mt 
(M, No. of Measurements) s
 951 4252 mt  -90 rotate
(Probability of Exact ) s
90 rotate
1228 4228 mt  -90 rotate
(Reconstruction       ) s
90 rotate
2168  305 mt 
(Exact Reconstruction rate of gaussian saprse signal \(500 re\
alizations\): N = 256, K = 30) s
%%IncludeResource: font Helvetica
/Helvetica /ISOLatin1Encoding 120 FMSR

1688 5930 mt 
( ) s
11850  538 mt 
( ) s
gs 1705 496 10162 5392 rc
/c13 { 0.000000 0.498039 0.000000 sr} bdef
c13
509 0 508 0 508 0 508 0 508 0 508 0 508 0 508 0 
508 0 508 0 508 0 508 0 508 -53 508 -87 508 -312 508 -410 
508 -1154 508 -1046 508 -1455 508 -679 1705 5692 21 MP stroke
gr

c13
60 79 -60 79 -60 -79 60 -79 1705 5771 5 MP
DP
60 79 -60 79 -60 -79 60 -79 2213 5092 5 MP
DP
60 79 -60 79 -60 -79 60 -79 2721 3637 5 MP
DP
60 79 -60 79 -60 -79 60 -79 3229 2591 5 MP
DP
60 79 -60 79 -60 -79 60 -79 3737 1437 5 MP
DP
60 79 -60 79 -60 -79 60 -79 4245 1027 5 MP
DP
60 79 -60 79 -60 -79 60 -79 4753 715 5 MP
DP
60 79 -60 79 -60 -79 60 -79 5261 628 5 MP
DP
60 79 -60 79 -60 -79 60 -79 5769 575 5 MP
DP
60 79 -60 79 -60 -79 60 -79 6277 575 5 MP
DP
60 79 -60 79 -60 -79 60 -79 6785 575 5 MP
DP
60 79 -60 79 -60 -79 60 -79 7293 575 5 MP
DP
60 79 -60 79 -60 -79 60 -79 7801 575 5 MP
DP
60 79 -60 79 -60 -79 60 -79 8309 575 5 MP
DP
60 79 -60 79 -60 -79 60 -79 8817 575 5 MP
DP
60 79 -60 79 -60 -79 60 -79 9325 575 5 MP
DP
60 79 -60 79 -60 -79 60 -79 9833 575 5 MP
DP
60 79 -60 79 -60 -79 60 -79 10341 575 5 MP
DP
60 79 -60 79 -60 -79 60 -79 10849 575 5 MP
DP
60 79 -60 79 -60 -79 60 -79 11357 575 5 MP
DP
60 79 -60 79 -60 -79 60 -79 11866 575 5 MP
DP
gs 1705 496 10162 5392 rc
0 sg
509 0 508 0 508 0 508 0 508 0 508 0 508 0 508 0 
508 0 508 0 508 -10 508 -22 508 -108 508 -506 508 -971 508 -1132 
508 -1693 508 -701 508 -204 508 -44 1705 5887 21 MP stroke
gr

0 sg
0 -94 -94 0 0 94 94 0 1658 5840 5 MP
DP
0 -94 -94 0 0 94 94 0 2166 5796 5 MP
DP
0 -94 -94 0 0 94 94 0 2674 5592 5 MP
DP
0 -94 -94 0 0 94 94 0 3182 4891 5 MP
DP
0 -94 -94 0 0 94 94 0 3690 3198 5 MP
DP
0 -94 -94 0 0 94 94 0 4198 2066 5 MP
DP
0 -94 -94 0 0 94 94 0 4706 1095 5 MP
DP
0 -94 -94 0 0 94 94 0 5214 589 5 MP
DP
0 -94 -94 0 0 94 94 0 5722 481 5 MP
DP
0 -94 -94 0 0 94 94 0 6230 459 5 MP
DP
0 -94 -94 0 0 94 94 0 6738 449 5 MP
DP
0 -94 -94 0 0 94 94 0 7246 449 5 MP
DP
0 -94 -94 0 0 94 94 0 7754 449 5 MP
DP
0 -94 -94 0 0 94 94 0 8262 449 5 MP
DP
0 -94 -94 0 0 94 94 0 8770 449 5 MP
DP
0 -94 -94 0 0 94 94 0 9278 449 5 MP
DP
0 -94 -94 0 0 94 94 0 9786 449 5 MP
DP
0 -94 -94 0 0 94 94 0 10294 449 5 MP
DP
0 -94 -94 0 0 94 94 0 10802 449 5 MP
DP
0 -94 -94 0 0 94 94 0 11310 449 5 MP
DP
0 -94 -94 0 0 94 94 0 11819 449 5 MP
DP
gs 1705 496 10162 5392 rc
6 w
gr

6 w
1 sg
0 2637 2264 0 0 -2637 8304 4896 4 MP
PP
-2264 0 0 2637 2264 0 0 -2637 8304 4896 5 MP stroke
4 w
DO
SO
6 w
0 sg
8304 4896 mt 10568 4896 L
8304 2259 mt 10568 2259 L
8304 4896 mt 8304 2259 L
10568 4896 mt 10568 2259 L
8304 4896 mt 10568 4896 L
8304 4896 mt 8304 2259 L
8304 4896 mt 10568 4896 L
8304 2259 mt 10568 2259 L
8304 4896 mt 8304 2259 L
10568 4896 mt 10568 2259 L
%%IncludeResource: font Helvetica
/Helvetica /ISOLatin1Encoding 240 FMSR

8785 2550 mt 
(BAGI-OMP) s
gs 8304 2259 2265 2638 rc
24 w
c8
370 0 8377 2465 2 MP stroke
gs 8416 2319 293 293 rc
8502 2465 mt 8622 2465 L
8562 2405 mt 8562 2525 L
8520 2423 mt 8604 2507 L
8604 2423 mt 8520 2507 L
gr

gr

24 w
c8
0 sg
8785 2921 mt 
(BAOMP) s
gs 8304 2259 2265 2638 rc
c9
370 0 8377 2836 2 MP stroke
gs 8416 2690 293 293 rc
  60   60 8562 2836 FO
gr

gr

c9
0 sg
8785 3292 mt 
(OMP) s
gs 8304 2259 2265 2638 rc
c10
370 0 8377 3206 2 MP stroke
gs 8416 3060 293 293 rc
0 138 -119 -69 119 -69 8522 3275 4 MP
DP
gr

gr

c10
0 sg
8785 3663 mt 
(BP) s
gs 8304 2259 2265 2638 rc
c11
370 0 8377 3577 2 MP stroke
gs 8416 3431 293 293 rc
-119 69 0 -138 119 69 8483 3577 4 MP
DP
gr

gr

c11
0 sg
8785 4034 mt 
(SP) s
gs 8304 2259 2265 2638 rc
c12
370 0 8377 3948 2 MP stroke
gs 8416 3802 293 293 rc
8520 3906 mt 8604 3990 L
8604 3906 mt 8520 3990 L
gr

gr

c12
0 sg
8785 4406 mt 
(FBP,) s
%%IncludeResource: font Symbol
/Symbol /ISOLatin1Encoding 240 FMSR

9275 4406 mt 
(a) s
%%IncludeResource: font Helvetica
/Helvetica /ISOLatin1Encoding 240 FMSR

9426 4406 mt 
(=30, ) s
%%IncludeResource: font Symbol
/Symbol /ISOLatin1Encoding 240 FMSR

9966 4406 mt 
(b) s
%%IncludeResource: font Helvetica
/Helvetica /ISOLatin1Encoding 240 FMSR

10097 4406 mt 
(=29) s
gs 8304 2259 2265 2638 rc
c13
370 0 8377 4318 2 MP stroke
gs 8416 4172 293 293 rc
60 79 -60 79 -60 -79 60 -79 8562 4397 5 MP
DP
gr

gr

c13
0 sg
8785 4777 mt 
(FBP,) s
%%IncludeResource: font Symbol
/Symbol /ISOLatin1Encoding 240 FMSR

9275 4777 mt 
(a) s
%%IncludeResource: font Helvetica
/Helvetica /ISOLatin1Encoding 240 FMSR

9426 4777 mt 
(=20, ) s
%%IncludeResource: font Symbol
/Symbol /ISOLatin1Encoding 240 FMSR

9966 4777 mt 
(b) s
%%IncludeResource: font Helvetica
/Helvetica /ISOLatin1Encoding 240 FMSR

10097 4777 mt 
(=13) s
gs 8304 2259 2265 2638 rc
370 0 8377 4689 2 MP stroke
gs 8416 4543 293 293 rc
0 -94 -94 0 0 94 94 0 8515 4642 5 MP
DP
gr

6 w
gr

6 w

end %%Color Dict

eplot
%%EndObject

epage
end

showpage

%%Trailer
%%EOF
