%!PS-Adobe-3.0 EPSF-3.0
%%Creator: MATLAB, The MathWorks, Inc. Version 7.13.0.564 (R2011b). Operating System: Linux 3.0.0-24-generic #40-Ubuntu SMP Tue Jul 24 15:36:59 UTC 2012 i686.
%%Title: /home/ranga/Research/CompressedSensing/MatlabCodes/codes by me/Complete_GIBased_Algo/Figures/BinaryDiffK.eps
%%CreationDate: 03/15/2013  08:24:05
%%DocumentNeededFonts: Helvetica
%%DocumentProcessColors: Cyan Magenta Yellow Black
%%LanguageLevel: 2
%%Pages: 1
%%BoundingBox:  -239   120   853   672
%%EndComments

%%BeginProlog
% MathWorks dictionary
/MathWorks 160 dict begin
% definition operators
/bdef {bind def} bind def
/ldef {load def} bind def
/xdef {exch def} bdef
/xstore {exch store} bdef
% operator abbreviations
/c  /clip ldef
/cc /concat ldef
/cp /closepath ldef
/gr /grestore ldef
/gs /gsave ldef
/mt /moveto ldef
/np /newpath ldef
/cm /currentmatrix ldef
/sm /setmatrix ldef
/rm /rmoveto ldef
/rl /rlineto ldef
/s {show newpath} bdef
/sc {setcmykcolor} bdef
/sr /setrgbcolor ldef
/sg /setgray ldef
/w /setlinewidth ldef
/j /setlinejoin ldef
/cap /setlinecap ldef
/rc {rectclip} bdef
/rf {rectfill} bdef
% page state control
/pgsv () def
/bpage {/pgsv save def} bdef
/epage {pgsv restore} bdef
/bplot /gsave ldef
/eplot {stroke grestore} bdef
% orientation switch
/portraitMode 0 def /landscapeMode 1 def /rotateMode 2 def
% coordinate system mappings
/dpi2point 0 def
% font control
/FontSize 0 def
/FMS {/FontSize xstore findfont [FontSize 0 0 FontSize neg 0 0]
  makefont setfont} bdef
/reencode {exch dup where {pop load} {pop StandardEncoding} ifelse
  exch dup 3 1 roll findfont dup length dict begin
  { 1 index /FID ne {def}{pop pop} ifelse } forall
  /Encoding exch def currentdict end definefont pop} bdef
/isroman {findfont /CharStrings get /Agrave known} bdef
/FMSR {3 1 roll 1 index dup isroman {reencode} {pop pop} ifelse
  exch FMS} bdef
/csm {1 dpi2point div -1 dpi2point div scale neg translate
 dup landscapeMode eq {pop -90 rotate}
  {rotateMode eq {90 rotate} if} ifelse} bdef
% line types: solid, dotted, dashed, dotdash
/SO { [] 0 setdash } bdef
/DO { [.5 dpi2point mul 4 dpi2point mul] 0 setdash } bdef
/DA { [6 dpi2point mul] 0 setdash } bdef
/DD { [.5 dpi2point mul 4 dpi2point mul 6 dpi2point mul 4
  dpi2point mul] 0 setdash } bdef
% macros for lines and objects
/L {lineto stroke} bdef
/MP {3 1 roll moveto 1 sub {rlineto} repeat} bdef
/AP {{rlineto} repeat} bdef
/PDlw -1 def
/W {/PDlw currentlinewidth def setlinewidth} def
/PP {closepath eofill} bdef
/DP {closepath stroke} bdef
/MR {4 -2 roll moveto dup  0 exch rlineto exch 0 rlineto
  neg 0 exch rlineto closepath} bdef
/FR {MR stroke} bdef
/PR {MR fill} bdef
/L1i {{currentfile picstr readhexstring pop} image} bdef
/tMatrix matrix def
/MakeOval {newpath tMatrix currentmatrix pop translate scale
0 0 1 0 360 arc tMatrix setmatrix} bdef
/FO {MakeOval stroke} bdef
/PO {MakeOval fill} bdef
/PD {currentlinewidth 2 div 0 360 arc fill
   PDlw -1 eq not {PDlw w /PDlw -1 def} if} def
/FA {newpath tMatrix currentmatrix pop translate scale
  0 0 1 5 -2 roll arc tMatrix setmatrix stroke} bdef
/PA {newpath tMatrix currentmatrix pop	translate 0 0 moveto scale
  0 0 1 5 -2 roll arc closepath tMatrix setmatrix fill} bdef
/FAn {newpath tMatrix currentmatrix pop translate scale
  0 0 1 5 -2 roll arcn tMatrix setmatrix stroke} bdef
/PAn {newpath tMatrix currentmatrix pop translate 0 0 moveto scale
  0 0 1 5 -2 roll arcn closepath tMatrix setmatrix fill} bdef
/vradius 0 def /hradius 0 def /lry 0 def
/lrx 0 def /uly 0 def /ulx 0 def /rad 0 def
/MRR {/vradius xdef /hradius xdef /lry xdef /lrx xdef /uly xdef
  /ulx xdef newpath tMatrix currentmatrix pop ulx hradius add uly
  vradius add translate hradius vradius scale 0 0 1 180 270 arc 
  tMatrix setmatrix lrx hradius sub uly vradius add translate
  hradius vradius scale 0 0 1 270 360 arc tMatrix setmatrix
  lrx hradius sub lry vradius sub translate hradius vradius scale
  0 0 1 0 90 arc tMatrix setmatrix ulx hradius add lry vradius sub
  translate hradius vradius scale 0 0 1 90 180 arc tMatrix setmatrix
  closepath} bdef
/FRR {MRR stroke } bdef
/PRR {MRR fill } bdef
/MlrRR {/lry xdef /lrx xdef /uly xdef /ulx xdef /rad lry uly sub 2 div def
  newpath tMatrix currentmatrix pop ulx rad add uly rad add translate
  rad rad scale 0 0 1 90 270 arc tMatrix setmatrix lrx rad sub lry rad
  sub translate rad rad scale 0 0 1 270 90 arc tMatrix setmatrix
  closepath} bdef
/FlrRR {MlrRR stroke } bdef
/PlrRR {MlrRR fill } bdef
/MtbRR {/lry xdef /lrx xdef /uly xdef /ulx xdef /rad lrx ulx sub 2 div def
  newpath tMatrix currentmatrix pop ulx rad add uly rad add translate
  rad rad scale 0 0 1 180 360 arc tMatrix setmatrix lrx rad sub lry rad
  sub translate rad rad scale 0 0 1 0 180 arc tMatrix setmatrix
  closepath} bdef
/FtbRR {MtbRR stroke } bdef
/PtbRR {MtbRR fill } bdef
/stri 6 array def /dtri 6 array def
/smat 6 array def /dmat 6 array def
/tmat1 6 array def /tmat2 6 array def /dif 3 array def
/asub {/ind2 exch def /ind1 exch def dup dup
  ind1 get exch ind2 get sub exch } bdef
/tri_to_matrix {
  2 0 asub 3 1 asub 4 0 asub 5 1 asub
  dup 0 get exch 1 get 7 -1 roll astore } bdef
/compute_transform {
  dmat dtri tri_to_matrix tmat1 invertmatrix 
  smat stri tri_to_matrix tmat2 concatmatrix } bdef
/ds {stri astore pop} bdef
/dt {dtri astore pop} bdef
/db {2 copy /cols xdef /rows xdef mul dup 3 mul string
  currentfile 
  3 index 0 eq {/ASCIIHexDecode filter}
  {/ASCII85Decode filter 3 index 2 eq {/RunLengthDecode filter} if }
  ifelse exch readstring pop
  dup 0 3 index getinterval /rbmap xdef
  dup 2 index dup getinterval /gbmap xdef
  1 index dup 2 mul exch getinterval /bbmap xdef pop pop}bdef
/it {gs np dtri aload pop moveto lineto lineto cp c
  cols rows 8 compute_transform 
  rbmap gbmap bbmap true 3 colorimage gr}bdef
/il {newpath moveto lineto stroke}bdef
currentdict end def
%%EndProlog

%%BeginSetup
MathWorks begin

0 cap

end
%%EndSetup

%%Page: 1 1
%%BeginPageSetup
%%PageBoundingBox:  -239   120   853   672
MathWorks begin
bpage
%%EndPageSetup

%%BeginObject: obj1
bplot

/dpi2point 12 def
portraitMode -2868 8064 csm

    0     0 13112  6615 rc
87 dict begin %Colortable dictionary
/c0 { 0.000000 0.000000 0.000000 sr} bdef
/c1 { 1.000000 1.000000 1.000000 sr} bdef
/c2 { 0.900000 0.000000 0.000000 sr} bdef
/c3 { 0.000000 0.820000 0.000000 sr} bdef
/c4 { 0.000000 0.000000 0.800000 sr} bdef
/c5 { 0.910000 0.820000 0.320000 sr} bdef
/c6 { 1.000000 0.260000 0.820000 sr} bdef
/c7 { 0.000000 0.820000 0.820000 sr} bdef
c0
1 j
1 sg
   0    0 13113 6616 rf
6 w
0 5390 10161 0 0 -5390 1705 5887 4 MP
PP
-10161 0 0 5390 10161 0 0 -5390 1705 5887 5 MP stroke
4 w
DO
0 sg
1705 5887 mt 1705  497 L
1705  497 mt 1705  497 L
2975 5887 mt 2975  497 L
2975  497 mt 2975  497 L
4245 5887 mt 4245  497 L
4245  497 mt 4245  497 L
5515 5887 mt 5515  497 L
5515  497 mt 5515  497 L
6785 5887 mt 6785  497 L
6785  497 mt 6785  497 L
8055 5887 mt 8055  497 L
8055  497 mt 8055  497 L
9325 5887 mt 9325  497 L
9325  497 mt 9325  497 L
10595 5887 mt 10595  497 L
10595  497 mt 10595  497 L
11866 5887 mt 11866  497 L
11866  497 mt 11866  497 L
1705 5887 mt 11866 5887 L
11866 5887 mt 11866 5887 L
1705 4809 mt 11866 4809 L
11866 4809 mt 11866 4809 L
1705 3731 mt 11866 3731 L
11866 3731 mt 11866 3731 L
1705 2652 mt 11866 2652 L
11866 2652 mt 11866 2652 L
1705 1575 mt 11866 1575 L
11866 1575 mt 11866 1575 L
1705  497 mt 11866  497 L
11866  497 mt 11866  497 L
SO
6 w
1705 5887 mt 11866 5887 L
1705  497 mt 11866  497 L
1705 5887 mt 1705  497 L
11866 5887 mt 11866  497 L
1705 5887 mt 11866 5887 L
1705 5887 mt 1705  497 L
1705 5887 mt 1705 5785 L
1705  497 mt 1705  598 L
%%IncludeResource: font Helvetica
/Helvetica /ISOLatin1Encoding 288 FMSR

1545 6189 mt 
(10) s
2975 5887 mt 2975 5785 L
2975  497 mt 2975  598 L
2815 6189 mt 
(20) s
4245 5887 mt 4245 5785 L
4245  497 mt 4245  598 L
4085 6189 mt 
(30) s
5515 5887 mt 5515 5785 L
5515  497 mt 5515  598 L
5355 6189 mt 
(40) s
6785 5887 mt 6785 5785 L
6785  497 mt 6785  598 L
6625 6189 mt 
(50) s
8055 5887 mt 8055 5785 L
8055  497 mt 8055  598 L
7895 6189 mt 
(60) s
9325 5887 mt 9325 5785 L
9325  497 mt 9325  598 L
9165 6189 mt 
(70) s
10595 5887 mt 10595 5785 L
10595  497 mt 10595  598 L
10435 6189 mt 
(80) s
11866 5887 mt 11866 5785 L
11866  497 mt 11866  598 L
11706 6189 mt 
(90) s
1705 5887 mt 1806 5887 L
11866 5887 mt 11764 5887 L
1510 5994 mt 
(0) s
1705 4809 mt 1806 4809 L
11866 4809 mt 11764 4809 L
1270 4916 mt 
(0.2) s
1705 3731 mt 1806 3731 L
11866 3731 mt 11764 3731 L
1270 3838 mt 
(0.4) s
1705 2652 mt 1806 2652 L
11866 2652 mt 11764 2652 L
1270 2759 mt 
(0.6) s
1705 1575 mt 1806 1575 L
11866 1575 mt 11764 1575 L
1270 1682 mt 
(0.8) s
1705  497 mt 1806  497 L
11866  497 mt 11764  497 L
1510  604 mt 
(1) s
1705 5887 mt 11866 5887 L
1705  497 mt 11866  497 L
1705 5887 mt 1705  497 L
11866 5887 mt 11866  497 L
gs 1705 497 10162 5391 rc
24 w
/c8 { 1.000000 0.000000 0.000000 sr} bdef
c8
1271 0 1270 0 1270 0 1270 130 1270 4032 1270 1228 1270 0 1270 0 
1705 497 9 MP stroke
gr

24 w
c8
gs 1439 231 10694 5923 rc
1585  497 mt 1825  497 L
1705  377 mt 1705  617 L
2855  497 mt 3095  497 L
2975  377 mt 2975  617 L
4125  497 mt 4365  497 L
4245  377 mt 4245  617 L
5395 1725 mt 5635 1725 L
5515 1605 mt 5515 1845 L
6665 5757 mt 6905 5757 L
6785 5637 mt 6785 5877 L
7935 5887 mt 8175 5887 L
8055 5767 mt 8055 6007 L
9205 5887 mt 9445 5887 L
9325 5767 mt 9325 6007 L
10475 5887 mt 10715 5887 L
10595 5767 mt 10595 6007 L
11746 5887 mt 11986 5887 L
11866 5767 mt 11866 6007 L
1621  413 mt 1789  581 L
1789  413 mt 1621  581 L
2891  413 mt 3059  581 L
3059  413 mt 2891  581 L
4161  413 mt 4329  581 L
4329  413 mt 4161  581 L
5431 1641 mt 5599 1809 L
5599 1641 mt 5431 1809 L
6701 5673 mt 6869 5841 L
6869 5673 mt 6701 5841 L
7971 5803 mt 8139 5971 L
8139 5803 mt 7971 5971 L
9241 5803 mt 9409 5971 L
9409 5803 mt 9241 5971 L
10511 5803 mt 10679 5971 L
10679 5803 mt 10511 5971 L
11782 5803 mt 11950 5971 L
11950 5803 mt 11782 5971 L
gs 1705 497 10162 5391 rc
/c9 { 1.000000 0.000000 1.000000 sr} bdef
c9
1271 0 1270 0 1270 33 1270 2253 1270 2889 1270 215 1270 0 1270 0 
1705 497 9 MP stroke
gr

c9
 120  120 1705  497 FO
 120  120 2975  497 FO
 120  120 4245  497 FO
 120  120 5515  712 FO
 120  120 6785 3601 FO
 120  120 8055 5854 FO
 120  120 9325 5887 FO
 120  120 10595 5887 FO
 120  120 11866 5887 FO
gs 1705 497 10162 5391 rc
/c10 { 0.000000 0.498039 0.000000 sr} bdef
c10
1271 0 1270 0 1270 0 1270 0 1270 0 1270 302 1270 3105 1270 1973 
1705 507 9 MP stroke
gr

c10
gs 1439 241 10694 5913 rc
0 j
0 276 -239 -138 239 -138 1625 645 4 MP
DP
0 276 -239 -138 239 -138 2895 2618 4 MP
DP
0 276 -239 -138 239 -138 4165 5723 4 MP
DP
0 276 -239 -138 239 -138 5435 6025 4 MP
DP
0 276 -239 -138 239 -138 6705 6025 4 MP
DP
0 276 -239 -138 239 -138 7975 6025 4 MP
DP
0 276 -239 -138 239 -138 9245 6025 4 MP
DP
0 276 -239 -138 239 -138 10515 6025 4 MP
DP
0 276 -239 -138 239 -138 11786 6025 4 MP
DP
gs 1705 497 10162 5391 rc
0 sg
1271 0 1270 0 1270 0 1270 11 1270 367 1270 1110 1270 2652 1270 1250 
1705 497 9 MP stroke
gr
gr

0 sg
0 j
120 159 -120 159 -120 -159 120 -159 1705 656 5 MP
DP
120 159 -120 159 -120 -159 120 -159 2975 1906 5 MP
DP
120 159 -120 159 -120 -159 120 -159 4245 4558 5 MP
DP
120 159 -120 159 -120 -159 120 -159 5515 5668 5 MP
DP
120 159 -120 159 -120 -159 120 -159 6785 6035 5 MP
DP
120 159 -120 159 -120 -159 120 -159 8055 6046 5 MP
DP
120 159 -120 159 -120 -159 120 -159 9325 6046 5 MP
DP
120 159 -120 159 -120 -159 120 -159 10595 6046 5 MP
DP
120 159 -120 159 -120 -159 120 -159 11866 6046 5 MP
DP
gs 1705 497 10162 5391 rc
/c11 { 0.000000 0.000000 1.000000 sr} bdef
c11
1271 0 1270 0 1270 0 1270 130 1270 3406 1270 1779 1270 75 1270 0 
1705 497 9 MP stroke
gr

c11
0 -188 -188 0 0 188 188 0 1611 403 5 MP
DP
0 -188 -188 0 0 188 188 0 2881 403 5 MP
DP
0 -188 -188 0 0 188 188 0 4151 478 5 MP
DP
0 -188 -188 0 0 188 188 0 5421 2257 5 MP
DP
0 -188 -188 0 0 188 188 0 6691 5663 5 MP
DP
0 -188 -188 0 0 188 188 0 7961 5793 5 MP
DP
0 -188 -188 0 0 188 188 0 9231 5793 5 MP
DP
0 -188 -188 0 0 188 188 0 10501 5793 5 MP
DP
0 -188 -188 0 0 188 188 0 11772 5793 5 MP
DP
gs 1705 497 10162 5391 rc
gr
gr

c11
0 sg
5711 6456 mt 
(Sparsity Level, K) s
1151 5028 mt  -90 rotate
(Probability of Reconstruction) s
90 rotate
1417  268 mt 
(Exact reconstruction rate of binary sparse signal \(500 real\
izations\): N = 256, M =128) s
%%IncludeResource: font Helvetica
/Helvetica /ISOLatin1Encoding 120 FMSR

1688 5930 mt 
( ) s
11850  539 mt 
( ) s
6 w
1 sg
0 1896 1221 0 0 -1896 9483 3003 4 MP
PP
-1221 0 0 1896 1221 0 0 -1896 9483 3003 5 MP stroke
4 w
DO
SO
6 w
0 sg
9483 3003 mt 10704 3003 L
9483 1107 mt 10704 1107 L
9483 3003 mt 9483 1107 L
10704 3003 mt 10704 1107 L
9483 3003 mt 10704 3003 L
9483 3003 mt 9483 1107 L
9483 3003 mt 10704 3003 L
9483 1107 mt 10704 1107 L
9483 3003 mt 9483 1107 L
10704 3003 mt 10704 1107 L
%%IncludeResource: font Helvetica
/Helvetica /ISOLatin1Encoding 240 FMSR

9954 1399 mt 
(GIMP) s
gs 9483 1107 1222 1897 rc
24 w
c8
362 0 9555 1313 2 MP stroke
gr

24 w
c8
gs 9470 1047 533 533 rc
9616 1313 mt 9856 1313 L
9736 1193 mt 9736 1433 L
9652 1229 mt 9820 1397 L
9820 1229 mt 9652 1397 L
gr

gs 9483 1107 1222 1897 rc
gr

0 sg
9954 1770 mt 
(BP) s
gs 9483 1107 1222 1897 rc
c9
362 0 9555 1684 2 MP stroke
gr

c9
gs 9470 1418 533 533 rc
 120  120 9736 1684 FO
gr

gs 9483 1107 1222 1897 rc
gr

0 sg
9954 2140 mt 
(OMP) s
gs 9483 1107 1222 1897 rc
c10
362 0 9555 2054 2 MP stroke
gr

c10
gs 9470 1788 533 533 rc
0 j
0 276 -239 -138 239 -138 9656 2192 4 MP
DP
gr

gs 9483 1107 1222 1897 rc
gr

0 sg
9954 2511 mt 
(ROMP) s
gs 9483 1107 1222 1897 rc
362 0 9555 2425 2 MP stroke
gr

gs 9470 2159 533 533 rc
0 j
120 159 -120 159 -120 -159 120 -159 9736 2584 5 MP
DP
gr

gs 9483 1107 1222 1897 rc
gr

9954 2882 mt 
(SP) s
gs 9483 1107 1222 1897 rc
c11
362 0 9555 2796 2 MP stroke
gr

c11
gs 9470 2530 533 533 rc
0 j
0 -188 -188 0 0 188 188 0 9642 2702 5 MP
DP
gr

gs 9483 1107 1222 1897 rc
6 w
gr

6 w

end %%Color Dict

eplot
%%EndObject

epage
end

showpage

%%Trailer
%%EOF
