%!PS-Adobe-3.0 EPSF-3.0
%%Creator: MATLAB, The MathWorks, Inc. Version 7.13.0.564 (R2011b). Operating System: Linux 3.0.0-24-generic #40-Ubuntu SMP Tue Jul 24 15:36:59 UTC 2012 i686.
%%Title: /home/ranga/Research/CompressedSensing/MatlabCodes/codes by me/Complete_GIBased_Algo/Figures/GaussDiffM.eps
%%CreationDate: 03/15/2013  08:28:22
%%DocumentNeededFonts: Helvetica
%%DocumentProcessColors: Cyan Magenta Yellow Black
%%LanguageLevel: 2
%%Pages: 1
%%BoundingBox:  -239   120   853   672
%%EndComments

%%BeginProlog
% MathWorks dictionary
/MathWorks 160 dict begin
% definition operators
/bdef {bind def} bind def
/ldef {load def} bind def
/xdef {exch def} bdef
/xstore {exch store} bdef
% operator abbreviations
/c  /clip ldef
/cc /concat ldef
/cp /closepath ldef
/gr /grestore ldef
/gs /gsave ldef
/mt /moveto ldef
/np /newpath ldef
/cm /currentmatrix ldef
/sm /setmatrix ldef
/rm /rmoveto ldef
/rl /rlineto ldef
/s {show newpath} bdef
/sc {setcmykcolor} bdef
/sr /setrgbcolor ldef
/sg /setgray ldef
/w /setlinewidth ldef
/j /setlinejoin ldef
/cap /setlinecap ldef
/rc {rectclip} bdef
/rf {rectfill} bdef
% page state control
/pgsv () def
/bpage {/pgsv save def} bdef
/epage {pgsv restore} bdef
/bplot /gsave ldef
/eplot {stroke grestore} bdef
% orientation switch
/portraitMode 0 def /landscapeMode 1 def /rotateMode 2 def
% coordinate system mappings
/dpi2point 0 def
% font control
/FontSize 0 def
/FMS {/FontSize xstore findfont [FontSize 0 0 FontSize neg 0 0]
  makefont setfont} bdef
/reencode {exch dup where {pop load} {pop StandardEncoding} ifelse
  exch dup 3 1 roll findfont dup length dict begin
  { 1 index /FID ne {def}{pop pop} ifelse } forall
  /Encoding exch def currentdict end definefont pop} bdef
/isroman {findfont /CharStrings get /Agrave known} bdef
/FMSR {3 1 roll 1 index dup isroman {reencode} {pop pop} ifelse
  exch FMS} bdef
/csm {1 dpi2point div -1 dpi2point div scale neg translate
 dup landscapeMode eq {pop -90 rotate}
  {rotateMode eq {90 rotate} if} ifelse} bdef
% line types: solid, dotted, dashed, dotdash
/SO { [] 0 setdash } bdef
/DO { [.5 dpi2point mul 4 dpi2point mul] 0 setdash } bdef
/DA { [6 dpi2point mul] 0 setdash } bdef
/DD { [.5 dpi2point mul 4 dpi2point mul 6 dpi2point mul 4
  dpi2point mul] 0 setdash } bdef
% macros for lines and objects
/L {lineto stroke} bdef
/MP {3 1 roll moveto 1 sub {rlineto} repeat} bdef
/AP {{rlineto} repeat} bdef
/PDlw -1 def
/W {/PDlw currentlinewidth def setlinewidth} def
/PP {closepath eofill} bdef
/DP {closepath stroke} bdef
/MR {4 -2 roll moveto dup  0 exch rlineto exch 0 rlineto
  neg 0 exch rlineto closepath} bdef
/FR {MR stroke} bdef
/PR {MR fill} bdef
/L1i {{currentfile picstr readhexstring pop} image} bdef
/tMatrix matrix def
/MakeOval {newpath tMatrix currentmatrix pop translate scale
0 0 1 0 360 arc tMatrix setmatrix} bdef
/FO {MakeOval stroke} bdef
/PO {MakeOval fill} bdef
/PD {currentlinewidth 2 div 0 360 arc fill
   PDlw -1 eq not {PDlw w /PDlw -1 def} if} def
/FA {newpath tMatrix currentmatrix pop translate scale
  0 0 1 5 -2 roll arc tMatrix setmatrix stroke} bdef
/PA {newpath tMatrix currentmatrix pop	translate 0 0 moveto scale
  0 0 1 5 -2 roll arc closepath tMatrix setmatrix fill} bdef
/FAn {newpath tMatrix currentmatrix pop translate scale
  0 0 1 5 -2 roll arcn tMatrix setmatrix stroke} bdef
/PAn {newpath tMatrix currentmatrix pop translate 0 0 moveto scale
  0 0 1 5 -2 roll arcn closepath tMatrix setmatrix fill} bdef
/vradius 0 def /hradius 0 def /lry 0 def
/lrx 0 def /uly 0 def /ulx 0 def /rad 0 def
/MRR {/vradius xdef /hradius xdef /lry xdef /lrx xdef /uly xdef
  /ulx xdef newpath tMatrix currentmatrix pop ulx hradius add uly
  vradius add translate hradius vradius scale 0 0 1 180 270 arc 
  tMatrix setmatrix lrx hradius sub uly vradius add translate
  hradius vradius scale 0 0 1 270 360 arc tMatrix setmatrix
  lrx hradius sub lry vradius sub translate hradius vradius scale
  0 0 1 0 90 arc tMatrix setmatrix ulx hradius add lry vradius sub
  translate hradius vradius scale 0 0 1 90 180 arc tMatrix setmatrix
  closepath} bdef
/FRR {MRR stroke } bdef
/PRR {MRR fill } bdef
/MlrRR {/lry xdef /lrx xdef /uly xdef /ulx xdef /rad lry uly sub 2 div def
  newpath tMatrix currentmatrix pop ulx rad add uly rad add translate
  rad rad scale 0 0 1 90 270 arc tMatrix setmatrix lrx rad sub lry rad
  sub translate rad rad scale 0 0 1 270 90 arc tMatrix setmatrix
  closepath} bdef
/FlrRR {MlrRR stroke } bdef
/PlrRR {MlrRR fill } bdef
/MtbRR {/lry xdef /lrx xdef /uly xdef /ulx xdef /rad lrx ulx sub 2 div def
  newpath tMatrix currentmatrix pop ulx rad add uly rad add translate
  rad rad scale 0 0 1 180 360 arc tMatrix setmatrix lrx rad sub lry rad
  sub translate rad rad scale 0 0 1 0 180 arc tMatrix setmatrix
  closepath} bdef
/FtbRR {MtbRR stroke } bdef
/PtbRR {MtbRR fill } bdef
/stri 6 array def /dtri 6 array def
/smat 6 array def /dmat 6 array def
/tmat1 6 array def /tmat2 6 array def /dif 3 array def
/asub {/ind2 exch def /ind1 exch def dup dup
  ind1 get exch ind2 get sub exch } bdef
/tri_to_matrix {
  2 0 asub 3 1 asub 4 0 asub 5 1 asub
  dup 0 get exch 1 get 7 -1 roll astore } bdef
/compute_transform {
  dmat dtri tri_to_matrix tmat1 invertmatrix 
  smat stri tri_to_matrix tmat2 concatmatrix } bdef
/ds {stri astore pop} bdef
/dt {dtri astore pop} bdef
/db {2 copy /cols xdef /rows xdef mul dup 3 mul string
  currentfile 
  3 index 0 eq {/ASCIIHexDecode filter}
  {/ASCII85Decode filter 3 index 2 eq {/RunLengthDecode filter} if }
  ifelse exch readstring pop
  dup 0 3 index getinterval /rbmap xdef
  dup 2 index dup getinterval /gbmap xdef
  1 index dup 2 mul exch getinterval /bbmap xdef pop pop}bdef
/it {gs np dtri aload pop moveto lineto lineto cp c
  cols rows 8 compute_transform 
  rbmap gbmap bbmap true 3 colorimage gr}bdef
/il {newpath moveto lineto stroke}bdef
currentdict end def
%%EndProlog

%%BeginSetup
MathWorks begin

0 cap

end
%%EndSetup

%%Page: 1 1
%%BeginPageSetup
%%PageBoundingBox:  -239   120   853   672
MathWorks begin
bpage
%%EndPageSetup

%%BeginObject: obj1
bplot

/dpi2point 12 def
portraitMode -2868 8064 csm

    0     0 13112  6615 rc
87 dict begin %Colortable dictionary
/c0 { 0.000000 0.000000 0.000000 sr} bdef
/c1 { 1.000000 1.000000 1.000000 sr} bdef
/c2 { 0.900000 0.000000 0.000000 sr} bdef
/c3 { 0.000000 0.820000 0.000000 sr} bdef
/c4 { 0.000000 0.000000 0.800000 sr} bdef
/c5 { 0.910000 0.820000 0.320000 sr} bdef
/c6 { 1.000000 0.260000 0.820000 sr} bdef
/c7 { 0.000000 0.820000 0.820000 sr} bdef
c0
1 j
1 sg
   0    0 13113 6616 rf
6 w
0 5390 10161 0 0 -5390 1705 5887 4 MP
PP
-10161 0 0 5390 10161 0 0 -5390 1705 5887 5 MP stroke
4 w
DO
0 sg
1705 5887 mt 1705  497 L
1705  497 mt 1705  497 L
2721 5887 mt 2721  497 L
2721  497 mt 2721  497 L
3737 5887 mt 3737  497 L
3737  497 mt 3737  497 L
4753 5887 mt 4753  497 L
4753  497 mt 4753  497 L
5769 5887 mt 5769  497 L
5769  497 mt 5769  497 L
6785 5887 mt 6785  497 L
6785  497 mt 6785  497 L
7801 5887 mt 7801  497 L
7801  497 mt 7801  497 L
8817 5887 mt 8817  497 L
8817  497 mt 8817  497 L
9833 5887 mt 9833  497 L
9833  497 mt 9833  497 L
10849 5887 mt 10849  497 L
10849  497 mt 10849  497 L
11866 5887 mt 11866  497 L
11866  497 mt 11866  497 L
1705 5887 mt 11866 5887 L
11866 5887 mt 11866 5887 L
1705 4809 mt 11866 4809 L
11866 4809 mt 11866 4809 L
1705 3731 mt 11866 3731 L
11866 3731 mt 11866 3731 L
1705 2652 mt 11866 2652 L
11866 2652 mt 11866 2652 L
1705 1575 mt 11866 1575 L
11866 1575 mt 11866 1575 L
1705  497 mt 11866  497 L
11866  497 mt 11866  497 L
SO
6 w
1705 5887 mt 11866 5887 L
1705  497 mt 11866  497 L
1705 5887 mt 1705  497 L
11866 5887 mt 11866  497 L
1705 5887 mt 11866 5887 L
1705 5887 mt 1705  497 L
1705 5887 mt 1705 5785 L
1705  497 mt 1705  598 L
%%IncludeResource: font Helvetica
/Helvetica /ISOLatin1Encoding 288 FMSR

1545 6189 mt 
(60) s
2721 5887 mt 2721 5785 L
2721  497 mt 2721  598 L
2561 6189 mt 
(70) s
3737 5887 mt 3737 5785 L
3737  497 mt 3737  598 L
3577 6189 mt 
(80) s
4753 5887 mt 4753 5785 L
4753  497 mt 4753  598 L
4593 6189 mt 
(90) s
5769 5887 mt 5769 5785 L
5769  497 mt 5769  598 L
5529 6189 mt 
(100) s
6785 5887 mt 6785 5785 L
6785  497 mt 6785  598 L
6545 6189 mt 
(110) s
7801 5887 mt 7801 5785 L
7801  497 mt 7801  598 L
7561 6189 mt 
(120) s
8817 5887 mt 8817 5785 L
8817  497 mt 8817  598 L
8577 6189 mt 
(130) s
9833 5887 mt 9833 5785 L
9833  497 mt 9833  598 L
9593 6189 mt 
(140) s
10849 5887 mt 10849 5785 L
10849  497 mt 10849  598 L
10609 6189 mt 
(150) s
11866 5887 mt 11866 5785 L
11866  497 mt 11866  598 L
11626 6189 mt 
(160) s
1705 5887 mt 1806 5887 L
11866 5887 mt 11764 5887 L
1510 5994 mt 
(0) s
1705 4809 mt 1806 4809 L
11866 4809 mt 11764 4809 L
1270 4916 mt 
(0.2) s
1705 3731 mt 1806 3731 L
11866 3731 mt 11764 3731 L
1270 3838 mt 
(0.4) s
1705 2652 mt 1806 2652 L
11866 2652 mt 11764 2652 L
1270 2759 mt 
(0.6) s
1705 1575 mt 1806 1575 L
11866 1575 mt 11764 1575 L
1270 1682 mt 
(0.8) s
1705  497 mt 1806  497 L
11866  497 mt 11764  497 L
1510  604 mt 
(1) s
1705 5887 mt 11866 5887 L
1705  497 mt 11866  497 L
1705 5887 mt 1705  497 L
11866 5887 mt 11866  497 L
gs 1705 497 10162 5391 rc
24 w
/c8 { 1.000000 0.000000 0.000000 sr} bdef
c8
1017 0 1016 0 1016 0 1016 0 1016 0 1016 -32 1016 -162 1016 -1423 
1016 -2360 1016 -1326 1705 5800 11 MP stroke
gr

24 w
c8
1585 5800 mt 1825 5800 L
1705 5680 mt 1705 5920 L
2601 4474 mt 2841 4474 L
2721 4354 mt 2721 4594 L
3617 2114 mt 3857 2114 L
3737 1994 mt 3737 2234 L
4633  691 mt 4873  691 L
4753  571 mt 4753  811 L
5649  529 mt 5889  529 L
5769  409 mt 5769  649 L
6665  497 mt 6905  497 L
6785  377 mt 6785  617 L
7681  497 mt 7921  497 L
7801  377 mt 7801  617 L
8697  497 mt 8937  497 L
8817  377 mt 8817  617 L
9713  497 mt 9953  497 L
9833  377 mt 9833  617 L
10729  497 mt 10969  497 L
10849  377 mt 10849  617 L
11746  497 mt 11986  497 L
11866  377 mt 11866  617 L
1621 5716 mt 1789 5884 L
1789 5716 mt 1621 5884 L
2637 4390 mt 2805 4558 L
2805 4390 mt 2637 4558 L
3653 2030 mt 3821 2198 L
3821 2030 mt 3653 2198 L
4669  607 mt 4837  775 L
4837  607 mt 4669  775 L
5685  445 mt 5853  613 L
5853  445 mt 5685  613 L
6701  413 mt 6869  581 L
6869  413 mt 6701  581 L
7717  413 mt 7885  581 L
7885  413 mt 7717  581 L
8733  413 mt 8901  581 L
8901  413 mt 8733  581 L
9749  413 mt 9917  581 L
9917  413 mt 9749  581 L
10765  413 mt 10933  581 L
10933  413 mt 10765  581 L
11782  413 mt 11950  581 L
11950  413 mt 11782  581 L
gs 1705 497 10162 5391 rc
/c9 { 1.000000 0.000000 1.000000 sr} bdef
c9
1017 0 1016 0 1016 0 1016 0 1016 -64 1016 -679 1016 -2728 1016 -1746 
1016 -173 1016 0 1705 5887 11 MP stroke
gr

c9
 120  120 1705 5887 FO
 120  120 2721 5887 FO
 120  120 3737 5714 FO
 120  120 4753 3968 FO
 120  120 5769 1240 FO
 120  120 6785  561 FO
 120  120 7801  497 FO
 120  120 8817  497 FO
 120  120 9833  497 FO
 120  120 10849  497 FO
 120  120 11866  497 FO
gs 1705 497 10162 5391 rc
/c10 { 0.000000 0.498039 0.000000 sr} bdef
c10
1017 -97 1016 -97 1016 -151 1016 -345 1016 -442 1016 -1035 1016 -938 1016 -1293 
1016 -690 1016 -205 1705 5865 11 MP stroke
gr

c10
0 j
0 276 -239 -138 239 -138 1625 6003 4 MP
DP
0 276 -239 -138 239 -138 2641 5798 4 MP
DP
0 276 -239 -138 239 -138 3657 5108 4 MP
DP
0 276 -239 -138 239 -138 4673 3815 4 MP
DP
0 276 -239 -138 239 -138 5689 2877 4 MP
DP
0 276 -239 -138 239 -138 6705 1842 4 MP
DP
0 276 -239 -138 239 -138 7721 1400 4 MP
DP
0 276 -239 -138 239 -138 8737 1055 4 MP
DP
0 276 -239 -138 239 -138 9753 904 4 MP
DP
0 276 -239 -138 239 -138 10769 807 4 MP
DP
0 276 -239 -138 239 -138 11786 710 4 MP
DP
gs 1705 497 10162 5391 rc
0 sg
1017 -733 1016 -227 1016 -129 1016 -97 1016 22 1016 -22 1016 -11 1016 -11 
1016 0 1016 0 1705 5887 11 MP stroke
gr

0 sg
120 159 -120 159 -120 -159 120 -159 1705 6046 5 MP
DP
120 159 -120 159 -120 -159 120 -159 2721 6046 5 MP
DP
120 159 -120 159 -120 -159 120 -159 3737 6046 5 MP
DP
120 159 -120 159 -120 -159 120 -159 4753 6035 5 MP
DP
120 159 -120 159 -120 -159 120 -159 5769 6024 5 MP
DP
120 159 -120 159 -120 -159 120 -159 6785 6002 5 MP
DP
120 159 -120 159 -120 -159 120 -159 7801 6024 5 MP
DP
120 159 -120 159 -120 -159 120 -159 8817 5927 5 MP
DP
120 159 -120 159 -120 -159 120 -159 9833 5798 5 MP
DP
120 159 -120 159 -120 -159 120 -159 10849 5571 5 MP
DP
120 159 -120 159 -120 -159 120 -159 11866 4838 5 MP
DP
gs 1705 497 10162 5391 rc
/c11 { 0.000000 0.000000 1.000000 sr} bdef
c11
1017 0 1016 0 1016 0 1016 0 1016 -43 1016 -118 1016 -981 1016 -2361 
1016 -1725 1016 -162 1705 5887 11 MP stroke
gr

c11
0 -188 -188 0 0 188 188 0 1611 5793 5 MP
DP
0 -188 -188 0 0 188 188 0 2627 5631 5 MP
DP
0 -188 -188 0 0 188 188 0 3643 3906 5 MP
DP
0 -188 -188 0 0 188 188 0 4659 1545 5 MP
DP
0 -188 -188 0 0 188 188 0 5675 564 5 MP
DP
0 -188 -188 0 0 188 188 0 6691 446 5 MP
DP
0 -188 -188 0 0 188 188 0 7707 403 5 MP
DP
0 -188 -188 0 0 188 188 0 8723 403 5 MP
DP
0 -188 -188 0 0 188 188 0 9739 403 5 MP
DP
0 -188 -188 0 0 188 188 0 10755 403 5 MP
DP
0 -188 -188 0 0 188 188 0 11772 403 5 MP
DP
gs 1705 497 10162 5391 rc
gr

0 sg
5224 6456 mt 
(No. of Measurements, M) s
1151 5028 mt  -90 rotate
(Probability of Reconstruction) s
90 rotate
1269  268 mt 
(Exact reconstruction rate of Gaussian sparse signal \(500 re\
alizations\): N = 256, K = 30) s
%%IncludeResource: font Helvetica
/Helvetica /ISOLatin1Encoding 120 FMSR

1688 5930 mt 
( ) s
11850  539 mt 
( ) s
6 w
1 sg
0 2232 1387 0 0 -2232 9534 3857 4 MP
PP
-1387 0 0 2232 1387 0 0 -2232 9534 3857 5 MP stroke
4 w
DO
SO
6 w
0 sg
9534 3857 mt 10921 3857 L
9534 1625 mt 10921 1625 L
9534 3857 mt 9534 1625 L
10921 3857 mt 10921 1625 L
9534 3857 mt 10921 3857 L
9534 3857 mt 9534 1625 L
9534 3857 mt 10921 3857 L
9534 1625 mt 10921 1625 L
9534 3857 mt 9534 1625 L
10921 3857 mt 10921 1625 L
%%IncludeResource: font Helvetica
/Helvetica /ISOLatin1Encoding 288 FMSR

10002 1967 mt 
(GIMP) s
gs 9534 1625 1388 2233 rc
24 w
c8
360 0 9605 1864 2 MP stroke
gr

24 w
c8
9665 1864 mt 9905 1864 L
9785 1744 mt 9785 1984 L
9701 1780 mt 9869 1948 L
9869 1780 mt 9701 1948 L
gs 9534 1625 1388 2233 rc
gr

0 sg
10002 2405 mt 
(BP) s
gs 9534 1625 1388 2233 rc
c9
360 0 9605 2302 2 MP stroke
gr

c9
 120  120 9785 2302 FO
gs 9534 1625 1388 2233 rc
gr

0 sg
10002 2843 mt 
(OMP) s
gs 9534 1625 1388 2233 rc
c10
360 0 9605 2740 2 MP stroke
gr

c10
0 276 -239 -138 239 -138 9705 2878 4 MP
DP
gs 9534 1625 1388 2233 rc
gr

0 sg
10002 3282 mt 
(ROMP) s
gs 9534 1625 1388 2233 rc
360 0 9605 3178 2 MP stroke
gr

120 159 -120 159 -120 -159 120 -159 9785 3337 5 MP
DP
gs 9534 1625 1388 2233 rc
gr

10002 3720 mt 
(SP) s
gs 9534 1625 1388 2233 rc
c11
360 0 9605 3616 2 MP stroke
gr

c11
0 -188 -188 0 0 188 188 0 9691 3522 5 MP
DP
gs 9534 1625 1388 2233 rc
6 w
gr

6 w

end %%Color Dict

eplot
%%EndObject

epage
end

showpage

%%Trailer
%%EOF
