%!PS-Adobe-3.0 EPSF-3.0
%%Creator: MATLAB, The MathWorks, Inc. Version 7.11.0.584 (R2010b). Operating System: Linux 3.2.0-31-generic #50-Ubuntu SMP Fri Sep 7 16:16:45 UTC 2012 x86_64.
%%Title: /home/sooraj/Dropbox/Research/CompressedSensing/MatlabCodes/modifiedCoSaMP/resultFigures/Modified_CoSaMP_StdGaussian SMNR=10dB-SRER.eps
%%CreationDate: 09/28/2012  19:38:15
%%DocumentNeededFonts: Helvetica
%%DocumentProcessColors: Cyan Magenta Yellow Black
%%LanguageLevel: 2
%%Pages: 1
%%BoundingBox:   -20   128   615   713
%%EndComments

%%BeginProlog
% MathWorks dictionary
/MathWorks 160 dict begin
% definition operators
/bdef {bind def} bind def
/ldef {load def} bind def
/xdef {exch def} bdef
/xstore {exch store} bdef
% operator abbreviations
/c  /clip ldef
/cc /concat ldef
/cp /closepath ldef
/gr /grestore ldef
/gs /gsave ldef
/mt /moveto ldef
/np /newpath ldef
/cm /currentmatrix ldef
/sm /setmatrix ldef
/rm /rmoveto ldef
/rl /rlineto ldef
/s {show newpath} bdef
/sc {setcmykcolor} bdef
/sr /setrgbcolor ldef
/sg /setgray ldef
/w /setlinewidth ldef
/j /setlinejoin ldef
/cap /setlinecap ldef
/rc {rectclip} bdef
/rf {rectfill} bdef
% page state control
/pgsv () def
/bpage {/pgsv save def} bdef
/epage {pgsv restore} bdef
/bplot /gsave ldef
/eplot {stroke grestore} bdef
% orientation switch
/portraitMode 0 def /landscapeMode 1 def /rotateMode 2 def
% coordinate system mappings
/dpi2point 0 def
% font control
/FontSize 0 def
/FMS {/FontSize xstore findfont [FontSize 0 0 FontSize neg 0 0]
  makefont setfont} bdef
/reencode {exch dup where {pop load} {pop StandardEncoding} ifelse
  exch dup 3 1 roll findfont dup length dict begin
  { 1 index /FID ne {def}{pop pop} ifelse } forall
  /Encoding exch def currentdict end definefont pop} bdef
/isroman {findfont /CharStrings get /Agrave known} bdef
/FMSR {3 1 roll 1 index dup isroman {reencode} {pop pop} ifelse
  exch FMS} bdef
/csm {1 dpi2point div -1 dpi2point div scale neg translate
 dup landscapeMode eq {pop -90 rotate}
  {rotateMode eq {90 rotate} if} ifelse} bdef
% line types: solid, dotted, dashed, dotdash
/SO { [] 0 setdash } bdef
/DO { [.5 dpi2point mul 4 dpi2point mul] 0 setdash } bdef
/DA { [6 dpi2point mul] 0 setdash } bdef
/DD { [.5 dpi2point mul 4 dpi2point mul 6 dpi2point mul 4
  dpi2point mul] 0 setdash } bdef
% macros for lines and objects
/L {lineto stroke} bdef
/MP {3 1 roll moveto 1 sub {rlineto} repeat} bdef
/AP {{rlineto} repeat} bdef
/PDlw -1 def
/W {/PDlw currentlinewidth def setlinewidth} def
/PP {closepath eofill} bdef
/DP {closepath stroke} bdef
/MR {4 -2 roll moveto dup  0 exch rlineto exch 0 rlineto
  neg 0 exch rlineto closepath} bdef
/FR {MR stroke} bdef
/PR {MR fill} bdef
/L1i {{currentfile picstr readhexstring pop} image} bdef
/tMatrix matrix def
/MakeOval {newpath tMatrix currentmatrix pop translate scale
0 0 1 0 360 arc tMatrix setmatrix} bdef
/FO {MakeOval stroke} bdef
/PO {MakeOval fill} bdef
/PD {currentlinewidth 2 div 0 360 arc fill
   PDlw -1 eq not {PDlw w /PDlw -1 def} if} def
/FA {newpath tMatrix currentmatrix pop translate scale
  0 0 1 5 -2 roll arc tMatrix setmatrix stroke} bdef
/PA {newpath tMatrix currentmatrix pop	translate 0 0 moveto scale
  0 0 1 5 -2 roll arc closepath tMatrix setmatrix fill} bdef
/FAn {newpath tMatrix currentmatrix pop translate scale
  0 0 1 5 -2 roll arcn tMatrix setmatrix stroke} bdef
/PAn {newpath tMatrix currentmatrix pop translate 0 0 moveto scale
  0 0 1 5 -2 roll arcn closepath tMatrix setmatrix fill} bdef
/vradius 0 def /hradius 0 def /lry 0 def
/lrx 0 def /uly 0 def /ulx 0 def /rad 0 def
/MRR {/vradius xdef /hradius xdef /lry xdef /lrx xdef /uly xdef
  /ulx xdef newpath tMatrix currentmatrix pop ulx hradius add uly
  vradius add translate hradius vradius scale 0 0 1 180 270 arc 
  tMatrix setmatrix lrx hradius sub uly vradius add translate
  hradius vradius scale 0 0 1 270 360 arc tMatrix setmatrix
  lrx hradius sub lry vradius sub translate hradius vradius scale
  0 0 1 0 90 arc tMatrix setmatrix ulx hradius add lry vradius sub
  translate hradius vradius scale 0 0 1 90 180 arc tMatrix setmatrix
  closepath} bdef
/FRR {MRR stroke } bdef
/PRR {MRR fill } bdef
/MlrRR {/lry xdef /lrx xdef /uly xdef /ulx xdef /rad lry uly sub 2 div def
  newpath tMatrix currentmatrix pop ulx rad add uly rad add translate
  rad rad scale 0 0 1 90 270 arc tMatrix setmatrix lrx rad sub lry rad
  sub translate rad rad scale 0 0 1 270 90 arc tMatrix setmatrix
  closepath} bdef
/FlrRR {MlrRR stroke } bdef
/PlrRR {MlrRR fill } bdef
/MtbRR {/lry xdef /lrx xdef /uly xdef /ulx xdef /rad lrx ulx sub 2 div def
  newpath tMatrix currentmatrix pop ulx rad add uly rad add translate
  rad rad scale 0 0 1 180 360 arc tMatrix setmatrix lrx rad sub lry rad
  sub translate rad rad scale 0 0 1 0 180 arc tMatrix setmatrix
  closepath} bdef
/FtbRR {MtbRR stroke } bdef
/PtbRR {MtbRR fill } bdef
/stri 6 array def /dtri 6 array def
/smat 6 array def /dmat 6 array def
/tmat1 6 array def /tmat2 6 array def /dif 3 array def
/asub {/ind2 exch def /ind1 exch def dup dup
  ind1 get exch ind2 get sub exch } bdef
/tri_to_matrix {
  2 0 asub 3 1 asub 4 0 asub 5 1 asub
  dup 0 get exch 1 get 7 -1 roll astore } bdef
/compute_transform {
  dmat dtri tri_to_matrix tmat1 invertmatrix 
  smat stri tri_to_matrix tmat2 concatmatrix } bdef
/ds {stri astore pop} bdef
/dt {dtri astore pop} bdef
/db {2 copy /cols xdef /rows xdef mul dup 3 mul string
  currentfile 
  3 index 0 eq {/ASCIIHexDecode filter}
  {/ASCII85Decode filter 3 index 2 eq {/RunLengthDecode filter} if }
  ifelse exch readstring pop
  dup 0 3 index getinterval /rbmap xdef
  dup 2 index dup getinterval /gbmap xdef
  1 index dup 2 mul exch getinterval /bbmap xdef pop pop}bdef
/it {gs np dtri aload pop moveto lineto lineto cp c
  cols rows 8 compute_transform 
  rbmap gbmap bbmap true 3 colorimage gr}bdef
/il {newpath moveto lineto stroke}bdef
currentdict end def
%%EndProlog

%%BeginSetup
MathWorks begin

0 cap

end
%%EndSetup

%%Page: 1 1
%%BeginPageSetup
%%PageBoundingBox:   -20   128   615   713
MathWorks begin
bpage
%%EndPageSetup

%%BeginObject: obj1
bplot

/dpi2point 12 def
portraitMode -0240 8556 csm

    0     0  7623  7020 rc
87 dict begin %Colortable dictionary
/c0 { 0.000000 0.000000 0.000000 sr} bdef
/c1 { 1.000000 1.000000 1.000000 sr} bdef
/c2 { 0.900000 0.000000 0.000000 sr} bdef
/c3 { 0.000000 0.820000 0.000000 sr} bdef
/c4 { 0.000000 0.000000 0.800000 sr} bdef
/c5 { 0.910000 0.820000 0.320000 sr} bdef
/c6 { 1.000000 0.260000 0.820000 sr} bdef
/c7 { 0.000000 0.820000 0.820000 sr} bdef
c0
1 j
1 sg
   0    0 7624 7021 rf
6 w
0 5721 5909 0 0 -5721 990 6248 4 MP
PP
-5909 0 0 5721 5909 0 0 -5721 990 6248 5 MP stroke
4 w
DO
0 sg
1659 6248 mt 1659  527 L
1659  527 mt 1659  527 L
2955 6248 mt 2955  527 L
2955  527 mt 2955  527 L
4265 6248 mt 4265  527 L
4265  527 mt 4265  527 L
5575 6248 mt 5575  527 L
5575  527 mt 5575  527 L
6885 6248 mt 6885  527 L
6885  527 mt 6885  527 L
 990 5905 mt 6899 5905 L
6899 5905 mt 6899 5905 L
 990 5050 mt 6899 5050 L
6899 5050 mt 6899 5050 L
 990 4194 mt 6899 4194 L
6899 4194 mt 6899 4194 L
 990 3339 mt 6899 3339 L
6899 3339 mt 6899 3339 L
 990 2483 mt 6899 2483 L
6899 2483 mt 6899 2483 L
 990 1627 mt 6899 1627 L
6899 1627 mt 6899 1627 L
 990  772 mt 6899  772 L
6899  772 mt 6899  772 L
SO
6 w
 990 6248 mt 6899 6248 L
 990  527 mt 6899  527 L
 990 6248 mt  990  527 L
6899 6248 mt 6899  527 L
 990 6248 mt 6899 6248 L
 990 6248 mt  990  527 L
1659 6248 mt 1659 6188 L
1659  527 mt 1659  586 L
%%IncludeResource: font Helvetica
/Helvetica /ISOLatin1Encoding 216 FMSR

1449 6483 mt 
(0.12) s
2955 6248 mt 2955 6188 L
2955  527 mt 2955  586 L
2745 6483 mt 
(0.14) s
4265 6248 mt 4265 6188 L
4265  527 mt 4265  586 L
4055 6483 mt 
(0.16) s
5575 6248 mt 5575 6188 L
5575  527 mt 5575  586 L
5365 6483 mt 
(0.18) s
6885 6248 mt 6885 6188 L
6885  527 mt 6885  586 L
6735 6483 mt 
(0.2) s
 990 5905 mt 1050 5905 L
6899 5905 mt 6839 5905 L
 836 5985 mt 
(0) s
 990 5050 mt 1050 5050 L
6899 5050 mt 6839 5050 L
 836 5130 mt 
(1) s
 990 4194 mt 1050 4194 L
6899 4194 mt 6839 4194 L
 836 4274 mt 
(2) s
 990 3339 mt 1050 3339 L
6899 3339 mt 6839 3339 L
 836 3419 mt 
(3) s
 990 2483 mt 1050 2483 L
6899 2483 mt 6839 2483 L
 836 2563 mt 
(4) s
 990 1627 mt 1050 1627 L
6899 1627 mt 6839 1627 L
 836 1707 mt 
(5) s
 990  772 mt 1050  772 L
6899  772 mt 6839  772 L
 836  852 mt 
(6) s
 990 6248 mt 6899 6248 L
 990  527 mt 6899  527 L
 990 6248 mt  990  527 L
6899 6248 mt 6899  527 L
gs 990 526 5910 5723 rc
24 w
/c8 { 1.000000 0.000000 0.000000 sr} bdef
c8
655 -558 655 -485 655 -520 655 -494 655 -542 655 -471 655 -432 655 -410 
655 -654 14 -21 990 6102 11 MP stroke
gr

24 w
c8
  72   72 1004 6081 FO
  72   72 1659 5427 FO
  72   72 2314 5017 FO
  72   72 2969 4585 FO
  72   72 3624 4114 FO
  72   72 4279 3572 FO
  72   72 4934 3078 FO
  72   72 5589 2558 FO
  72   72 6244 2073 FO
  72   72 6899 1515 FO
gs 990 526 5910 5723 rc
gr

0 sg
2695 6697 mt 
(Fraction of Measurements) s
 733 4036 mt  -90 rotate
(SRER \(in dB\)) s
90 rotate
%%IncludeResource: font Helvetica
/Helvetica /ISOLatin1Encoding 120 FMSR

 959 6308 mt 
( ) s
6869  585 mt 
( ) s
gs 990 526 5910 5723 rc
655 -575 655 -609 655 -481 655 -568 655 -507 655 -462 655 -390 655 -356 
655 -307 14 -7 990 5312 11 MP stroke
gr

0 j
0 -114 -114 0 0 114 114 0 947 5248 5 MP
DP
0 -114 -114 0 0 114 114 0 1602 4941 5 MP
DP
0 -114 -114 0 0 114 114 0 2257 4585 5 MP
DP
0 -114 -114 0 0 114 114 0 2912 4195 5 MP
DP
0 -114 -114 0 0 114 114 0 3567 3733 5 MP
DP
0 -114 -114 0 0 114 114 0 4222 3226 5 MP
DP
0 -114 -114 0 0 114 114 0 4877 2658 5 MP
DP
0 -114 -114 0 0 114 114 0 5532 2177 5 MP
DP
0 -114 -114 0 0 114 114 0 6187 1568 5 MP
DP
0 -114 -114 0 0 114 114 0 6842 993 5 MP
DP
gs 990 526 5910 5723 rc
/c9 { 0.000000 0.000000 1.000000 sr} bdef
c9
655 -559 655 -576 655 -565 655 -584 655 -594 655 -602 655 -505 655 -476 
655 -411 14 -9 990 5408 11 MP stroke
gr

c9
 932 5399 mt 1076 5399 L
1004 5327 mt 1004 5471 L
1587 4988 mt 1731 4988 L
1659 4916 mt 1659 5060 L
2242 4512 mt 2386 4512 L
2314 4440 mt 2314 4584 L
2897 4007 mt 3041 4007 L
2969 3935 mt 2969 4079 L
3552 3405 mt 3696 3405 L
3624 3333 mt 3624 3477 L
4207 2811 mt 4351 2811 L
4279 2739 mt 4279 2883 L
4862 2227 mt 5006 2227 L
4934 2155 mt 4934 2299 L
5517 1662 mt 5661 1662 L
5589 1590 mt 5589 1734 L
6172 1086 mt 6316 1086 L
6244 1014 mt 6244 1158 L
6827  527 mt 6971  527 L
6899  455 mt 6899  599 L
 954 5349 mt 1054 5449 L
1054 5349 mt  954 5449 L
1609 4938 mt 1709 5038 L
1709 4938 mt 1609 5038 L
2264 4462 mt 2364 4562 L
2364 4462 mt 2264 4562 L
2919 3957 mt 3019 4057 L
3019 3957 mt 2919 4057 L
3574 3355 mt 3674 3455 L
3674 3355 mt 3574 3455 L
4229 2761 mt 4329 2861 L
4329 2761 mt 4229 2861 L
4884 2177 mt 4984 2277 L
4984 2177 mt 4884 2277 L
5539 1612 mt 5639 1712 L
5639 1612 mt 5539 1712 L
6194 1036 mt 6294 1136 L
6294 1036 mt 6194 1136 L
6849  477 mt 6949  577 L
6949  477 mt 6849  577 L
gs 990 526 5910 5723 rc
/c10 { 1.000000 0.000000 1.000000 sr} bdef
c10
655 -643 655 -625 655 -680 655 -613 655 -601 655 -564 655 -507 655 -501 
655 -400 14 -10 990 5891 11 MP stroke
gr

c10
83 143 -166 0 83 -143 1004 5976 4 MP
DP
83 143 -166 0 83 -143 1659 5576 4 MP
DP
83 143 -166 0 83 -143 2314 5075 4 MP
DP
83 143 -166 0 83 -143 2969 4568 4 MP
DP
83 143 -166 0 83 -143 3624 4004 4 MP
DP
83 143 -166 0 83 -143 4279 3403 4 MP
DP
83 143 -166 0 83 -143 4934 2790 4 MP
DP
83 143 -166 0 83 -143 5589 2110 4 MP
DP
83 143 -166 0 83 -143 6244 1485 4 MP
DP
83 143 -166 0 83 -143 6899 842 4 MP
DP
gs 990 526 5910 5723 rc
6 w
gr

6 w
1 sg
0 1042 2763 0 0 -1042 2166 2055 4 MP
PP
-2763 0 0 1042 2763 0 0 -1042 2166 2055 5 MP stroke
4 w
DO
SO
6 w
0 sg
2166 2055 mt 4929 2055 L
2166 1013 mt 4929 1013 L
2166 2055 mt 2166 1013 L
4929 2055 mt 4929 1013 L
2166 2055 mt 4929 2055 L
2166 2055 mt 2166 1013 L
2166 2055 mt 4929 2055 L
2166 1013 mt 4929 1013 L
2166 2055 mt 2166 1013 L
4929 2055 mt 4929 1013 L
%%IncludeResource: font Helvetica
/Helvetica /ISOLatin1Encoding 192 FMSR

2646 1224 mt 
(CoSaMP) s
gs 2166 1013 2764 1043 rc
24 w
c8
370 0 2239 1155 2 MP stroke
gr

24 w
c8
gs 2254 985 341 341 rc
  72   72 2424 1155 FO
gr

gs 2166 1013 2764 1043 rc
gr

0 sg
2646 1472 mt 
(Modified_CoSaMP \() s
%%IncludeResource: font Symbol
/Symbol /ISOLatin1Encoding 192 FMSR

4363 1472 mt 
(m) s
%%IncludeResource: font Helvetica
/Helvetica /ISOLatin1Encoding 192 FMSR

4473 1472 mt 
(=0.5\)) s
gs 2166 1013 2764 1043 rc
370 0 2239 1402 2 MP stroke
gs 2254 1232 341 341 rc
0 -114 -114 0 0 114 114 0 2367 1345 5 MP
DP
gr

gr

2646 1725 mt 
(Modified_CoSaMP \() s
%%IncludeResource: font Symbol
/Symbol /ISOLatin1Encoding 192 FMSR

4363 1725 mt 
(m) s
%%IncludeResource: font Helvetica
/Helvetica /ISOLatin1Encoding 192 FMSR

4473 1725 mt 
(=0.6\)) s
gs 2166 1013 2764 1043 rc
c9
370 0 2239 1655 2 MP stroke
gs 2254 1485 341 341 rc
2352 1655 mt 2496 1655 L
2424 1583 mt 2424 1727 L
2374 1605 mt 2474 1705 L
2474 1605 mt 2374 1705 L
gr

gr

c9
0 sg
2646 1977 mt 
(Modified_CoSaMP \() s
%%IncludeResource: font Symbol
/Symbol /ISOLatin1Encoding 192 FMSR

4363 1977 mt 
(m) s
%%IncludeResource: font Helvetica
/Helvetica /ISOLatin1Encoding 192 FMSR

4473 1977 mt 
(=0.8\)) s
gs 2166 1013 2764 1043 rc
c10
370 0 2239 1907 2 MP stroke
gr

c10
gs 2254 1737 341 341 rc
83 143 -166 0 83 -143 2424 2002 4 MP
DP
gr

gs 2166 1013 2764 1043 rc
6 w
gr

6 w
/c11 { 0.000000 0.498039 0.000000 sr} bdef
c11
%%IncludeResource: font Helvetica
/Helvetica /ISOLatin1Encoding 240 FMSR

1644  884 mt 
(Noisy Measurement Case \(SMNR = 10 dB\)) s

end %%Color Dict

eplot
%%EndObject

epage
end

showpage

%%Trailer
%%EOF
