%!PS-Adobe-3.0 EPSF-3.0
%%Creator: MATLAB, The MathWorks, Inc. Version 7.11.0.584 (R2010b). Operating System: Linux 3.2.0-31-generic #50-Ubuntu SMP Fri Sep 7 16:16:45 UTC 2012 x86_64.
%%Title: /home/sooraj/Dropbox/Research/CompressedSensing/MatlabCodes/modifiedCoSaMP/resultFigures/Modified_CoSaMP_StdGaussianSMNR=15dB-SRER.eps
%%CreationDate: 09/28/2012  19:35:39
%%DocumentNeededFonts: Helvetica
%%DocumentProcessColors: Cyan Magenta Yellow Black
%%LanguageLevel: 2
%%Pages: 1
%%BoundingBox:   -20   128   615   713
%%EndComments

%%BeginProlog
% MathWorks dictionary
/MathWorks 160 dict begin
% definition operators
/bdef {bind def} bind def
/ldef {load def} bind def
/xdef {exch def} bdef
/xstore {exch store} bdef
% operator abbreviations
/c  /clip ldef
/cc /concat ldef
/cp /closepath ldef
/gr /grestore ldef
/gs /gsave ldef
/mt /moveto ldef
/np /newpath ldef
/cm /currentmatrix ldef
/sm /setmatrix ldef
/rm /rmoveto ldef
/rl /rlineto ldef
/s {show newpath} bdef
/sc {setcmykcolor} bdef
/sr /setrgbcolor ldef
/sg /setgray ldef
/w /setlinewidth ldef
/j /setlinejoin ldef
/cap /setlinecap ldef
/rc {rectclip} bdef
/rf {rectfill} bdef
% page state control
/pgsv () def
/bpage {/pgsv save def} bdef
/epage {pgsv restore} bdef
/bplot /gsave ldef
/eplot {stroke grestore} bdef
% orientation switch
/portraitMode 0 def /landscapeMode 1 def /rotateMode 2 def
% coordinate system mappings
/dpi2point 0 def
% font control
/FontSize 0 def
/FMS {/FontSize xstore findfont [FontSize 0 0 FontSize neg 0 0]
  makefont setfont} bdef
/reencode {exch dup where {pop load} {pop StandardEncoding} ifelse
  exch dup 3 1 roll findfont dup length dict begin
  { 1 index /FID ne {def}{pop pop} ifelse } forall
  /Encoding exch def currentdict end definefont pop} bdef
/isroman {findfont /CharStrings get /Agrave known} bdef
/FMSR {3 1 roll 1 index dup isroman {reencode} {pop pop} ifelse
  exch FMS} bdef
/csm {1 dpi2point div -1 dpi2point div scale neg translate
 dup landscapeMode eq {pop -90 rotate}
  {rotateMode eq {90 rotate} if} ifelse} bdef
% line types: solid, dotted, dashed, dotdash
/SO { [] 0 setdash } bdef
/DO { [.5 dpi2point mul 4 dpi2point mul] 0 setdash } bdef
/DA { [6 dpi2point mul] 0 setdash } bdef
/DD { [.5 dpi2point mul 4 dpi2point mul 6 dpi2point mul 4
  dpi2point mul] 0 setdash } bdef
% macros for lines and objects
/L {lineto stroke} bdef
/MP {3 1 roll moveto 1 sub {rlineto} repeat} bdef
/AP {{rlineto} repeat} bdef
/PDlw -1 def
/W {/PDlw currentlinewidth def setlinewidth} def
/PP {closepath eofill} bdef
/DP {closepath stroke} bdef
/MR {4 -2 roll moveto dup  0 exch rlineto exch 0 rlineto
  neg 0 exch rlineto closepath} bdef
/FR {MR stroke} bdef
/PR {MR fill} bdef
/L1i {{currentfile picstr readhexstring pop} image} bdef
/tMatrix matrix def
/MakeOval {newpath tMatrix currentmatrix pop translate scale
0 0 1 0 360 arc tMatrix setmatrix} bdef
/FO {MakeOval stroke} bdef
/PO {MakeOval fill} bdef
/PD {currentlinewidth 2 div 0 360 arc fill
   PDlw -1 eq not {PDlw w /PDlw -1 def} if} def
/FA {newpath tMatrix currentmatrix pop translate scale
  0 0 1 5 -2 roll arc tMatrix setmatrix stroke} bdef
/PA {newpath tMatrix currentmatrix pop	translate 0 0 moveto scale
  0 0 1 5 -2 roll arc closepath tMatrix setmatrix fill} bdef
/FAn {newpath tMatrix currentmatrix pop translate scale
  0 0 1 5 -2 roll arcn tMatrix setmatrix stroke} bdef
/PAn {newpath tMatrix currentmatrix pop translate 0 0 moveto scale
  0 0 1 5 -2 roll arcn closepath tMatrix setmatrix fill} bdef
/vradius 0 def /hradius 0 def /lry 0 def
/lrx 0 def /uly 0 def /ulx 0 def /rad 0 def
/MRR {/vradius xdef /hradius xdef /lry xdef /lrx xdef /uly xdef
  /ulx xdef newpath tMatrix currentmatrix pop ulx hradius add uly
  vradius add translate hradius vradius scale 0 0 1 180 270 arc 
  tMatrix setmatrix lrx hradius sub uly vradius add translate
  hradius vradius scale 0 0 1 270 360 arc tMatrix setmatrix
  lrx hradius sub lry vradius sub translate hradius vradius scale
  0 0 1 0 90 arc tMatrix setmatrix ulx hradius add lry vradius sub
  translate hradius vradius scale 0 0 1 90 180 arc tMatrix setmatrix
  closepath} bdef
/FRR {MRR stroke } bdef
/PRR {MRR fill } bdef
/MlrRR {/lry xdef /lrx xdef /uly xdef /ulx xdef /rad lry uly sub 2 div def
  newpath tMatrix currentmatrix pop ulx rad add uly rad add translate
  rad rad scale 0 0 1 90 270 arc tMatrix setmatrix lrx rad sub lry rad
  sub translate rad rad scale 0 0 1 270 90 arc tMatrix setmatrix
  closepath} bdef
/FlrRR {MlrRR stroke } bdef
/PlrRR {MlrRR fill } bdef
/MtbRR {/lry xdef /lrx xdef /uly xdef /ulx xdef /rad lrx ulx sub 2 div def
  newpath tMatrix currentmatrix pop ulx rad add uly rad add translate
  rad rad scale 0 0 1 180 360 arc tMatrix setmatrix lrx rad sub lry rad
  sub translate rad rad scale 0 0 1 0 180 arc tMatrix setmatrix
  closepath} bdef
/FtbRR {MtbRR stroke } bdef
/PtbRR {MtbRR fill } bdef
/stri 6 array def /dtri 6 array def
/smat 6 array def /dmat 6 array def
/tmat1 6 array def /tmat2 6 array def /dif 3 array def
/asub {/ind2 exch def /ind1 exch def dup dup
  ind1 get exch ind2 get sub exch } bdef
/tri_to_matrix {
  2 0 asub 3 1 asub 4 0 asub 5 1 asub
  dup 0 get exch 1 get 7 -1 roll astore } bdef
/compute_transform {
  dmat dtri tri_to_matrix tmat1 invertmatrix 
  smat stri tri_to_matrix tmat2 concatmatrix } bdef
/ds {stri astore pop} bdef
/dt {dtri astore pop} bdef
/db {2 copy /cols xdef /rows xdef mul dup 3 mul string
  currentfile 
  3 index 0 eq {/ASCIIHexDecode filter}
  {/ASCII85Decode filter 3 index 2 eq {/RunLengthDecode filter} if }
  ifelse exch readstring pop
  dup 0 3 index getinterval /rbmap xdef
  dup 2 index dup getinterval /gbmap xdef
  1 index dup 2 mul exch getinterval /bbmap xdef pop pop}bdef
/it {gs np dtri aload pop moveto lineto lineto cp c
  cols rows 8 compute_transform 
  rbmap gbmap bbmap true 3 colorimage gr}bdef
/il {newpath moveto lineto stroke}bdef
currentdict end def
%%EndProlog

%%BeginSetup
MathWorks begin

0 cap

end
%%EndSetup

%%Page: 1 1
%%BeginPageSetup
%%PageBoundingBox:   -20   128   615   713
MathWorks begin
bpage
%%EndPageSetup

%%BeginObject: obj1
bplot

/dpi2point 12 def
portraitMode -0240 8556 csm

    0     0  7623  7020 rc
87 dict begin %Colortable dictionary
/c0 { 0.000000 0.000000 0.000000 sr} bdef
/c1 { 1.000000 1.000000 1.000000 sr} bdef
/c2 { 0.900000 0.000000 0.000000 sr} bdef
/c3 { 0.000000 0.820000 0.000000 sr} bdef
/c4 { 0.000000 0.000000 0.800000 sr} bdef
/c5 { 0.910000 0.820000 0.320000 sr} bdef
/c6 { 1.000000 0.260000 0.820000 sr} bdef
/c7 { 0.000000 0.820000 0.820000 sr} bdef
c0
1 j
1 sg
   0    0 7624 7021 rf
6 w
0 5721 5909 0 0 -5721 990 6248 4 MP
PP
-5909 0 0 5721 5909 0 0 -5721 990 6248 5 MP stroke
4 w
DO
0 sg
1659 6248 mt 1659  527 L
1659  527 mt 1659  527 L
2969 6248 mt 2969  527 L
2969  527 mt 2969  527 L
4279 6248 mt 4279  527 L
4279  527 mt 4279  527 L
5589 6248 mt 5589  527 L
5589  527 mt 5589  527 L
6899 6248 mt 6899  527 L
6899  527 mt 6899  527 L
 990 6248 mt 6899 6248 L
6899 6248 mt 6899 6248 L
 990 5265 mt 6899 5265 L
6899 5265 mt 6899 5265 L
 990 4282 mt 6899 4282 L
6899 4282 mt 6899 4282 L
 990 3299 mt 6899 3299 L
6899 3299 mt 6899 3299 L
 990 2317 mt 6899 2317 L
6899 2317 mt 6899 2317 L
 990 1334 mt 6899 1334 L
6899 1334 mt 6899 1334 L
SO
6 w
 990 6248 mt 6899 6248 L
 990  527 mt 6899  527 L
 990 6248 mt  990  527 L
6899 6248 mt 6899  527 L
 990 6248 mt 6899 6248 L
 990 6248 mt  990  527 L
1659 6248 mt 1659 6188 L
1659  527 mt 1659  586 L
%%IncludeResource: font Helvetica
/Helvetica /ISOLatin1Encoding 216 FMSR

1449 6483 mt 
(0.12) s
2969 6248 mt 2969 6188 L
2969  527 mt 2969  586 L
2759 6483 mt 
(0.14) s
4279 6248 mt 4279 6188 L
4279  527 mt 4279  586 L
4069 6483 mt 
(0.16) s
5589 6248 mt 5589 6188 L
5589  527 mt 5589  586 L
5379 6483 mt 
(0.18) s
6899 6248 mt 6899 6188 L
6899  527 mt 6899  586 L
6749 6483 mt 
(0.2) s
 990 6248 mt 1050 6248 L
6899 6248 mt 6839 6248 L
 836 6328 mt 
(0) s
 990 5265 mt 1050 5265 L
6899 5265 mt 6839 5265 L
 836 5345 mt 
(2) s
 990 4282 mt 1050 4282 L
6899 4282 mt 6839 4282 L
 836 4362 mt 
(4) s
 990 3299 mt 1050 3299 L
6899 3299 mt 6839 3299 L
 836 3379 mt 
(6) s
 990 2317 mt 1050 2317 L
6899 2317 mt 6839 2317 L
 836 2397 mt 
(8) s
 990 1334 mt 1050 1334 L
6899 1334 mt 6839 1334 L
 716 1414 mt 
(10) s
 990 6248 mt 6899 6248 L
 990  527 mt 6899  527 L
 990 6248 mt  990  527 L
6899 6248 mt 6899  527 L
gs 990 527 5910 5722 rc
24 w
/c8 { 1.000000 0.000000 0.000000 sr} bdef
c8
655 -569 655 -599 655 -548 655 -512 655 -521 655 -448 655 -361 655 -316 
655 -407 14 -12 990 6090 11 MP stroke
gr

24 w
c8
gs 820 1627 6250 4634 rc
  72   72 1004 6078 FO
  72   72 1659 5671 FO
  72   72 2314 5355 FO
  72   72 2969 4994 FO
  72   72 3624 4546 FO
  72   72 4279 4025 FO
  72   72 4934 3513 FO
  72   72 5589 2965 FO
  72   72 6244 2366 FO
  72   72 6899 1797 FO
gr

gs 990 527 5910 5722 rc
gr

0 sg
2695 6697 mt 
(Fraction of Measurements) s
 613 4036 mt  -90 rotate
(SRER \(in dB\)) s
90 rotate
%%IncludeResource: font Helvetica
/Helvetica /ISOLatin1Encoding 120 FMSR

 959 6308 mt 
( ) s
6869  586 mt 
( ) s
gs 990 527 5910 5722 rc
655 -672 655 -689 655 -555 655 -610 655 -493 655 -423 655 -338 655 -281 
655 -220 14 -5 990 5652 11 MP stroke
gr

gs 820 1196 6250 4627 rc
0 j
0 -114 -114 0 0 114 114 0 947 5590 5 MP
DP
0 -114 -114 0 0 114 114 0 1602 5370 5 MP
DP
0 -114 -114 0 0 114 114 0 2257 5089 5 MP
DP
0 -114 -114 0 0 114 114 0 2912 4751 5 MP
DP
0 -114 -114 0 0 114 114 0 3567 4328 5 MP
DP
0 -114 -114 0 0 114 114 0 4222 3835 5 MP
DP
0 -114 -114 0 0 114 114 0 4877 3225 5 MP
DP
0 -114 -114 0 0 114 114 0 5532 2670 5 MP
DP
0 -114 -114 0 0 114 114 0 6187 1981 5 MP
DP
0 -114 -114 0 0 114 114 0 6842 1309 5 MP
DP
gr

gs 990 527 5910 5722 rc
/c9 { 0.000000 0.000000 1.000000 sr} bdef
c9
655 -595 655 -672 655 -660 655 -619 655 -594 655 -566 655 -464 655 -424 
655 -341 14 -7 990 5630 11 MP stroke
gr

c9
gs 820 518 6250 5283 rc
 932 5623 mt 1076 5623 L
1004 5551 mt 1004 5695 L
1587 5282 mt 1731 5282 L
1659 5210 mt 1659 5354 L
2242 4858 mt 2386 4858 L
2314 4786 mt 2314 4930 L
2897 4394 mt 3041 4394 L
2969 4322 mt 2969 4466 L
3552 3828 mt 3696 3828 L
3624 3756 mt 3624 3900 L
4207 3234 mt 4351 3234 L
4279 3162 mt 4279 3306 L
4862 2615 mt 5006 2615 L
4934 2543 mt 4934 2687 L
5517 1955 mt 5661 1955 L
5589 1883 mt 5589 2027 L
6172 1283 mt 6316 1283 L
6244 1211 mt 6244 1355 L
6827  688 mt 6971  688 L
6899  616 mt 6899  760 L
 954 5573 mt 1054 5673 L
1054 5573 mt  954 5673 L
1609 5232 mt 1709 5332 L
1709 5232 mt 1609 5332 L
2264 4808 mt 2364 4908 L
2364 4808 mt 2264 4908 L
2919 4344 mt 3019 4444 L
3019 4344 mt 2919 4444 L
3574 3778 mt 3674 3878 L
3674 3778 mt 3574 3878 L
4229 3184 mt 4329 3284 L
4329 3184 mt 4229 3284 L
4884 2565 mt 4984 2665 L
4984 2565 mt 4884 2665 L
5539 1905 mt 5639 2005 L
5639 1905 mt 5539 2005 L
6194 1233 mt 6294 1333 L
6294 1233 mt 6194 1333 L
6849  638 mt 6949  738 L
6949  638 mt 6849  738 L
gr

gs 990 527 5910 5722 rc
/c10 { 1.000000 0.000000 1.000000 sr} bdef
c10
655 -726 655 -748 655 -808 655 -686 655 -631 655 -563 655 -460 655 -381 
655 -323 14 -7 990 5860 11 MP stroke
gr

c10
gs 820 357 6250 5674 rc
0 j
83 143 -166 0 83 -143 1004 5948 4 MP
DP
83 143 -166 0 83 -143 1659 5625 4 MP
DP
83 143 -166 0 83 -143 2314 5244 4 MP
DP
83 143 -166 0 83 -143 2969 4784 4 MP
DP
83 143 -166 0 83 -143 3624 4221 4 MP
DP
83 143 -166 0 83 -143 4279 3590 4 MP
DP
83 143 -166 0 83 -143 4934 2904 4 MP
DP
83 143 -166 0 83 -143 5589 2096 4 MP
DP
83 143 -166 0 83 -143 6244 1348 4 MP
DP
83 143 -166 0 83 -143 6899 622 4 MP
DP
gr

gs 990 527 5910 5722 rc
6 w
gr

6 w
1 sg
0 1042 2763 0 0 -1042 2329 2164 4 MP
PP
-2763 0 0 1042 2763 0 0 -1042 2329 2164 5 MP stroke
4 w
DO
SO
6 w
0 sg
2329 2164 mt 5092 2164 L
2329 1122 mt 5092 1122 L
2329 2164 mt 2329 1122 L
5092 2164 mt 5092 1122 L
2329 2164 mt 5092 2164 L
2329 2164 mt 2329 1122 L
2329 2164 mt 5092 2164 L
2329 1122 mt 5092 1122 L
2329 2164 mt 2329 1122 L
5092 2164 mt 5092 1122 L
%%IncludeResource: font Helvetica
/Helvetica /ISOLatin1Encoding 192 FMSR

2809 1333 mt 
(CoSaMP) s
gs 2329 1122 2764 1043 rc
24 w
c8
370 0 2402 1264 2 MP stroke
gr

24 w
c8
gs 2417 1094 341 341 rc
  72   72 2587 1264 FO
gr

gs 2329 1122 2764 1043 rc
gr

0 sg
2809 1581 mt 
(Modified_CoSaMP \() s
%%IncludeResource: font Symbol
/Symbol /ISOLatin1Encoding 192 FMSR

4526 1581 mt 
(m) s
%%IncludeResource: font Helvetica
/Helvetica /ISOLatin1Encoding 192 FMSR

4636 1581 mt 
(=0.5\)) s
gs 2329 1122 2764 1043 rc
370 0 2402 1511 2 MP stroke
gs 2417 1341 341 341 rc
0 j
0 -114 -114 0 0 114 114 0 2530 1454 5 MP
DP
gr

gr

2809 1834 mt 
(Modified_CoSaMP \() s
%%IncludeResource: font Symbol
/Symbol /ISOLatin1Encoding 192 FMSR

4526 1834 mt 
(m) s
%%IncludeResource: font Helvetica
/Helvetica /ISOLatin1Encoding 192 FMSR

4636 1834 mt 
(=0.6\)) s
gs 2329 1122 2764 1043 rc
c9
370 0 2402 1764 2 MP stroke
gs 2417 1594 341 341 rc
2515 1764 mt 2659 1764 L
2587 1692 mt 2587 1836 L
2537 1714 mt 2637 1814 L
2637 1714 mt 2537 1814 L
gr

gr

c9
0 sg
2809 2086 mt 
(Modified_CoSaMP \() s
%%IncludeResource: font Symbol
/Symbol /ISOLatin1Encoding 192 FMSR

4526 2086 mt 
(m) s
%%IncludeResource: font Helvetica
/Helvetica /ISOLatin1Encoding 192 FMSR

4636 2086 mt 
(=0.8\)) s
gs 2329 1122 2764 1043 rc
c10
370 0 2402 2016 2 MP stroke
gr

c10
gs 2417 1846 341 341 rc
0 j
83 143 -166 0 83 -143 2587 2111 4 MP
DP
gr

gs 2329 1122 2764 1043 rc
6 w
gr

6 w
/c11 { 0.000000 0.498039 0.000000 sr} bdef
c11
%%IncludeResource: font Helvetica
/Helvetica /ISOLatin1Encoding 240 FMSR

1644  884 mt 
(Noisy Measurement Case \(SMNR = 15 dB\)) s

end %%Color Dict

eplot
%%EndObject

epage
end

showpage

%%Trailer
%%EOF
