%!PS-Adobe-3.0 EPSF-3.0
%%Creator: MATLAB, The MathWorks, Inc. Version 7.11.0.584 (R2010b). Operating System: Linux 3.2.0-31-generic #50-Ubuntu SMP Fri Sep 7 16:16:45 UTC 2012 x86_64.
%%Title: /home/sooraj/Dropbox/Research/CompressedSensing/MatlabCodes/modifiedCoSaMP/resultFigures/Modified_CoSaMP_StdGaussian-SRER.eps
%%CreationDate: 09/28/2012  19:36:01
%%DocumentNeededFonts: Helvetica
%%DocumentProcessColors: Cyan Magenta Yellow Black
%%LanguageLevel: 2
%%Pages: 1
%%BoundingBox:   -20   128   615   713
%%EndComments

%%BeginProlog
% MathWorks dictionary
/MathWorks 160 dict begin
% definition operators
/bdef {bind def} bind def
/ldef {load def} bind def
/xdef {exch def} bdef
/xstore {exch store} bdef
% operator abbreviations
/c  /clip ldef
/cc /concat ldef
/cp /closepath ldef
/gr /grestore ldef
/gs /gsave ldef
/mt /moveto ldef
/np /newpath ldef
/cm /currentmatrix ldef
/sm /setmatrix ldef
/rm /rmoveto ldef
/rl /rlineto ldef
/s {show newpath} bdef
/sc {setcmykcolor} bdef
/sr /setrgbcolor ldef
/sg /setgray ldef
/w /setlinewidth ldef
/j /setlinejoin ldef
/cap /setlinecap ldef
/rc {rectclip} bdef
/rf {rectfill} bdef
% page state control
/pgsv () def
/bpage {/pgsv save def} bdef
/epage {pgsv restore} bdef
/bplot /gsave ldef
/eplot {stroke grestore} bdef
% orientation switch
/portraitMode 0 def /landscapeMode 1 def /rotateMode 2 def
% coordinate system mappings
/dpi2point 0 def
% font control
/FontSize 0 def
/FMS {/FontSize xstore findfont [FontSize 0 0 FontSize neg 0 0]
  makefont setfont} bdef
/reencode {exch dup where {pop load} {pop StandardEncoding} ifelse
  exch dup 3 1 roll findfont dup length dict begin
  { 1 index /FID ne {def}{pop pop} ifelse } forall
  /Encoding exch def currentdict end definefont pop} bdef
/isroman {findfont /CharStrings get /Agrave known} bdef
/FMSR {3 1 roll 1 index dup isroman {reencode} {pop pop} ifelse
  exch FMS} bdef
/csm {1 dpi2point div -1 dpi2point div scale neg translate
 dup landscapeMode eq {pop -90 rotate}
  {rotateMode eq {90 rotate} if} ifelse} bdef
% line types: solid, dotted, dashed, dotdash
/SO { [] 0 setdash } bdef
/DO { [.5 dpi2point mul 4 dpi2point mul] 0 setdash } bdef
/DA { [6 dpi2point mul] 0 setdash } bdef
/DD { [.5 dpi2point mul 4 dpi2point mul 6 dpi2point mul 4
  dpi2point mul] 0 setdash } bdef
% macros for lines and objects
/L {lineto stroke} bdef
/MP {3 1 roll moveto 1 sub {rlineto} repeat} bdef
/AP {{rlineto} repeat} bdef
/PDlw -1 def
/W {/PDlw currentlinewidth def setlinewidth} def
/PP {closepath eofill} bdef
/DP {closepath stroke} bdef
/MR {4 -2 roll moveto dup  0 exch rlineto exch 0 rlineto
  neg 0 exch rlineto closepath} bdef
/FR {MR stroke} bdef
/PR {MR fill} bdef
/L1i {{currentfile picstr readhexstring pop} image} bdef
/tMatrix matrix def
/MakeOval {newpath tMatrix currentmatrix pop translate scale
0 0 1 0 360 arc tMatrix setmatrix} bdef
/FO {MakeOval stroke} bdef
/PO {MakeOval fill} bdef
/PD {currentlinewidth 2 div 0 360 arc fill
   PDlw -1 eq not {PDlw w /PDlw -1 def} if} def
/FA {newpath tMatrix currentmatrix pop translate scale
  0 0 1 5 -2 roll arc tMatrix setmatrix stroke} bdef
/PA {newpath tMatrix currentmatrix pop	translate 0 0 moveto scale
  0 0 1 5 -2 roll arc closepath tMatrix setmatrix fill} bdef
/FAn {newpath tMatrix currentmatrix pop translate scale
  0 0 1 5 -2 roll arcn tMatrix setmatrix stroke} bdef
/PAn {newpath tMatrix currentmatrix pop translate 0 0 moveto scale
  0 0 1 5 -2 roll arcn closepath tMatrix setmatrix fill} bdef
/vradius 0 def /hradius 0 def /lry 0 def
/lrx 0 def /uly 0 def /ulx 0 def /rad 0 def
/MRR {/vradius xdef /hradius xdef /lry xdef /lrx xdef /uly xdef
  /ulx xdef newpath tMatrix currentmatrix pop ulx hradius add uly
  vradius add translate hradius vradius scale 0 0 1 180 270 arc 
  tMatrix setmatrix lrx hradius sub uly vradius add translate
  hradius vradius scale 0 0 1 270 360 arc tMatrix setmatrix
  lrx hradius sub lry vradius sub translate hradius vradius scale
  0 0 1 0 90 arc tMatrix setmatrix ulx hradius add lry vradius sub
  translate hradius vradius scale 0 0 1 90 180 arc tMatrix setmatrix
  closepath} bdef
/FRR {MRR stroke } bdef
/PRR {MRR fill } bdef
/MlrRR {/lry xdef /lrx xdef /uly xdef /ulx xdef /rad lry uly sub 2 div def
  newpath tMatrix currentmatrix pop ulx rad add uly rad add translate
  rad rad scale 0 0 1 90 270 arc tMatrix setmatrix lrx rad sub lry rad
  sub translate rad rad scale 0 0 1 270 90 arc tMatrix setmatrix
  closepath} bdef
/FlrRR {MlrRR stroke } bdef
/PlrRR {MlrRR fill } bdef
/MtbRR {/lry xdef /lrx xdef /uly xdef /ulx xdef /rad lrx ulx sub 2 div def
  newpath tMatrix currentmatrix pop ulx rad add uly rad add translate
  rad rad scale 0 0 1 180 360 arc tMatrix setmatrix lrx rad sub lry rad
  sub translate rad rad scale 0 0 1 0 180 arc tMatrix setmatrix
  closepath} bdef
/FtbRR {MtbRR stroke } bdef
/PtbRR {MtbRR fill } bdef
/stri 6 array def /dtri 6 array def
/smat 6 array def /dmat 6 array def
/tmat1 6 array def /tmat2 6 array def /dif 3 array def
/asub {/ind2 exch def /ind1 exch def dup dup
  ind1 get exch ind2 get sub exch } bdef
/tri_to_matrix {
  2 0 asub 3 1 asub 4 0 asub 5 1 asub
  dup 0 get exch 1 get 7 -1 roll astore } bdef
/compute_transform {
  dmat dtri tri_to_matrix tmat1 invertmatrix 
  smat stri tri_to_matrix tmat2 concatmatrix } bdef
/ds {stri astore pop} bdef
/dt {dtri astore pop} bdef
/db {2 copy /cols xdef /rows xdef mul dup 3 mul string
  currentfile 
  3 index 0 eq {/ASCIIHexDecode filter}
  {/ASCII85Decode filter 3 index 2 eq {/RunLengthDecode filter} if }
  ifelse exch readstring pop
  dup 0 3 index getinterval /rbmap xdef
  dup 2 index dup getinterval /gbmap xdef
  1 index dup 2 mul exch getinterval /bbmap xdef pop pop}bdef
/it {gs np dtri aload pop moveto lineto lineto cp c
  cols rows 8 compute_transform 
  rbmap gbmap bbmap true 3 colorimage gr}bdef
/il {newpath moveto lineto stroke}bdef
currentdict end def
%%EndProlog

%%BeginSetup
MathWorks begin

0 cap

end
%%EndSetup

%%Page: 1 1
%%BeginPageSetup
%%PageBoundingBox:   -20   128   615   713
MathWorks begin
bpage
%%EndPageSetup

%%BeginObject: obj1
bplot

/dpi2point 12 def
portraitMode -0240 8556 csm

    0     0  7623  7020 rc
87 dict begin %Colortable dictionary
/c0 { 0.000000 0.000000 0.000000 sr} bdef
/c1 { 1.000000 1.000000 1.000000 sr} bdef
/c2 { 0.900000 0.000000 0.000000 sr} bdef
/c3 { 0.000000 0.820000 0.000000 sr} bdef
/c4 { 0.000000 0.000000 0.800000 sr} bdef
/c5 { 0.910000 0.820000 0.320000 sr} bdef
/c6 { 1.000000 0.260000 0.820000 sr} bdef
/c7 { 0.000000 0.820000 0.820000 sr} bdef
c0
1 j
1 sg
   0    0 7624 7021 rf
6 w
0 5721 5909 0 0 -5721 990 6248 4 MP
PP
-5909 0 0 5721 5909 0 0 -5721 990 6248 5 MP stroke
4 w
DO
0 sg
 990 6248 mt  990  527 L
 990  527 mt  990  527 L
2172 6248 mt 2172  527 L
2172  527 mt 2172  527 L
3354 6248 mt 3354  527 L
3354  527 mt 3354  527 L
4535 6248 mt 4535  527 L
4535  527 mt 4535  527 L
5717 6248 mt 5717  527 L
5717  527 mt 5717  527 L
6899 6248 mt 6899  527 L
6899  527 mt 6899  527 L
 990 6137 mt 6899 6137 L
6899 6137 mt 6899 6137 L
 990 5098 mt 6899 5098 L
6899 5098 mt 6899 5098 L
 990 4059 mt 6899 4059 L
6899 4059 mt 6899 4059 L
 990 3020 mt 6899 3020 L
6899 3020 mt 6899 3020 L
 990 1981 mt 6899 1981 L
6899 1981 mt 6899 1981 L
 990  942 mt 6899  942 L
6899  942 mt 6899  942 L
SO
6 w
 990 6248 mt 6899 6248 L
 990  527 mt 6899  527 L
 990 6248 mt  990  527 L
6899 6248 mt 6899  527 L
 990 6248 mt 6899 6248 L
 990 6248 mt  990  527 L
 990 6248 mt  990 6188 L
 990  527 mt  990  586 L
%%IncludeResource: font Helvetica
/Helvetica /ISOLatin1Encoding 216 FMSR

 840 6483 mt 
(0.1) s
2172 6248 mt 2172 6188 L
2172  527 mt 2172  586 L
1962 6483 mt 
(0.12) s
3354 6248 mt 3354 6188 L
3354  527 mt 3354  586 L
3144 6483 mt 
(0.14) s
4535 6248 mt 4535 6188 L
4535  527 mt 4535  586 L
4325 6483 mt 
(0.16) s
5717 6248 mt 5717 6188 L
5717  527 mt 5717  586 L
5507 6483 mt 
(0.18) s
6899 6248 mt 6899 6188 L
6899  527 mt 6899  586 L
6749 6483 mt 
(0.2) s
 990 6137 mt 1050 6137 L
6899 6137 mt 6839 6137 L
 836 6217 mt 
(0) s
 990 5098 mt 1050 5098 L
6899 5098 mt 6839 5098 L
 836 5178 mt 
(5) s
 990 4059 mt 1050 4059 L
6899 4059 mt 6839 4059 L
 716 4139 mt 
(10) s
 990 3020 mt 1050 3020 L
6899 3020 mt 6839 3020 L
 716 3100 mt 
(15) s
 990 1981 mt 1050 1981 L
6899 1981 mt 6839 1981 L
 716 2061 mt 
(20) s
 990  942 mt 1050  942 L
6899  942 mt 6839  942 L
 716 1022 mt 
(25) s
 990 6248 mt 6899 6248 L
 990  527 mt 6899  527 L
 990 6248 mt  990  527 L
6899 6248 mt 6899  527 L
gs 990 527 5910 5722 rc
24 w
/c8 { 1.000000 0.000000 0.000000 sr} bdef
c8
591 -913 591 -687 591 -663 591 -511 590 -420 591 -322 591 -240 591 -171 
591 -167 591 -257 990 6248 11 MP stroke
gr

24 w
c8
gs 820 1727 6250 4692 rc
  72   72  990 6248 FO
  72   72 1581 5991 FO
  72   72 2172 5824 FO
  72   72 2763 5653 FO
  72   72 3354 5413 FO
  72   72 3945 5091 FO
  72   72 4535 4671 FO
  72   72 5126 4160 FO
  72   72 5717 3497 FO
  72   72 6308 2810 FO
  72   72 6899 1897 FO
gr

gs 990 527 5910 5722 rc
gr

0 sg
2695 6697 mt 
(Fraction of Measurements) s
 613 4036 mt  -90 rotate
(SRER \(in dB\)) s
90 rotate
%%IncludeResource: font Helvetica
/Helvetica /ISOLatin1Encoding 120 FMSR

 959 6308 mt 
( ) s
6869  586 mt 
( ) s
gs 990 527 5910 5722 rc
591 -1008 591 -864 591 -707 591 -548 590 -398 591 -292 591 -215 591 -161 
591 -113 591 -105 990 5929 11 MP stroke
gr

gs 820 1348 6250 4752 rc
0 j
0 -114 -114 0 0 114 114 0 933 5872 5 MP
DP
0 -114 -114 0 0 114 114 0 1524 5767 5 MP
DP
0 -114 -114 0 0 114 114 0 2115 5654 5 MP
DP
0 -114 -114 0 0 114 114 0 2706 5493 5 MP
DP
0 -114 -114 0 0 114 114 0 3297 5278 5 MP
DP
0 -114 -114 0 0 114 114 0 3888 4986 5 MP
DP
0 -114 -114 0 0 114 114 0 4478 4588 5 MP
DP
0 -114 -114 0 0 114 114 0 5069 4040 5 MP
DP
0 -114 -114 0 0 114 114 0 5660 3333 5 MP
DP
0 -114 -114 0 0 114 114 0 6251 2469 5 MP
DP
0 -114 -114 0 0 114 114 0 6842 1461 5 MP
DP
gr

gs 990 527 5910 5722 rc
/c9 { 0.000000 0.000000 1.000000 sr} bdef
c9
591 -839 591 -963 591 -810 591 -658 590 -551 591 -441 591 -325 591 -258 
591 -194 591 -164 990 5945 11 MP stroke
gr

c9
gs 820 572 6250 5544 rc
 918 5945 mt 1062 5945 L
 990 5873 mt  990 6017 L
1509 5781 mt 1653 5781 L
1581 5709 mt 1581 5853 L
2100 5587 mt 2244 5587 L
2172 5515 mt 2172 5659 L
2691 5329 mt 2835 5329 L
2763 5257 mt 2763 5401 L
3282 5004 mt 3426 5004 L
3354 4932 mt 3354 5076 L
3873 4563 mt 4017 4563 L
3945 4491 mt 3945 4635 L
4463 4012 mt 4607 4012 L
4535 3940 mt 4535 4084 L
5054 3354 mt 5198 3354 L
5126 3282 mt 5126 3426 L
5645 2544 mt 5789 2544 L
5717 2472 mt 5717 2616 L
6236 1581 mt 6380 1581 L
6308 1509 mt 6308 1653 L
6827  742 mt 6971  742 L
6899  670 mt 6899  814 L
 940 5895 mt 1040 5995 L
1040 5895 mt  940 5995 L
1531 5731 mt 1631 5831 L
1631 5731 mt 1531 5831 L
2122 5537 mt 2222 5637 L
2222 5537 mt 2122 5637 L
2713 5279 mt 2813 5379 L
2813 5279 mt 2713 5379 L
3304 4954 mt 3404 5054 L
3404 4954 mt 3304 5054 L
3895 4513 mt 3995 4613 L
3995 4513 mt 3895 4613 L
4485 3962 mt 4585 4062 L
4585 3962 mt 4485 4062 L
5076 3304 mt 5176 3404 L
5176 3304 mt 5076 3404 L
5667 2494 mt 5767 2594 L
5767 2494 mt 5667 2594 L
6258 1531 mt 6358 1631 L
6358 1531 mt 6258 1631 L
6849  692 mt 6949  792 L
6949  692 mt 6849  792 L
gr

gs 990 527 5910 5722 rc
/c10 { 1.000000 0.000000 1.000000 sr} bdef
c10
591 -790 591 -850 591 -721 591 -609 590 -492 591 -414 591 -300 591 -247 
591 -180 591 -158 990 6025 11 MP stroke
gr

c10
gs 820 1094 6250 5102 rc
0 j
83 143 -166 0 83 -143 990 6120 4 MP
DP
83 143 -166 0 83 -143 1581 5962 4 MP
DP
83 143 -166 0 83 -143 2172 5782 4 MP
DP
83 143 -166 0 83 -143 2763 5535 4 MP
DP
83 143 -166 0 83 -143 3354 5235 4 MP
DP
83 143 -166 0 83 -143 3945 4821 4 MP
DP
83 143 -166 0 83 -143 4535 4329 4 MP
DP
83 143 -166 0 83 -143 5126 3720 4 MP
DP
83 143 -166 0 83 -143 5717 2999 4 MP
DP
83 143 -166 0 83 -143 6308 2149 4 MP
DP
83 143 -166 0 83 -143 6899 1359 4 MP
DP
gr

gs 990 527 5910 5722 rc
6 w
gr

6 w
1 sg
0 1042 2763 0 0 -1042 2650 2066 4 MP
PP
-2763 0 0 1042 2763 0 0 -1042 2650 2066 5 MP stroke
4 w
DO
SO
6 w
0 sg
2650 2066 mt 5413 2066 L
2650 1024 mt 5413 1024 L
2650 2066 mt 2650 1024 L
5413 2066 mt 5413 1024 L
2650 2066 mt 5413 2066 L
2650 2066 mt 2650 1024 L
2650 2066 mt 5413 2066 L
2650 1024 mt 5413 1024 L
2650 2066 mt 2650 1024 L
5413 2066 mt 5413 1024 L
%%IncludeResource: font Helvetica
/Helvetica /ISOLatin1Encoding 192 FMSR

3130 1235 mt 
(CoSaMP) s
gs 2650 1024 2764 1043 rc
24 w
c8
370 0 2723 1166 2 MP stroke
gr

24 w
c8
gs 2738 996 341 341 rc
  72   72 2908 1166 FO
gr

gs 2650 1024 2764 1043 rc
gr

0 sg
3130 1483 mt 
(Modified_CoSaMP \() s
%%IncludeResource: font Symbol
/Symbol /ISOLatin1Encoding 192 FMSR

4847 1483 mt 
(m) s
%%IncludeResource: font Helvetica
/Helvetica /ISOLatin1Encoding 192 FMSR

4957 1483 mt 
(=0.5\)) s
gs 2650 1024 2764 1043 rc
370 0 2723 1413 2 MP stroke
gs 2738 1243 341 341 rc
0 j
0 -114 -114 0 0 114 114 0 2851 1356 5 MP
DP
gr

gr

3130 1736 mt 
(Modified_CoSaMP \() s
%%IncludeResource: font Symbol
/Symbol /ISOLatin1Encoding 192 FMSR

4847 1736 mt 
(m) s
%%IncludeResource: font Helvetica
/Helvetica /ISOLatin1Encoding 192 FMSR

4957 1736 mt 
(=0.6\)) s
gs 2650 1024 2764 1043 rc
c9
370 0 2723 1666 2 MP stroke
gs 2738 1496 341 341 rc
2836 1666 mt 2980 1666 L
2908 1594 mt 2908 1738 L
2858 1616 mt 2958 1716 L
2958 1616 mt 2858 1716 L
gr

gr

c9
0 sg
3130 1988 mt 
(Modified_CoSaMP \() s
%%IncludeResource: font Symbol
/Symbol /ISOLatin1Encoding 192 FMSR

4847 1988 mt 
(m) s
%%IncludeResource: font Helvetica
/Helvetica /ISOLatin1Encoding 192 FMSR

4957 1988 mt 
(=0.8\)) s
gs 2650 1024 2764 1043 rc
c10
370 0 2723 1918 2 MP stroke
gr

c10
gs 2738 1748 341 341 rc
0 j
83 143 -166 0 83 -143 2908 2013 4 MP
DP
gr

gs 2650 1024 2764 1043 rc
6 w
gr

6 w
/c11 { 0.000000 0.498039 0.000000 sr} bdef
c11
%%IncludeResource: font Helvetica
/Helvetica /ISOLatin1Encoding 240 FMSR

2634  870 mt 
(Clean Measurement Case) s

end %%Color Dict

eplot
%%EndObject

epage
end

showpage

%%Trailer
%%EOF
